digraph g
{

  /* list of nodes */
  "aacA-aphD";
  "aadE";
  "birA";
  "cat";
  "clpE";
  "cpdA";
  "cspC";
  "cvfB";
  "dexB";
  "erm";
  "fic";
  "fur";
  "gmuE";
  "group_100";
  "group_101";
  "group_102";
  "group_103";
  "group_104";
  "group_105";
  "group_106";
  "group_107";
  "group_108";
  "group_109";
  "group_110";
  "group_111";
  "group_112";
  "group_113";
  "group_114";
  "group_115";
  "group_116";
  "group_117";
  "group_118";
  "group_119";
  "group_120";
  "group_121";
  "group_122";
  "group_123";
  "group_124";
  "group_125";
  "group_126";
  "group_127";
  "group_128";
  "group_129";
  "group_13";
  "group_130";
  "group_131";
  "group_132";
  "group_133";
  "group_134";
  "group_135";
  "group_137";
  "group_138";
  "group_139";
  "group_140";
  "group_141";
  "group_142";
  "group_143";
  "group_144";
  "group_145";
  "group_146";
  "group_147";
  "group_148";
  "group_149";
  "group_15";
  "group_150";
  "group_151";
  "group_153";
  "group_155";
  "group_156";
  "group_157";
  "group_158";
  "group_159";
  "group_16";
  "group_161";
  "group_162";
  "group_163";
  "group_164";
  "group_165";
  "group_166";
  "group_167";
  "group_168";
  "group_170";
  "group_171";
  "group_173";
  "group_175";
  "group_179";
  "group_180";
  "group_181";
  "group_183";
  "group_184";
  "group_185";
  "group_188";
  "group_189";
  "group_19";
  "group_190";
  "group_193";
  "group_194";
  "group_195";
  "group_196";
  "group_197";
  "group_198";
  "group_199";
  "group_20";
  "group_200";
  "group_201";
  "group_205";
  "group_206";
  "group_207";
  "group_208";
  "group_21";
  "group_210";
  "group_211";
  "group_212";
  "group_213";
  "group_214";
  "group_215";
  "group_216";
  "group_217";
  "group_218";
  "group_219";
  "group_22";
  "group_220";
  "group_221";
  "group_222";
  "group_223";
  "group_225";
  "group_226";
  "group_228";
  "group_229";
  "group_230";
  "group_231";
  "group_232";
  "group_233";
  "group_235";
  "group_236";
  "group_237";
  "group_238";
  "group_239";
  "group_240";
  "group_241";
  "group_242";
  "group_243";
  "group_245";
  "group_246";
  "group_247";
  "group_248";
  "group_249";
  "group_25";
  "group_250";
  "group_252";
  "group_254";
  "group_256";
  "group_257";
  "group_258";
  "group_259";
  "group_26";
  "group_260";
  "group_261";
  "group_262";
  "group_264";
  "group_265";
  "group_266";
  "group_267";
  "group_268";
  "group_269";
  "group_27";
  "group_271";
  "group_272";
  "group_274";
  "group_275";
  "group_278";
  "group_279";
  "group_28";
  "group_280";
  "group_281";
  "group_282";
  "group_283";
  "group_285";
  "group_286";
  "group_287";
  "group_288";
  "group_289";
  "group_290";
  "group_291";
  "group_292";
  "group_293";
  "group_294";
  "group_295";
  "group_296";
  "group_297";
  "group_298";
  "group_299";
  "group_300";
  "group_301";
  "group_302";
  "group_303";
  "group_304";
  "group_305";
  "group_306";
  "group_307";
  "group_308";
  "group_309";
  "group_31";
  "group_310";
  "group_311";
  "group_312";
  "group_313";
  "group_314";
  "group_315";
  "group_316";
  "group_317";
  "group_319";
  "group_32";
  "group_320";
  "group_321";
  "group_322";
  "group_323";
  "group_324";
  "group_325";
  "group_326";
  "group_327";
  "group_328";
  "group_329";
  "group_33";
  "group_330";
  "group_331";
  "group_332";
  "group_333";
  "group_334";
  "group_335";
  "group_337";
  "group_338";
  "group_339";
  "group_34";
  "group_340";
  "group_341";
  "group_342";
  "group_343";
  "group_344";
  "group_345";
  "group_346";
  "group_347";
  "group_348";
  "group_349";
  "group_35";
  "group_350";
  "group_351";
  "group_352";
  "group_353";
  "group_354";
  "group_355";
  "group_356";
  "group_358";
  "group_36";
  "group_361";
  "group_362";
  "group_364";
  "group_365";
  "group_366";
  "group_367";
  "group_368";
  "group_369";
  "group_37";
  "group_370";
  "group_371";
  "group_372";
  "group_373";
  "group_374";
  "group_375";
  "group_376";
  "group_377";
  "group_379";
  "group_38";
  "group_380";
  "group_381";
  "group_382";
  "group_383";
  "group_384";
  "group_385";
  "group_386";
  "group_387";
  "group_388";
  "group_389";
  "group_39";
  "group_390";
  "group_391";
  "group_392";
  "group_393";
  "group_394";
  "group_395";
  "group_396";
  "group_397";
  "group_398";
  "group_399";
  "group_400";
  "group_401";
  "group_402";
  "group_403";
  "group_404";
  "group_405";
  "group_406";
  "group_407";
  "group_408";
  "group_409";
  "group_410";
  "group_411";
  "group_412";
  "group_413";
  "group_414";
  "group_415";
  "group_416";
  "group_417";
  "group_418";
  "group_419";
  "group_420";
  "group_421";
  "group_422";
  "group_423";
  "group_424";
  "group_425";
  "group_426";
  "group_427";
  "group_428";
  "group_429";
  "group_430";
  "group_431";
  "group_432";
  "group_433";
  "group_434";
  "group_435";
  "group_436";
  "group_437";
  "group_438";
  "group_439";
  "group_44";
  "group_440";
  "group_441";
  "group_442";
  "group_443";
  "group_444";
  "group_445";
  "group_446";
  "group_447";
  "group_448";
  "group_449";
  "group_45";
  "group_450";
  "group_451";
  "group_452";
  "group_453";
  "group_454";
  "group_455";
  "group_456";
  "group_458";
  "group_459";
  "group_460";
  "group_461";
  "group_462";
  "group_463";
  "group_464";
  "group_465";
  "group_466";
  "group_467";
  "group_468";
  "group_469";
  "group_47";
  "group_470";
  "group_471";
  "group_472";
  "group_473";
  "group_474";
  "group_475";
  "group_478";
  "group_479";
  "group_48";
  "group_480";
  "group_481";
  "group_482";
  "group_484";
  "group_485";
  "group_486";
  "group_487";
  "group_488";
  "group_489";
  "group_49";
  "group_491";
  "group_492";
  "group_50";
  "group_53";
  "group_55";
  "group_57";
  "group_58";
  "group_59";
  "group_6";
  "group_60";
  "group_61";
  "group_62";
  "group_63";
  "group_69";
  "group_70";
  "group_71";
  "group_72";
  "group_74";
  "group_76";
  "group_78";
  "group_81";
  "group_83";
  "group_84";
  "group_85";
  "group_89";
  "group_90";
  "group_92";
  "group_93";
  "group_95";
  "group_96";
  "group_97";
  "group_99";
  "guaA";
  "lacY";
  "marR";
  "mob_13";
  "mob_3";
  "msmK";
  "murI";
  "nagJ";
  "oppD";
  "panB";
  "panC";
  "panD";
  "prgN_1";
  "prgN_2";
  "proX";
  "radC";
  "relE_2";
  "repA";
  "repB_1";
  "repB_5";
  "rep_1";
  "rep_2";
  "sat4";
  "scrR";
  "scrR_1";
  "smc";
  "ssb";
  "sspP";
  "traE1";
  "uvrA";
  "vanRB_1";
  "vanRB_2";
  "vanSB";
  "vanZ_1";
  "xerC_1";
  "xerC_2";
  "xerC_3";
  "xerS";
  "ybjI_1";
  "ybjI_2";
  "yjaB";

  /* list of edges */
  "aacA-aphD" -> "aacA-aphD" [weight = "10"];
  "aadE" -> "sat4" [weight = "0.0762388818297332"];
  "birA" -> "birA" [weight = "0.67741935483871"];
  "cat" -> "aacA-aphD" [weight = "0.224598930481283"];
  "cat" -> "cat" [weight = "0.089171974522293"];
  "cpdA" -> "group_190" [weight = "0.114410242440752"];
  "cvfB" -> "fur" [weight = "1"];
  "dexB" -> "group_141" [weight = "0.0910273081924577"];
  "dexB" -> "group_142" [weight = "0.199430199430199"];
  "erm" -> "group_171" [weight = "0.189873417721519"];
  "erm" -> "group_173" [weight = "1"];
  "fic" -> "group_233" [weight = "0.0625"];
  "group_100" -> "group_100" [weight = "0.318181818181818"];
  "group_100" -> "group_102" [weight = "1"];
  "group_100" -> "group_243" [weight = "1"];
  "group_101" -> "group_101" [weight = "10"];
  "group_103" -> "group_395" [weight = "0.909090909090909"];
  "group_103" -> "group_396" [weight = "0.625"];
  "group_104" -> "group_429" [weight = "0.714285714285714"];
  "group_104" -> "group_430" [weight = "0.4"];
  "group_105" -> "group_435" [weight = "0.666666666666667"];
  "group_106" -> "group_449" [weight = "0.4"];
  "group_107" -> "group_198" [weight = "7"];
  "group_107" -> "group_351" [weight = "1"];
  "group_107" -> "group_491" [weight = "1"];
  "group_109" -> "group_108" [weight = "0.0892857142857143"];
  "group_110" -> "group_291" [weight = "1"];
  "group_110" -> "group_57" [weight = "0.263157894736842"];
  "group_111" -> "group_112" [weight = "0.263157894736842"];
  "group_111" -> "group_58" [weight = "0.0892857142857143"];
  "group_112" -> "group_59" [weight = "0.263157894736842"];
  "group_113" -> "group_37" [weight = "0.357142857142857"];
  "group_114" -> "group_113" [weight = "0.0892857142857143"];
  "group_114" -> "group_115" [weight = "0.0980392156862746"];
  "group_116" -> "group_114" [weight = "1"];
  "group_116" -> "group_115" [weight = "0.0980392156862746"];
  "group_117" -> "group_116" [weight = "0.357142857142857"];
  "group_118" -> "group_117" [weight = "3.75"];
  "group_118" -> "group_119" [weight = "0.208333333333333"];
  "group_118" -> "group_305" [weight = "1"];
  "group_118" -> "group_60" [weight = "0.0914634146341464"];
  "group_119" -> "group_304" [weight = "1"];
  "group_119" -> "group_61" [weight = "0.263157894736842"];
  "group_121" -> "group_120" [weight = "0.357142857142857"];
  "group_122" -> "group_121" [weight = "0.0892857142857143"];
  "group_122" -> "group_123" [weight = "0.357142857142857"];
  "group_123" -> "group_124" [weight = "0.0892857142857143"];
  "group_124" -> "group_124" [weight = "1"];
  "group_124" -> "group_125" [weight = "0.357142857142857"];
  "group_125" -> "group_126" [weight = "0.357142857142857"];
  "group_126" -> "group_127" [weight = "0.357142857142857"];
  "group_128" -> "group_38" [weight = "0.0892857142857143"];
  "group_128" -> "group_63" [weight = "0.263157894736842"];
  "group_130" -> "group_130" [weight = "10"];
  "group_130" -> "group_464" [weight = "1"];
  "group_130" -> "traE1" [weight = "0.0892857142857143"];
  "group_132" -> "group_131" [weight = "0.100143061516452"];
  "group_133" -> "group_132" [weight = "0.100143061516452"];
  "group_133" -> "group_134" [weight = "0.166270783847981"];
  "group_134" -> "group_135" [weight = "0.166270783847981"];
  "group_137" -> "group_138" [weight = "0.166270783847981"];
  "group_138" -> "group_139" [weight = "0.199430199430199"];
  "group_13" -> "group_13" [weight = "1.30434782608696"];
  "group_13" -> "group_16" [weight = "0.857142857142857"];
  "group_13" -> "group_285" [weight = "0.909090909090909"];
  "group_13" -> "group_286" [weight = "1.13207547169811"];
  "group_13" -> "group_89" [weight = "1.68674698795181"];
  "group_13" -> "group_99" [weight = "1"];
  "group_140" -> "group_139" [weight = "0.0910273081924577"];
  "group_141" -> "group_140" [weight = "0.0910273081924577"];
  "group_142" -> "group_143" [weight = "0.199430199430199"];
  "group_144" -> "group_143" [weight = "0.199430199430199"];
  "group_144" -> "group_145" [weight = "0.0910273081924577"];
  "group_146" -> "group_145" [weight = "0.0910273081924577"];
  "group_146" -> "group_147" [weight = "0.199430199430199"];
  "group_148" -> "group_147" [weight = "0.199430199430199"];
  "group_148" -> "group_149" [weight = "0.0910273081924577"];
  "group_150" -> "group_149" [weight = "0.199430199430199"];
  "group_151" -> "group_150" [weight = "0.0910273081924577"];
  "group_153" -> "xerC_2" [weight = "0.199430199430199"];
  "group_155" -> "xerC_2" [weight = "0.199430199430199"];
  "group_157" -> "group_156" [weight = "0.709459459459459"];
  "group_157" -> "group_39" [weight = "0.0645557946510913"];
  "group_158" -> "group_39" [weight = "0.0645557946510913"];
  "group_15" -> "group_15" [weight = "1.66666666666667"];
  "group_15" -> "group_53" [weight = "1.76470588235294"];
  "group_161" -> "group_162" [weight = "0.0645557946510913"];
  "group_161" -> "rep_1" [weight = "0.709459459459459"];
  "group_163" -> "group_162" [weight = "0.0645557946510913"];
  "group_163" -> "group_164" [weight = "0.709459459459459"];
  "group_166" -> "group_167" [weight = "0.0628930817610063"];
  "group_168" -> "gmuE" [weight = "1"];
  "group_16" -> "group_16" [weight = "1.2"];
  "group_16" -> "group_89" [weight = "0.118946474086661"];
  "group_170" -> "erm" [weight = "0.0955414012738854"];
  "group_170" -> "gmuE" [weight = "0.0628930817610063"];
  "group_170" -> "group_171" [weight = "1"];
  "group_175" -> "yjaB" [weight = "0.0671140939597315"];
  "group_180" -> "group_70" [weight = "0.0671140939597315"];
  "group_181" -> "group_180" [weight = "0.0671140939597315"];
  "group_181" -> "proX" [weight = "1"];
  "group_183" -> "group_184" [weight = "1"];
  "group_185" -> "group_184" [weight = "0.0671140939597315"];
  "group_185" -> "group_323" [weight = "1"];
  "group_188" -> "group_188" [weight = "1"];
  "group_188" -> "prgN_1" [weight = "0.198675496688742"];
  "group_190" -> "group_189" [weight = "0.137750081994096"];
  "group_194" -> "group_193" [weight = "0.137750081994096"];
  "group_194" -> "group_195" [weight = "0.114410242440752"];
  "group_196" -> "group_195" [weight = "0.114410242440752"];
  "group_196" -> "group_197" [weight = "2.25806451612903"];
  "group_197" -> "group_465" [weight = "1"];
  "group_199" -> "group_200" [weight = "0.0625"];
  "group_199" -> "group_33" [weight = "0.189189189189189"];
  "group_19" -> "group_19" [weight = "0.356536502546689"];
  "group_200" -> "group_201" [weight = "0.0625"];
  "group_201" -> "panD" [weight = "0.0625"];
  "group_205" -> "panB" [weight = "0.0625"];
  "group_206" -> "group_205" [weight = "0.0625"];
  "group_206" -> "group_26" [weight = "0.333333333333333"];
  "group_207" -> "group_208" [weight = "0.0673076923076923"];
  "group_211" -> "group_212" [weight = "0.5"];
  "group_213" -> "group_76" [weight = "0.120412844036697"];
  "group_214" -> "group_213" [weight = "0.120412844036697"];
  "group_214" -> "group_365" [weight = "0.466666666666667"];
  "group_216" -> "group_272" [weight = "0.0987770460959549"];
  "group_216" -> "group_478" [weight = "0.264817150063052"];
  "group_217" -> "group_218" [weight = "0.0719424460431655"];
  "group_219" -> "group_218" [weight = "0.0719424460431655"];
  "group_219" -> "group_78" [weight = "0.0719424460431655"];
  "group_21" -> "group_120" [weight = "0.357142857142857"];
  "group_21" -> "group_21" [weight = "0.5"];
  "group_21" -> "group_62" [weight = "0.0892857142857143"];
  "group_221" -> "group_220" [weight = "0.0687285223367698"];
  "group_222" -> "group_221" [weight = "0.0687285223367698"];
  "group_223" -> "aadE" [weight = "0.425531914893617"];
  "group_223" -> "group_222" [weight = "0.0687285223367698"];
  "group_225" -> "group_226" [weight = "0.428571428571429"];
  "group_228" -> "group_352" [weight = "1"];
  "group_22" -> "group_22" [weight = "6"];
  "group_230" -> "group_231" [weight = "1"];
  "group_231" -> "group_232" [weight = "0.0671140939597315"];
  "group_235" -> "fic" [weight = "0.0625"];
  "group_235" -> "group_236" [weight = "0.0681818181818182"];
  "group_238" -> "group_237" [weight = "0.0740740740740741"];
  "group_240" -> "group_240" [weight = "0.082256169212691"];
  "group_240" -> "group_83" [weight = "0.573770491803279"];
  "group_241" -> "group_242" [weight = "0.875"];
  "group_243" -> "group_242" [weight = "0.875"];
  "group_245" -> "group_246" [weight = "0.105633802816901"];
  "group_245" -> "marR" [weight = "0.105633802816901"];
  "group_247" -> "group_252" [weight = "0.75"];
  "group_247" -> "group_6" [weight = "7"];
  "group_247" -> "group_84" [weight = "0.0691244239631337"];
  "group_248" -> "group_248" [weight = "0.0802139037433155"];
  "group_249" -> "group_249" [weight = "0.5"];
  "group_250" -> "group_249" [weight = "0.189104007203962"];
  "group_250" -> "group_250" [weight = "0.857142857142857"];
  "group_252" -> "group_252" [weight = "0.260223048327138"];
  "group_254" -> "group_254" [weight = "0.857142857142857"];
  "group_256" -> "group_257" [weight = "0.0833333333333334"];
  "group_256" -> "vanRB_1" [weight = "0.0833333333333334"];
  "group_257" -> "group_258" [weight = "0.0833333333333334"];
  "group_259" -> "group_258" [weight = "0.0833333333333334"];
  "group_259" -> "group_260" [weight = "0.0833333333333334"];
  "group_25" -> "group_72" [weight = "10"];
  "group_25" -> "relE_2" [weight = "0.0804289544235925"];
  "group_260" -> "group_261" [weight = "0.0833333333333334"];
  "group_261" -> "group_262" [weight = "0.0833333333333334"];
  "group_262" -> "nagJ" [weight = "0.0833333333333334"];
  "group_265" -> "group_266" [weight = "2.44186046511628"];
  "group_266" -> "group_267" [weight = "2.44186046511628"];
  "group_267" -> "group_268" [weight = "2.44186046511628"];
  "group_269" -> "group_248" [weight = "0.857142857142857"];
  "group_269" -> "group_269" [weight = "0.28169014084507"];
  "group_269" -> "group_76" [weight = "0.75"];
  "group_26" -> "group_26" [weight = "1"];
  "group_271" -> "group_92" [weight = "1"];
  "group_271" -> "scrR" [weight = "0.177215189873418"];
  "group_272" -> "group_217" [weight = "0.0987770460959549"];
  "group_274" -> "group_274" [weight = "0.75"];
  "group_274" -> "group_31" [weight = "6"];
  "group_275" -> "group_275" [weight = "0.123311802701116"];
  "group_278" -> "group_279" [weight = "0.769230769230769"];
  "group_278" -> "sspP" [weight = "0.168067226890756"];
  "group_27" -> "group_27" [weight = "1"];
  "group_280" -> "group_279" [weight = "0.173913043478261"];
  "group_280" -> "group_281" [weight = "0.168067226890756"];
  "group_280" -> "group_479" [weight = "5"];
  "group_282" -> "group_281" [weight = "0.170940170940171"];
  "group_282" -> "group_283" [weight = "0.173913043478261"];
  "group_283" -> "repB_1" [weight = "0.170940170940171"];
  "group_285" -> "group_286" [weight = "0.344827586206897"];
  "group_285" -> "repB_1" [weight = "0.833333333333333"];
  "group_286" -> "group_99" [weight = "7"];
  "group_288" -> "group_287" [weight = "1"];
  "group_288" -> "group_289" [weight = "1"];
  "group_289" -> "group_290" [weight = "1"];
  "group_28" -> "group_27" [weight = "2.25806451612903"];
  "group_28" -> "group_28" [weight = "1.55555555555556"];
  "group_292" -> "group_59" [weight = "1"];
  "group_293" -> "group_292" [weight = "1"];
  "group_293" -> "group_294" [weight = "1"];
  "group_296" -> "group_295" [weight = "1"];
  "group_296" -> "group_297" [weight = "1"];
  "group_297" -> "group_298" [weight = "1"];
  "group_299" -> "group_300" [weight = "1"];
  "group_301" -> "group_302" [weight = "1"];
  "group_302" -> "group_303" [weight = "1"];
  "group_307" -> "group_307" [weight = "1"];
  "group_309" -> "group_308" [weight = "1"];
  "group_309" -> "group_310" [weight = "1"];
  "group_310" -> "group_311" [weight = "1"];
  "group_313" -> "sspP" [weight = "0.120724346076459"];
  "group_314" -> "group_315" [weight = "1"];
  "group_319" -> "group_22" [weight = "0.5"];
  "group_319" -> "group_248" [weight = "0.731707317073171"];
  "group_31" -> "group_155" [weight = "1"];
  "group_320" -> "group_321" [weight = "1"];
  "group_324" -> "group_324" [weight = "6"];
  "group_325" -> "group_326" [weight = "2"];
  "group_327" -> "group_326" [weight = "2"];
  "group_327" -> "group_328" [weight = "2"];
  "group_328" -> "group_329" [weight = "2"];
  "group_32" -> "group_28" [weight = "0.178419711129991"];
  "group_32" -> "group_32" [weight = "1.5"];
  "group_330" -> "group_329" [weight = "2"];
  "group_331" -> "group_330" [weight = "2"];
  "group_332" -> "group_97" [weight = "4.11764705882353"];
  "group_332" -> "group_99" [weight = "4.11764705882353"];
  "group_333" -> "group_334" [weight = "3"];
  "group_337" -> "group_338" [weight = "1"];
  "group_337" -> "vanZ_1" [weight = "1"];
  "group_338" -> "group_339" [weight = "1"];
  "group_339" -> "group_340" [weight = "1"];
  "group_33" -> "group_33" [weight = "1"];
  "group_340" -> "group_341" [weight = "1"];
  "group_342" -> "group_341" [weight = "1"];
  "group_343" -> "group_342" [weight = "1"];
  "group_343" -> "group_344" [weight = "1"];
  "group_344" -> "group_345" [weight = "1"];
  "group_345" -> "group_346" [weight = "1"];
  "group_347" -> "group_346" [weight = "1"];
  "group_347" -> "group_348" [weight = "1"];
  "group_348" -> "group_349" [weight = "1"];
  "group_349" -> "group_350" [weight = "1"];
  "group_34" -> "group_34" [weight = "3"];
  "group_353" -> "group_354" [weight = "0.333333333333333"];
  "group_355" -> "group_352" [weight = "1"];
  "group_355" -> "group_356" [weight = "1"];
  "group_358" -> "group_358" [weight = "1"];
  "group_358" -> "group_95" [weight = "1"];
  "group_35" -> "group_35" [weight = "10"];
  "group_361" -> "group_361" [weight = "1"];
  "group_362" -> "group_362" [weight = "1"];
  "group_364" -> "group_364" [weight = "0.23463687150838"];
  "group_365" -> "group_96" [weight = "1"];
  "group_366" -> "group_366" [weight = "1"];
  "group_367" -> "group_367" [weight = "1"];
  "group_368" -> "group_368" [weight = "1"];
  "group_369" -> "group_369" [weight = "1"];
  "group_36" -> "group_36" [weight = "5"];
  "group_370" -> "group_13" [weight = "7"];
  "group_372" -> "group_371" [weight = "0.714285714285714"];
  "group_373" -> "group_372" [weight = "0.714285714285714"];
  "group_373" -> "group_374" [weight = "0.625"];
  "group_374" -> "group_375" [weight = "0.714285714285714"];
  "group_376" -> "group_375" [weight = "0.714285714285714"];
  "group_376" -> "group_377" [weight = "0.625"];
  "group_377" -> "radC" [weight = "0.625"];
  "group_379" -> "group_380" [weight = "0.625"];
  "group_37" -> "group_59" [weight = "0.0892857142857143"];
  "group_381" -> "group_380" [weight = "0.625"];
  "group_382" -> "group_381" [weight = "0.714285714285714"];
  "group_382" -> "group_383" [weight = "0.625"];
  "group_383" -> "group_384" [weight = "0.625"];
  "group_385" -> "group_384" [weight = "0.714285714285714"];
  "group_386" -> "group_385" [weight = "0.714285714285714"];
  "group_386" -> "group_387" [weight = "0.625"];
  "group_387" -> "group_388" [weight = "0.625"];
  "group_389" -> "group_388" [weight = "0.714285714285714"];
  "group_389" -> "group_390" [weight = "0.625"];
  "group_38" -> "group_127" [weight = "0.0892857142857143"];
  "group_38" -> "group_312" [weight = "1"];
  "group_391" -> "group_390" [weight = "0.625"];
  "group_392" -> "group_391" [weight = "0.714285714285714"];
  "group_393" -> "group_392" [weight = "0.625"];
  "group_394" -> "group_103" [weight = "0.625"];
  "group_394" -> "group_393" [weight = "0.714285714285714"];
  "group_395" -> "group_396" [weight = "0.909090909090909"];
  "group_397" -> "group_396" [weight = "0.714285714285714"];
  "group_397" -> "group_398" [weight = "0.384615384615385"];
  "group_398" -> "group_399" [weight = "0.714285714285714"];
  "group_400" -> "group_399" [weight = "0.714285714285714"];
  "group_400" -> "group_401" [weight = "0.384615384615385"];
  "group_401" -> "group_402" [weight = "0.714285714285714"];
  "group_403" -> "group_402" [weight = "0.384615384615385"];
  "group_404" -> "group_403" [weight = "0.714285714285714"];
  "group_404" -> "group_405" [weight = "0.384615384615385"];
  "group_406" -> "group_405" [weight = "0.384615384615385"];
  "group_407" -> "group_406" [weight = "0.714285714285714"];
  "group_408" -> "group_407" [weight = "0.714285714285714"];
  "group_409" -> "group_408" [weight = "0.714285714285714"];
  "group_409" -> "group_410" [weight = "0.384615384615385"];
  "group_410" -> "group_411" [weight = "0.714285714285714"];
  "group_412" -> "group_411" [weight = "0.714285714285714"];
  "group_413" -> "group_412" [weight = "0.714285714285714"];
  "group_413" -> "group_414" [weight = "0.384615384615385"];
  "group_415" -> "group_414" [weight = "0.384615384615385"];
  "group_415" -> "group_416" [weight = "0.714285714285714"];
  "group_417" -> "group_35" [weight = "0.384615384615385"];
  "group_417" -> "group_416" [weight = "0.714285714285714"];
  "group_418" -> "group_35" [weight = "0.714285714285714"];
  "group_418" -> "group_419" [weight = "0.384615384615385"];
  "group_419" -> "group_420" [weight = "0.714285714285714"];
  "group_420" -> "group_421" [weight = "0.384615384615385"];
  "group_422" -> "group_421" [weight = "0.714285714285714"];
  "group_422" -> "group_423" [weight = "0.384615384615385"];
  "group_423" -> "group_424" [weight = "0.384615384615385"];
  "group_425" -> "group_424" [weight = "0.384615384615385"];
  "group_425" -> "group_426" [weight = "0.384615384615385"];
  "group_427" -> "group_426" [weight = "0.714285714285714"];
  "group_428" -> "group_427" [weight = "0.714285714285714"];
  "group_429" -> "group_428" [weight = "0.384615384615385"];
  "group_430" -> "group_431" [weight = "0.666666666666667"];
  "group_432" -> "group_431" [weight = "0.4"];
  "group_433" -> "group_432" [weight = "0.666666666666667"];
  "group_433" -> "group_434" [weight = "0.4"];
  "group_435" -> "group_434" [weight = "0.666666666666667"];
  "group_436" -> "group_105" [weight = "0.4"];
  "group_436" -> "group_482" [weight = "10"];
  "group_437" -> "group_436" [weight = "0.714285714285714"];
  "group_437" -> "group_482" [weight = "10"];
  "group_438" -> "group_437" [weight = "0.4"];
  "group_438" -> "group_439" [weight = "0.666666666666667"];
  "group_440" -> "group_439" [weight = "0.666666666666667"];
  "group_440" -> "group_441" [weight = "0.4"];
  "group_442" -> "group_441" [weight = "0.4"];
  "group_442" -> "group_443" [weight = "0.4"];
  "group_442" -> "group_488" [weight = "10"];
  "group_443" -> "group_444" [weight = "0.4"];
  "group_444" -> "group_445" [weight = "0.666666666666667"];
  "group_445" -> "group_446" [weight = "0.4"];
  "group_447" -> "group_446" [weight = "0.666666666666667"];
  "group_448" -> "group_447" [weight = "0.666666666666667"];
  "group_449" -> "group_448" [weight = "0.666666666666667"];
  "group_44" -> "group_74" [weight = "0.875"];
  "group_450" -> "group_106" [weight = "0.666666666666667"];
  "group_450" -> "group_451" [weight = "0.4"];
  "group_451" -> "group_452" [weight = "0.4"];
  "group_453" -> "group_452" [weight = "0.666666666666667"];
  "group_453" -> "group_454" [weight = "0.4"];
  "group_456" -> "clpE" [weight = "0.4"];
  "group_456" -> "group_455" [weight = "0.666666666666667"];
  "group_458" -> "clpE" [weight = "0.4"];
  "group_459" -> "group_458" [weight = "0.666666666666667"];
  "group_45" -> "group_27" [weight = "0.306122448979592"];
  "group_45" -> "group_28" [weight = "0.214285714285714"];
  "group_45" -> "group_45" [weight = "0.75"];
  "group_460" -> "group_459" [weight = "0.666666666666667"];
  "group_461" -> "group_460" [weight = "0.4"];
  "group_462" -> "group_461" [weight = "0.666666666666667"];
  "group_463" -> "group_462" [weight = "0.666666666666667"];
  "group_465" -> "group_96" [weight = "1"];
  "group_466" -> "group_467" [weight = "1"];
  "group_468" -> "group_467" [weight = "1"];
  "group_469" -> "group_468" [weight = "1"];
  "group_470" -> "group_469" [weight = "1"];
  "group_470" -> "group_471" [weight = "1"];
  "group_471" -> "group_92" [weight = "1"];
  "group_473" -> "group_472" [weight = "1"];
  "group_473" -> "group_474" [weight = "1"];
  "group_474" -> "group_475" [weight = "1"];
  "group_475" -> "cspC" [weight = "1"];
  "group_478" -> "group_217" [weight = "0.264817150063052"];
  "group_479" -> "group_279" [weight = "5"];
  "group_480" -> "group_481" [weight = "10"];
  "group_481" -> "group_333" [weight = "10"];
  "group_484" -> "group_485" [weight = "1"];
  "group_484" -> "xerC_3" [weight = "1"];
  "group_485" -> "group_486" [weight = "1"];
  "group_486" -> "group_487" [weight = "1"];
  "group_488" -> "group_443" [weight = "10"];
  "group_489" -> "group_489" [weight = "10"];
  "group_492" -> "group_492" [weight = "1"];
  "group_49" -> "group_331" [weight = "2"];
  "group_49" -> "group_49" [weight = "0.0645161290322581"];
  "group_50" -> "group_50" [weight = "1"];
  "group_53" -> "group_53" [weight = "10"];
  "group_55" -> "group_454" [weight = "0.666666666666667"];
  "group_55" -> "group_455" [weight = "0.4"];
  "group_58" -> "group_57" [weight = "0.263157894736842"];
  "group_60" -> "group_117" [weight = "0.0914634146341464"];
  "group_62" -> "group_61" [weight = "0.0892857142857143"];
  "group_62" -> "group_62" [weight = "1"];
  "group_63" -> "group_129" [weight = "0.0892857142857143"];
  "group_69" -> "group_179" [weight = "1"];
  "group_70" -> "group_179" [weight = "0.0671140939597315"];
  "group_71" -> "group_196" [weight = "0.137750081994096"];
  "group_71" -> "group_197" [weight = "0.12051649928264"];
  "group_74" -> "group_207" [weight = "0.875"];
  "group_81" -> "group_47" [weight = "0.0895140664961637"];
  "group_81" -> "group_48" [weight = "0.408163265306122"];
  "group_83" -> "aacA-aphD" [weight = "0.0918233493659817"];
  "group_83" -> "group_83" [weight = "0.709459459459459"];
  "group_84" -> "group_84" [weight = "10"];
  "group_85" -> "group_102" [weight = "1"];
  "group_85" -> "group_85" [weight = "0.075566750629723"];
  "group_89" -> "group_32" [weight = "0.634441087613293"];
  "group_89" -> "group_89" [weight = "0.428571428571429"];
  "group_90" -> "group_90" [weight = "0.909090909090909"];
  "group_95" -> "group_95" [weight = "0.5"];
  "group_96" -> "group_96" [weight = "1"];
  "group_97" -> "group_333" [weight = "4.11764705882353"];
  "guaA" -> "group_358" [weight = "1"];
  "guaA" -> "guaA" [weight = "10"];
  "lacY" -> "group_167" [weight = "0.0628930817610063"];
  "lacY" -> "group_168" [weight = "1"];
  "mob_13" -> "mob_13" [weight = "6"];
  "mob_3" -> "group_93" [weight = "6"];
  "mob_3" -> "mob_3" [weight = "0.280373831775701"];
  "msmK" -> "cpdA" [weight = "0.137750081994096"];
  "msmK" -> "group_193" [weight = "0.114410242440752"];
  "murI" -> "group_175" [weight = "1"];
  "murI" -> "group_22" [weight = "0.0850891410048622"];
  "nagJ" -> "group_264" [weight = "0.0833333333333334"];
  "oppD" -> "group_353" [weight = "1.10817941952507"];
  "panB" -> "panC" [weight = "0.0625"];
  "panC" -> "panD" [weight = "0.0625"];
  "proX" -> "group_183" [weight = "0.0826446280991736"];
  "proX" -> "group_184" [weight = "0.357142857142857"];
  "radC" -> "group_379" [weight = "0.625"];
  "repB_5" -> "repB_5" [weight = "0.0674157303370787"];
  "rep_1" -> "group_159" [weight = "0.0645557946510913"];
  "rep_2" -> "group_208" [weight = "0.0721649484536083"];
  "rep_2" -> "prgN_2" [weight = "0.875"];
  "scrR_1" -> "group_265" [weight = "2.44186046511628"];
  "smc" -> "group_226" [weight = "0.428571428571429"];
  "smc" -> "group_228" [weight = "0.428571428571429"];
  "ssb" -> "group_317" [weight = "1"];
  "traE1" -> "group_129" [weight = "0.357142857142857"];
  "traE1" -> "group_316" [weight = "1"];
  "uvrA" -> "group_151" [weight = "0.0910273081924577"];
  "uvrA" -> "group_153" [weight = "0.199430199430199"];
  "vanRB_2" -> "vanRB_2" [weight = "0.29126213592233"];
  "vanSB" -> "group_26" [weight = "1"];
  "vanSB" -> "vanRB_2" [weight = "0.087719298245614"];
  "vanSB" -> "vanSB" [weight = "10"];
  "vanZ_1" -> "group_335" [weight = "1"];
  "xerC_1" -> "group_137" [weight = "0.171009771986971"];
  "xerC_1" -> "xerS" [weight = "0.100143061516452"];
  "xerS" -> "group_135" [weight = "0.100143061516452"];
  "ybjI_1" -> "yjaB" [weight = "0.0671140939597315"];
  "ybjI_2" -> "group_69" [weight = "1"];
  "ybjI_2" -> "ybjI_1" [weight = "0.0671140939597315"];
}
