#FILE,SEQUENCE,START,END,GENE,COVERAGE,COVERAGE_MAP,GAPS,%COVERAGE,%IDENTITY,DATABASE,ACCESSION,PRODUCT
E0139_2.fasta.gz,E0139_2,28483,29313,ref|YP_001966134|,1-277/279,===============,0/0,99.28,94.95,rel_faecium,,hypothetical protein pEF1_p34 (plasmid) [Enterococcus faecium] | MOB_P
E0139_2.fasta.gz,E0139_2,28552,30081,ref|YP_002274390|,36-500/506,========/======,16/99,86.56,27.37,rel_faecium,,hypothetical protein pMG1_p45 (plasmid) [Enterococcus faecium] | MOB_P
E0595_2.fasta.gz,E0595_2,28483,29313,ref|YP_001966134|,1-277/279,===============,0/0,99.28,94.95,rel_faecium,,hypothetical protein pEF1_p34 (plasmid) [Enterococcus faecium] | MOB_P
E0595_2.fasta.gz,E0595_2,28552,30081,ref|YP_002274390|,36-500/506,========/======,16/99,86.56,27.37,rel_faecium,,hypothetical protein pMG1_p45 (plasmid) [Enterococcus faecium] | MOB_P
E0656_2.fasta.gz,E0656_2,28483,29313,ref|YP_001966134|,1-277/279,===============,0/0,99.28,94.95,rel_faecium,,hypothetical protein pEF1_p34 (plasmid) [Enterococcus faecium] | MOB_P
E0656_2.fasta.gz,E0656_2,28552,30081,ref|YP_002274390|,36-500/506,========/======,16/99,86.56,27.37,rel_faecium,,hypothetical protein pMG1_p45 (plasmid) [Enterococcus faecium] | MOB_P
E1334_2.fasta.gz,E1334_2,30062,30892,ref|YP_001966134|,1-277/279,===============,0/0,99.28,94.95,rel_faecium,,hypothetical protein pEF1_p34 (plasmid) [Enterococcus faecium] | MOB_P
E1334_3.fasta.gz,E1334_3,17621,16362,ref|NP_863352|,1-420/420,===============,0/0,100.00,100.00,rel_faecium,,MobB mobilization protein (plasmid) [Enterococcus faecalis] | MOB_V
E1334_3.fasta.gz,E1334_3,30937,29951,ref|YP_133675|,1-329/329,===============,0/0,100.00,100.00,rel_faecium,,hypothetical protein Tn916_05 [Enterococcus faecalis] | MOB_T
E1774_3.fasta.gz,E1774_3,683,1942,ref|NP_863352|,1-420/420,===============,0/0,100.00,99.76,rel_faecium,,MobB mobilization protein (plasmid) [Enterococcus faecalis] | MOB_V
E1774_3.fasta.gz,E1774_3,26670,27656,ref|YP_133675|,1-329/329,===============,0/0,100.00,100.00,rel_faecium,,hypothetical protein Tn916_05 [Enterococcus faecalis] | MOB_T
E1774_4.fasta.gz,E1774_4,2,685,ref|YP_004747350|,238-462/462,.......=/======,1/3,48.70,64.91,rel_faecium,,mobilization-like protein (plasmid) [Enterococcus faecium] | MOB_V
E1774_4.fasta.gz,E1774_4,3391,4116,ref|YP_001654987|,1-242/468,========.......,0/0,51.71,88.43,rel_faecium,,hypothetical protein pJS42_02 (plasmid) [Enterococcus faecium] | MOB_V
E4227_2.fasta.gz,E4227_2,27922,28752,ref|YP_001966134|,1-277/279,===============,0/0,99.28,93.86,rel_faecium,,hypothetical protein pEF1_p34 (plasmid) [Enterococcus faecium] | MOB_P
E4227_4.fasta.gz,E4227_4,2295,3698,ref|YP_001654987|,1-468/468,===============,0/0,100.00,99.14,rel_faecium,,hypothetical protein pJS42_02 (plasmid) [Enterococcus faecium] | MOB_V
E4239_2.fasta.gz,E4239_2,27922,28752,ref|YP_001966134|,1-277/279,===============,0/0,99.28,93.86,rel_faecium,,hypothetical protein pEF1_p34 (plasmid) [Enterococcus faecium] | MOB_P
E4239_4.fasta.gz,E4239_4,2295,3698,ref|YP_001654987|,1-468/468,===============,0/0,100.00,99.14,rel_faecium,,hypothetical protein pJS42_02 (plasmid) [Enterococcus faecium] | MOB_V
E4402_2.fasta.gz,E4402_2,28779,29609,ref|YP_001966134|,1-277/279,===============,0/0,99.28,96.39,rel_faecium,,hypothetical protein pEF1_p34 (plasmid) [Enterococcus faecium] | MOB_P
E4402_3.fasta.gz,E4402_3,4965,3562,ref|YP_001654987|,1-468/468,===============,0/0,100.00,98.08,rel_faecium,,hypothetical protein pJS42_02 (plasmid) [Enterococcus faecium] | MOB_V
E4413_2.fasta.gz,E4413_2,32029,32859,ref|YP_001966134|,1-277/279,===============,0/0,99.28,98.92,rel_faecium,,hypothetical protein pEF1_p34 (plasmid) [Enterococcus faecium] | MOB_P
E4413_3.fasta.gz,E4413_3,3657,4568,dbj|BAF44062|,1-304/304,===============,0/0,100.00,99.67,rel_faecium,,Mobilization Protein A (plasmid) [Enterococcus faecium] | MOB_P
E4413_4.fasta.gz,E4413_4,3474,2071,ref|YP_001654987|,1-468/468,===============,0/0,100.00,95.30,rel_faecium,,hypothetical protein pJS42_02 (plasmid) [Enterococcus faecium] | MOB_V
E4413_5.fasta.gz,E4413_5,3398,1995,ref|YP_001654987|,1-468/468,===============,0/0,100.00,95.94,rel_faecium,,hypothetical protein pJS42_02 (plasmid) [Enterococcus faecium] | MOB_V
E4438_2.fasta.gz,E4438_2,30910,31740,ref|YP_001966134|,1-277/279,===============,0/0,99.28,94.95,rel_faecium,,hypothetical protein pEF1_p34 (plasmid) [Enterococcus faecium] | MOB_P
E4438_3.fasta.gz,E4438_3,33443,34273,ref|YP_001966134|,1-277/279,===============,0/0,99.28,98.19,rel_faecium,,hypothetical protein pEF1_p34 (plasmid) [Enterococcus faecium] | MOB_P
E4438_4.fasta.gz,E4438_4,9219,10130,dbj|BAF44062|,1-304/304,===============,0/0,100.00,99.67,rel_faecium,,Mobilization Protein A (plasmid) [Enterococcus faecium] | MOB_P
E4456_2.fasta.gz,E4456_2,30421,31251,ref|YP_001966134|,1-277/279,===============,0/0,99.28,93.86,rel_faecium,,hypothetical protein pEF1_p34 (plasmid) [Enterococcus faecium] | MOB_P
E4456_2.fasta.gz,E4456_2,142747,143382,ref|NP_863352|,1-208/420,=======./......,8/34,45.95,55.07,rel_faecium,,MobB mobilization protein (plasmid) [Enterococcus faecalis] | MOB_V
E4456_2.fasta.gz,E4456_2,142964,143200,ref|NP_863352|,71-148/420,..===.../......,1/1,18.57,87.34,rel_faecium,,MobB mobilization protein (plasmid) [Enterococcus faecalis] | MOB_V
E4456_2.fasta.gz,E4456_2,143022,143663,ref|NP_863352|,90-302/420,...=====/===...,3/5,50.24,62.50,rel_faecium,,MobB mobilization protein (plasmid) [Enterococcus faecalis] | MOB_V
E4456_2.fasta.gz,E4456_2,143656,143949,ref|NP_863352|,300-397/420,..........=====,0/0,23.33,89.80,rel_faecium,,MobB mobilization protein (plasmid) [Enterococcus faecalis] | MOB_V
E4456_2.fasta.gz,E4456_2,143945,144010,ref|NP_863352|,396-417/420,..............=,0/0,5.24,72.73,rel_faecium,,MobB mobilization protein (plasmid) [Enterococcus faecalis] | MOB_V
E4456_3.fasta.gz,E4456_3,2777,2394,ref|NP_863170|,1-128/128,===============,0/0,100.00,100.00,rel_faecium,,rlx protein (plasmid) [Enterococcus faecium] | MOB_P
E4456_3.fasta.gz,E4456_3,15461,14202,ref|NP_863352|,1-420/420,===============,0/0,100.00,100.00,rel_faecium,,MobB mobilization protein (plasmid) [Enterococcus faecalis] | MOB_V
E4456_3.fasta.gz,E4456_3,31535,30549,ref|YP_133675|,1-329/329,===============,0/0,100.00,99.70,rel_faecium,,hypothetical protein Tn916_05 [Enterococcus faecalis] | MOB_T
E4457_2.fasta.gz,E4457_2,35266,36096,ref|YP_001966134|,1-277/279,===============,0/0,99.28,93.86,rel_faecium,,hypothetical protein pEF1_p34 (plasmid) [Enterococcus faecium] | MOB_P
E4457_3.fasta.gz,E4457_3,45460,44474,ref|YP_133675|,1-329/329,===============,0/0,100.00,100.00,rel_faecium,,hypothetical protein Tn916_05 [Enterococcus faecalis] | MOB_T
E4457_4.fasta.gz,E4457_4,9831,9001,ref|YP_001966134|,1-277/279,===============,0/0,99.28,97.83,rel_faecium,,hypothetical protein pEF1_p34 (plasmid) [Enterococcus faecium] | MOB_P
E4457_5.fasta.gz,E4457_5,4207,3296,dbj|BAF44062|,1-304/304,===============,0/0,100.00,99.67,rel_faecium,,Mobilization Protein A (plasmid) [Enterococcus faecium] | MOB_P
E4457_8.fasta.gz,E4457_8,2,985,ref|YP_001654987|,141-468/468,....===========,0/0,70.09,93.29,rel_faecium,,hypothetical protein pJS42_02 (plasmid) [Enterococcus faecium] | MOB_V
E4457_8.fasta.gz,E4457_8,3956,4372,ref|YP_001654987|,1-139/468,=====..........,0/0,29.70,89.93,rel_faecium,,hypothetical protein pJS42_02 (plasmid) [Enterococcus faecium] | MOB_V
E4457_9.fasta.gz,E4457_9,1561,158,ref|YP_001654987|,1-468/468,===============,0/0,100.00,92.52,rel_faecium,,hypothetical protein pJS42_02 (plasmid) [Enterococcus faecium] | MOB_V
E6020_4.fasta.gz,E6020_4,32552,33382,ref|YP_001966134|,1-277/279,===============,0/0,99.28,94.58,rel_faecium,,hypothetical protein pEF1_p34 (plasmid) [Enterococcus faecium] | MOB_P
E6020_5.fasta.gz,E6020_5,12234,13841,gb|ADO66931|,1-536/536,===============,0/0,100.00,98.69,rel_faecium,,putative relaxase partial (plasmid) [Enterococcus faecium] | MOB_P
E6020_7.fasta.gz,E6020_7,10479,11390,dbj|BAK74727|,1-304/304,===============,0/0,100.00,99.67,rel_faecium,,relaxase/mobilization domain-containing protein (plasmid) [Enterococcus faecium] | MOB_P
E6020_8.fasta.gz,E6020_8,6524,5613,dbj|BAF44062|,1-304/304,===============,0/0,100.00,100.00,rel_faecium,,Mobilization Protein A (plasmid) [Enterococcus faecium] | MOB_P
E6043_4.fasta.gz,E6043_4,17771,16941,ref|YP_001966134|,1-277/279,===============,0/0,99.28,98.92,rel_faecium,,hypothetical protein pEF1_p34 (plasmid) [Enterococcus faecium] | MOB_P
E6043_7.fasta.gz,E6043_7,18837,17230,gb|ADO66931|,1-536/536,===============,0/0,100.00,98.69,rel_faecium,,putative relaxase partial (plasmid) [Enterococcus faecium] | MOB_P
E6043_9.fasta.gz,E6043_9,1,606,dbj|BAF44062|,103-304/304,.....==========,0/0,66.45,100.00,rel_faecium,,Mobilization Protein A (plasmid) [Enterococcus faecium] | MOB_P
E6043_9.fasta.gz,E6043_9,6860,7165,dbj|BAF36629|,1-102/304,======.........,0/0,33.55,98.04,rel_faecium,,mobilization protein (plasmid) [Enterococcus faecium] | MOB_P
E6055_2.fasta.gz,E6055_2,31869,32699,ref|YP_001966134|,1-277/279,===============,0/0,99.28,93.86,rel_faecium,,hypothetical protein pEF1_p34 (plasmid) [Enterococcus faecium] | MOB_P
E6055_3.fasta.gz,E6055_3,29182,30012,ref|YP_001966134|,1-277/279,===============,0/0,99.28,97.83,rel_faecium,,hypothetical protein pEF1_p34 (plasmid) [Enterococcus faecium] | MOB_P
E6055_5.fasta.gz,E6055_5,1801,2712,dbj|BAF44062|,1-304/304,===============,0/0,100.00,100.00,rel_faecium,,Mobilization Protein A (plasmid) [Enterococcus faecium] | MOB_P
E6975_3.fasta.gz,E6975_3,21910,21080,ref|YP_001966134|,1-277/279,===============,0/0,99.28,94.95,rel_faecium,,hypothetical protein pEF1_p34 (plasmid) [Enterococcus faecium] | MOB_P
E6975_5.fasta.gz,E6975_5,16336,15887,ref|NP_863352|,271-420/420,.........======,0/0,35.71,100.00,rel_faecium,,MobB mobilization protein (plasmid) [Enterococcus faecalis] | MOB_V
E6975_6.fasta.gz,E6975_6,9399,10310,dbj|BAF36629|,1-304/304,===============,0/0,100.00,100.00,rel_faecium,,mobilization protein (plasmid) [Enterococcus faecium] | MOB_P
E6975_7.fasta.gz,E6975_7,225,1628,ref|YP_001654987|,1-468/468,===============,0/0,100.00,92.52,rel_faecium,,hypothetical protein pJS42_02 (plasmid) [Enterococcus faecium] | MOB_V
E6975_8.fasta.gz,E6975_8,2328,925,ref|YP_001654987|,1-468/468,===============,0/0,100.00,98.08,rel_faecium,,hypothetical protein pJS42_02 (plasmid) [Enterococcus faecium] | MOB_V
E6975_9.fasta.gz,E6975_9,1117,14,ref|YP_001654987|,1-368/468,============...,0/0,78.63,81.25,rel_faecium,,hypothetical protein pJS42_02 (plasmid) [Enterococcus faecium] | MOB_V
E6975_9.fasta.gz,E6975_9,4071,3778,ref|YP_001654987|,374-468/468,......../...===,1/3,20.30,63.27,rel_faecium,,hypothetical protein pJS42_02 (plasmid) [Enterococcus faecium] | MOB_V
E6988_4.fasta.gz,E6988_4,36983,36153,ref|YP_001966134|,1-277/279,===============,0/0,99.28,98.92,rel_faecium,,hypothetical protein pEF1_p34 (plasmid) [Enterococcus faecium] | MOB_P
E6988_6.fasta.gz,E6988_6,26106,24499,gb|ADO66931|,1-536/536,===============,0/0,100.00,98.69,rel_faecium,,putative relaxase partial (plasmid) [Enterococcus faecium] | MOB_P
E6988_7.fasta.gz,E6988_7,10479,11390,dbj|BAK74727|,1-304/304,===============,0/0,100.00,99.67,rel_faecium,,relaxase/mobilization domain-containing protein (plasmid) [Enterococcus faecium] | MOB_P
E6988_8.fasta.gz,E6988_8,4196,5107,dbj|BAF44062|,1-304/304,===============,0/0,100.00,100.00,rel_faecium,,Mobilization Protein A (plasmid) [Enterococcus faecium] | MOB_P
E7025_3.fasta.gz,E7025_3,34684,35514,ref|YP_001966134|,1-277/279,===============,0/0,99.28,94.95,rel_faecium,,hypothetical protein pEF1_p34 (plasmid) [Enterococcus faecium] | MOB_P
E7025_4.fasta.gz,E7025_4,8363,10015,gb|ADX81233|,1-555/561,========/======,4/8,97.86,58.53,rel_faecium,,Relaxase (plasmid) [Enterococcus faecalis 62] | MOB_P
E7025_7.fasta.gz,E7025_7,5947,6858,dbj|BAF44062|,1-304/304,===============,0/0,100.00,99.34,rel_faecium,,Mobilization Protein A (plasmid) [Enterococcus faecium] | MOB_P
E7040_3.fasta.gz,E7040_3,42861,43847,ref|YP_133675|,1-329/329,===============,0/0,100.00,100.00,rel_faecium,,hypothetical protein Tn916_05 [Enterococcus faecalis] | MOB_T
E7040_3.fasta.gz,E7040_3,58530,59789,ref|NP_863352|,1-420/420,===============,0/0,100.00,100.00,rel_faecium,,MobB mobilization protein (plasmid) [Enterococcus faecalis] | MOB_V
E7040_4.fasta.gz,E7040_4,24273,23443,ref|YP_001966134|,1-277/279,===============,0/0,99.28,98.92,rel_faecium,,hypothetical protein pEF1_p34 (plasmid) [Enterococcus faecium] | MOB_P
E7040_6.fasta.gz,E7040_6,12370,13281,dbj|BAK74727|,1-304/304,===============,0/0,100.00,98.68,rel_faecium,,relaxase/mobilization domain-containing protein (plasmid) [Enterococcus faecium] | MOB_P
E7040_7.fasta.gz,E7040_7,1407,2318,dbj|BAF44062|,1-304/304,===============,0/0,100.00,100.00,rel_faecium,,Mobilization Protein A (plasmid) [Enterococcus faecium] | MOB_P
E7067_3.fasta.gz,E7067_3,35815,34985,ref|YP_001966134|,1-277/279,===============,0/0,99.28,98.92,rel_faecium,,hypothetical protein pEF1_p34 (plasmid) [Enterococcus faecium] | MOB_P
E7067_4.fasta.gz,E7067_4,35360,36190,ref|YP_001966134|,1-277/279,===============,0/0,99.28,97.83,rel_faecium,,hypothetical protein pEF1_p34 (plasmid) [Enterococcus faecium] | MOB_P
E7067_6.fasta.gz,E7067_6,10479,11390,dbj|BAK74727|,1-304/304,===============,0/0,100.00,100.00,rel_faecium,,relaxase/mobilization domain-containing protein (plasmid) [Enterococcus faecium] | MOB_P
E7067_7.fasta.gz,E7067_7,6821,7732,dbj|BAK74727|,1-304/304,===============,0/0,100.00,100.00,rel_faecium,,relaxase/mobilization domain-containing protein (plasmid) [Enterococcus faecium] | MOB_P
E7070_11.fasta.gz,E7070_11,10480,11391,dbj|BAK74727|,1-304/304,===============,0/0,100.00,99.67,rel_faecium,,relaxase/mobilization domain-containing protein (plasmid) [Enterococcus faecium] | MOB_P
E7070_13.fasta.gz,E7070_13,6524,5613,dbj|BAF44062|,1-304/304,===============,0/0,100.00,100.00,rel_faecium,,Mobilization Protein A (plasmid) [Enterococcus faecium] | MOB_P
E7070_5.fasta.gz,E7070_5,37349,38179,ref|YP_001966134|,1-277/279,===============,0/0,99.28,94.22,rel_faecium,,hypothetical protein pEF1_p34 (plasmid) [Enterococcus faecium] | MOB_P
E7070_8.fasta.gz,E7070_8,31937,32767,ref|YP_001966134|,1-277/279,===============,0/0,99.28,94.95,rel_faecium,,hypothetical protein pEF1_p34 (plasmid) [Enterococcus faecium] | MOB_P
E7098_4.fasta.gz,E7098_4,36227,37057,ref|YP_001966134|,1-277/279,===============,0/0,99.28,94.95,rel_faecium,,hypothetical protein pEF1_p34 (plasmid) [Enterococcus faecium] | MOB_P
E7114_10.fasta.gz,E7114_10,1073,3,ref|YP_001654987|,1-357/468,============...,0/0,76.28,90.48,rel_faecium,,hypothetical protein pJS42_02 (plasmid) [Enterococcus faecium] | MOB_V
E7114_10.fasta.gz,E7114_10,4371,4042,ref|YP_001654987|,359-468/468,...........====,0/0,23.50,98.18,rel_faecium,,hypothetical protein pJS42_02 (plasmid) [Enterococcus faecium] | MOB_V
E7114_11.fasta.gz,E7114_11,1067,3,ref|YP_001654987|,1-355/468,============...,0/0,75.85,97.47,rel_faecium,,hypothetical protein pJS42_02 (plasmid) [Enterococcus faecium] | MOB_V
E7114_11.fasta.gz,E7114_11,4304,3969,ref|YP_001654987|,357-468/468,...........====,0/0,23.93,100.00,rel_faecium,,hypothetical protein pJS42_02 (plasmid) [Enterococcus faecium] | MOB_V
E7114_3.fasta.gz,E7114_3,5232,4402,ref|YP_001966134|,1-277/279,===============,0/0,99.28,94.95,rel_faecium,,hypothetical protein pEF1_p34 (plasmid) [Enterococcus faecium] | MOB_P
E7114_7.fasta.gz,E7114_7,9387,10298,dbj|BAF36629|,1-304/304,===============,0/0,100.00,100.00,rel_faecium,,mobilization protein (plasmid) [Enterococcus faecium] | MOB_P
E7160_10.fasta.gz,E7160_10,7242,8153,dbj|BAF44062|,1-304/304,===============,0/0,100.00,99.34,rel_faecium,,Mobilization Protein A (plasmid) [Enterococcus faecium] | MOB_P
E7160_11.fasta.gz,E7160_11,3483,4394,dbj|BAF36629|,1-304/304,===============,0/0,100.00,100.00,rel_faecium,,mobilization protein (plasmid) [Enterococcus faecium] | MOB_P
E7160_8.fasta.gz,E7160_8,14421,14050,ref|YP_691715|,181-304/304,........=======,0/0,40.79,83.87,rel_faecium,,putative mobilization protein (plasmid) [Enterococcus faecium] | MOB_P
E7160_8.fasta.gz,E7160_8,14962,14306,dbj|BAF44062|,1-219/304,===========....,0/0,72.04,95.43,rel_faecium,,Mobilization Protein A (plasmid) [Enterococcus faecium] | MOB_P
E7171_2.fasta.gz,E7171_2,28946,29776,ref|YP_001966134|,1-277/279,===============,0/0,99.28,98.92,rel_faecium,,hypothetical protein pEF1_p34 (plasmid) [Enterococcus faecium] | MOB_P
E7171_2.fasta.gz,E7171_2,51357,52139,gb|AEF32592|,1-261/261,===============,0/0,100.00,86.97,rel_faecium,,hypothetical protein pLG2-0032 (plasmid) [Enterococcus faecalis] | MOB_C
E7171_3.fasta.gz,E7171_3,8363,10015,gb|ADX81233|,1-555/561,========/======,4/8,97.86,58.53,rel_faecium,,Relaxase (plasmid) [Enterococcus faecalis 62] | MOB_P
E7171_6.fasta.gz,E7171_6,7654,6743,dbj|BAF44062|,1-304/304,===============,0/0,100.00,100.00,rel_faecium,,Mobilization Protein A (plasmid) [Enterococcus faecium] | MOB_P
E7196_3.fasta.gz,E7196_3,26938,26108,ref|YP_001966134|,1-277/279,===============,0/0,99.28,94.95,rel_faecium,,hypothetical protein pEF1_p34 (plasmid) [Enterococcus faecium] | MOB_P
E7196_4.fasta.gz,E7196_4,3437,2943,gb|ADW93779|,154-304/304,.......=/======,4/18,49.01,65.87,rel_faecium,,putative mobilization protein (plasmid) [Enterococcus durans] | MOB_P
E7196_4.fasta.gz,E7196_4,3867,3310,dbj|BAK74727|,1-184/304,========/=.....,5/6,59.87,74.47,rel_faecium,,relaxase/mobilization domain-containing protein (plasmid) [Enterococcus faecium] | MOB_P
E7196_6.fasta.gz,E7196_6,3491,4402,dbj|BAK74727|,1-304/304,===============,0/0,100.00,99.01,rel_faecium,,relaxase/mobilization domain-containing protein (plasmid) [Enterococcus faecium] | MOB_P
E7199_5.fasta.gz,E7199_5,1099,188,dbj|BAF44062|,1-304/304,===============,0/0,100.00,100.00,rel_faecium,,Mobilization Protein A (plasmid) [Enterococcus faecium] | MOB_P
E7207_5.fasta.gz,E7207_5,42897,43727,ref|YP_001966134|,1-277/279,===============,0/0,99.28,94.95,rel_faecium,,hypothetical protein pEF1_p34 (plasmid) [Enterococcus faecium] | MOB_P
E7237_2.fasta.gz,E7237_2,26203,27033,ref|YP_001966134|,1-277/279,===============,0/0,99.28,98.92,rel_faecium,,hypothetical protein pEF1_p34 (plasmid) [Enterococcus faecium] | MOB_P
E7237_2.fasta.gz,E7237_2,47797,48579,gb|AEF32592|,1-261/261,===============,0/0,100.00,86.97,rel_faecium,,hypothetical protein pLG2-0032 (plasmid) [Enterococcus faecalis] | MOB_C
E7237_4.fasta.gz,E7237_4,7940,8851,dbj|BAF44062|,1-304/304,===============,0/0,100.00,99.67,rel_faecium,,Mobilization Protein A (plasmid) [Enterococcus faecium] | MOB_P
E7240_10.fasta.gz,E7240_10,1813,3225,ref|YP_001654987|,1-468/468,========/======,1/3,100.00,76.64,rel_faecium,,hypothetical protein pJS42_02 (plasmid) [Enterococcus faecium] | MOB_V
E7240_3.fasta.gz,E7240_3,10384,11214,ref|YP_001966134|,1-277/279,===============,0/0,99.28,93.50,rel_faecium,,hypothetical protein pEF1_p34 (plasmid) [Enterococcus faecium] | MOB_P
E7240_7.fasta.gz,E7240_7,3483,4394,dbj|BAF36629|,1-304/304,===============,0/0,100.00,100.00,rel_faecium,,mobilization protein (plasmid) [Enterococcus faecium] | MOB_P
E7240_9.fasta.gz,E7240_9,2572,1169,ref|YP_001654987|,1-468/468,===============,0/0,100.00,92.52,rel_faecium,,hypothetical protein pJS42_02 (plasmid) [Enterococcus faecium] | MOB_V
E7246_10.fasta.gz,E7246_10,8379,7468,dbj|BAF44062|,1-304/304,===============,0/0,100.00,99.34,rel_faecium,,Mobilization Protein A (plasmid) [Enterococcus faecium] | MOB_P
E7246_5.fasta.gz,E7246_5,56000,55170,ref|YP_001966134|,1-277/279,===============,0/0,99.28,94.95,rel_faecium,,hypothetical protein pEF1_p34 (plasmid) [Enterococcus faecium] | MOB_P
E7246_8.fasta.gz,E7246_8,24955,24506,ref|NP_863352|,271-420/420,.........======,0/0,35.71,100.00,rel_faecium,,MobB mobilization protein (plasmid) [Enterococcus faecalis] | MOB_V
E7246_9.fasta.gz,E7246_9,9400,10311,dbj|BAF36629|,1-304/304,===============,0/0,100.00,100.00,rel_faecium,,mobilization protein (plasmid) [Enterococcus faecium] | MOB_P
E7313_2.fasta.gz,E7313_2,33364,34194,ref|YP_001966134|,1-277/279,===============,0/0,99.28,94.95,rel_faecium,,hypothetical protein pEF1_p34 (plasmid) [Enterococcus faecium] | MOB_P
E7356_2.fasta.gz,E7356_2,214617,213787,ref|YP_001966134|,1-277/279,===============,0/0,99.28,98.92,rel_faecium,,hypothetical protein pEF1_p34 (plasmid) [Enterococcus faecium] | MOB_P
E7356_3.fasta.gz,E7356_3,44998,46515,ref|YP_002274390|,1-506/506,===============,0/0,100.00,100.00,rel_faecium,,hypothetical protein pMG1_p45 (plasmid) [Enterococcus faecium] | MOB_P
E7357_2.fasta.gz,E7357_2,168824,167994,ref|YP_001966134|,1-277/279,===============,0/0,99.28,98.92,rel_faecium,,hypothetical protein pEF1_p34 (plasmid) [Enterococcus faecium] | MOB_P
E7357_4.fasta.gz,E7357_4,45055,43538,ref|YP_002274390|,1-506/506,===============,0/0,100.00,100.00,rel_faecium,,hypothetical protein pMG1_p45 (plasmid) [Enterococcus faecium] | MOB_P
E7429_2.fasta.gz,E7429_2,29463,30293,ref|YP_001966134|,1-277/279,===============,0/0,99.28,98.92,rel_faecium,,hypothetical protein pEF1_p34 (plasmid) [Enterococcus faecium] | MOB_P
E7429_2.fasta.gz,E7429_2,136728,138053,gb|AAF72355|,1-442/442,===============,0/0,100.00,100.00,rel_faecium,,Rlx-like protein (plasmid) [Enterococcus faecalis] | MOB_P
E7429_3.fasta.gz,E7429_3,27490,25973,ref|YP_002274390|,1-506/506,===============,0/0,100.00,100.00,rel_faecium,,hypothetical protein pMG1_p45 (plasmid) [Enterococcus faecium] | MOB_P
E7429_7.fasta.gz,E7429_7,4328,5263,gb|ADW93779|,1-304/304,========/======,1/8,100.00,90.39,rel_faecium,,putative mobilization protein (plasmid) [Enterococcus durans] | MOB_P
E7441_4.fasta.gz,E7441_4,33630,32719,dbj|BAF44062|,1-304/304,===============,0/0,100.00,100.00,rel_faecium,,Mobilization Protein A (plasmid) [Enterococcus faecium] | MOB_P
E7441_6.fasta.gz,E7441_6,2,742,ref|YP_001654987|,225-468/468,......==/======,1/3,52.14,65.18,rel_faecium,,hypothetical protein pJS42_02 (plasmid) [Enterococcus faecium] | MOB_V
E7441_6.fasta.gz,E7441_6,3404,4072,ref|YP_001654987|,1-223/468,========.......,0/0,47.65,89.69,rel_faecium,,hypothetical protein pJS42_02 (plasmid) [Enterococcus faecium] | MOB_V
E7441_7.fasta.gz,E7441_7,1,834,ref|YP_001654987|,191-468/468,......=========,0/0,59.40,98.20,rel_faecium,,hypothetical protein pJS42_02 (plasmid) [Enterococcus faecium] | MOB_V
E7441_7.fasta.gz,E7441_7,3083,3652,ref|YP_001654987|,1-190/468,=======........,0/0,40.60,98.42,rel_faecium,,hypothetical protein pJS42_02 (plasmid) [Enterococcus faecium] | MOB_V
E7471_4.fasta.gz,E7471_4,64126,65778,gb|ADX81233|,1-555/561,========/======,4/8,97.86,57.63,rel_faecium,,Relaxase (plasmid) [Enterococcus faecalis 62] | MOB_P
E7471_6.fasta.gz,E7471_6,6835,7746,dbj|BAF44062|,1-304/304,===============,0/0,100.00,99.67,rel_faecium,,Mobilization Protein A (plasmid) [Enterococcus faecium] | MOB_P
E7471_7.fasta.gz,E7471_7,4261,2858,ref|YP_001654987|,1-468/468,===============,0/0,100.00,92.52,rel_faecium,,hypothetical protein pJS42_02 (plasmid) [Enterococcus faecium] | MOB_V
E7591_2.fasta.gz,E7591_2,33364,34194,ref|YP_001966134|,1-277/279,===============,0/0,99.28,94.95,rel_faecium,,hypothetical protein pEF1_p34 (plasmid) [Enterococcus faecium] | MOB_P
E7591_4.fasta.gz,E7591_4,6823,7734,dbj|BAK74727|,1-304/304,===============,0/0,100.00,100.00,rel_faecium,,relaxase/mobilization domain-containing protein (plasmid) [Enterococcus faecium] | MOB_P
E7654_3.fasta.gz,E7654_3,32553,33383,ref|YP_001966134|,1-277/279,===============,0/0,99.28,94.95,rel_faecium,,hypothetical protein pEF1_p34 (plasmid) [Enterococcus faecium] | MOB_P
E7654_4.fasta.gz,E7654_4,20458,19199,ref|NP_863352|,1-420/420,===============,0/0,100.00,100.00,rel_faecium,,MobB mobilization protein (plasmid) [Enterococcus faecalis] | MOB_V
E7654_5.fasta.gz,E7654_5,3483,4394,dbj|BAF36629|,1-304/304,===============,0/0,100.00,100.00,rel_faecium,,mobilization protein (plasmid) [Enterococcus faecium] | MOB_P
E7654_6.fasta.gz,E7654_6,2100,3503,ref|YP_001654987|,1-468/468,===============,0/0,100.00,92.52,rel_faecium,,hypothetical protein pJS42_02 (plasmid) [Enterococcus faecium] | MOB_V
E7663_3.fasta.gz,E7663_3,32553,33383,ref|YP_001966134|,1-277/279,===============,0/0,99.28,94.95,rel_faecium,,hypothetical protein pEF1_p34 (plasmid) [Enterococcus faecium] | MOB_P
E7663_4.fasta.gz,E7663_4,9055,7796,ref|NP_863352|,1-420/420,===============,0/0,100.00,100.00,rel_faecium,,MobB mobilization protein (plasmid) [Enterococcus faecalis] | MOB_V
E7663_5.fasta.gz,E7663_5,3483,4394,dbj|BAF36629|,1-304/304,===============,0/0,100.00,100.00,rel_faecium,,mobilization protein (plasmid) [Enterococcus faecium] | MOB_P
E7663_6.fasta.gz,E7663_6,818,2221,ref|YP_001654987|,1-468/468,===============,0/0,100.00,92.52,rel_faecium,,hypothetical protein pJS42_02 (plasmid) [Enterococcus faecium] | MOB_V
E7933_2.fasta.gz,E7933_2,32208,33038,ref|YP_001966134|,1-277/279,===============,0/0,99.28,98.92,rel_faecium,,hypothetical protein pEF1_p34 (plasmid) [Enterococcus faecium] | MOB_P
E7933_3.fasta.gz,E7933_3,38587,39417,ref|YP_001966134|,1-277/279,===============,0/0,99.28,94.95,rel_faecium,,hypothetical protein pEF1_p34 (plasmid) [Enterococcus faecium] | MOB_P
E7933_4.fasta.gz,E7933_4,53723,52398,gb|AAF72355|,1-442/442,===============,0/0,100.00,100.00,rel_faecium,,Rlx-like protein (plasmid) [Enterococcus faecalis] | MOB_P
E7933_5.fasta.gz,E7933_5,1186,1440,dbj|BAF44062|,1-85/304,=====..........,0/0,27.96,97.65,rel_faecium,,Mobilization Protein A (plasmid) [Enterococcus faecium] | MOB_P
E7933_5.fasta.gz,E7933_5,1422,2096,dbj|BAF44062|,80-304/304,...============,0/0,74.01,99.11,rel_faecium,,Mobilization Protein A (plasmid) [Enterococcus faecium] | MOB_P
E7933_7.fasta.gz,E7933_7,3398,3652,dbj|BAF44062|,1-85/304,=====..........,0/0,27.96,96.47,rel_faecium,,Mobilization Protein A (plasmid) [Enterococcus faecium] | MOB_P
E7933_7.fasta.gz,E7933_7,3634,4308,dbj|BAF44062|,80-304/304,...============,0/0,74.01,99.11,rel_faecium,,Mobilization Protein A (plasmid) [Enterococcus faecium] | MOB_P
E7933_8.fasta.gz,E7933_8,2775,4178,ref|YP_001654987|,1-468/468,===============,0/0,100.00,99.14,rel_faecium,,hypothetical protein pJS42_02 (plasmid) [Enterococcus faecium] | MOB_V
E7948_2.fasta.gz,E7948_2,33364,34194,ref|YP_001966134|,1-277/279,===============,0/0,99.28,94.95,rel_faecium,,hypothetical protein pEF1_p34 (plasmid) [Enterococcus faecium] | MOB_P
E7948_2.fasta.gz,E7948_2,133230,132217,gb|ADX78807|,4-325/326,========/======,16/44,94.48,28.12,rel_faecium,,TN916 replication initiation factor family protein [Enterococcus faecalis 62] | MOB_T
E7948_3.fasta.gz,E7948_3,34195,32870,gb|AAF72355|,1-442/442,===============,0/0,100.00,100.00,rel_faecium,,Rlx-like protein (plasmid) [Enterococcus faecalis] | MOB_P
E7948_4.fasta.gz,E7948_4,4320,4682,dbj|BAF36629|,1-120/304,======../......,1/1,39.47,92.56,rel_faecium,,mobilization protein (plasmid) [Enterococcus faecium] | MOB_P
E7948_4.fasta.gz,E7948_4,4978,5268,dbj|BAF36629|,216-304/304,......../.=====,1/8,29.28,76.29,rel_faecium,,mobilization protein (plasmid) [Enterococcus faecium] | MOB_P
E7948_4.fasta.gz,E7948_4,11448,12383,gb|ADW93779|,1-304/304,========/======,1/8,100.00,90.39,rel_faecium,,putative mobilization protein (plasmid) [Enterococcus durans] | MOB_P
E8014_2.fasta.gz,E8014_2,33364,34194,ref|YP_001966134|,1-277/279,===============,0/0,99.28,94.95,rel_faecium,,hypothetical protein pEF1_p34 (plasmid) [Enterococcus faecium] | MOB_P
E8014_5.fasta.gz,E8014_5,4328,5263,gb|ADW93779|,1-304/304,========/======,1/8,100.00,90.39,rel_faecium,,putative mobilization protein (plasmid) [Enterococcus durans] | MOB_P
E8040_2.fasta.gz,E8040_2,33245,34075,ref|YP_001966134|,1-277/279,===============,0/0,99.28,98.92,rel_faecium,,hypothetical protein pEF1_p34 (plasmid) [Enterococcus faecium] | MOB_P
E8040_3.fasta.gz,E8040_3,31728,32558,ref|YP_001966134|,1-277/279,===============,0/0,99.28,97.83,rel_faecium,,hypothetical protein pEF1_p34 (plasmid) [Enterococcus faecium] | MOB_P
E8040_4.fasta.gz,E8040_4,8817,7906,dbj|BAF44062|,1-304/304,===============,0/0,100.00,99.34,rel_faecium,,Mobilization Protein A (plasmid) [Enterococcus faecium] | MOB_P
E8172_11.fasta.gz,E8172_11,1479,76,ref|YP_001654987|,1-468/468,===============,0/0,100.00,98.29,rel_faecium,,hypothetical protein pJS42_02 (plasmid) [Enterococcus faecium] | MOB_V
E8172_2.fasta.gz,E8172_2,33654,34484,ref|YP_001966134|,1-277/279,===============,0/0,99.28,93.86,rel_faecium,,hypothetical protein pEF1_p34 (plasmid) [Enterococcus faecium] | MOB_P
E8172_3.fasta.gz,E8172_3,29182,30012,ref|YP_001966134|,1-277/279,===============,0/0,99.28,97.83,rel_faecium,,hypothetical protein pEF1_p34 (plasmid) [Enterococcus faecium] | MOB_P
E8172_5.fasta.gz,E8172_5,5786,4875,dbj|BAF36629|,1-304/304,===============,0/0,100.00,95.07,rel_faecium,,mobilization protein (plasmid) [Enterococcus faecium] | MOB_P
E8172_6.fasta.gz,E8172_6,5542,4607,gb|ADW93779|,1-304/304,========/======,1/8,100.00,90.70,rel_faecium,,putative mobilization protein (plasmid) [Enterococcus durans] | MOB_P
E8172_9.fasta.gz,E8172_9,1602,199,ref|YP_001654987|,1-468/468,===============,0/0,100.00,92.52,rel_faecium,,hypothetical protein pJS42_02 (plasmid) [Enterococcus faecium] | MOB_V
E8195_2.fasta.gz,E8195_2,29463,30293,ref|YP_001966134|,1-277/279,===============,0/0,99.28,98.92,rel_faecium,,hypothetical protein pEF1_p34 (plasmid) [Enterococcus faecium] | MOB_P
E8195_5.fasta.gz,E8195_5,6821,7732,dbj|BAK74727|,1-304/304,===============,0/0,100.00,100.00,rel_faecium,,relaxase/mobilization domain-containing protein (plasmid) [Enterococcus faecium] | MOB_P
E8202_2.fasta.gz,E8202_2,29463,30293,ref|YP_001966134|,1-277/279,===============,0/0,99.28,98.92,rel_faecium,,hypothetical protein pEF1_p34 (plasmid) [Enterococcus faecium] | MOB_P
E8202_5.fasta.gz,E8202_5,9924,9013,dbj|BAF44062|,1-304/304,===============,0/0,100.00,100.00,rel_faecium,,Mobilization Protein A (plasmid) [Enterococcus faecium] | MOB_P
E8202_7.fasta.gz,E8202_7,2099,3580,gb|AAA25387|,1-493/494,========/======,3/5,99.39,61.90,rel_faecium,,mobilization peptide (plasmid) [Plasmid pMV158] | MOB_V
E8284_2.fasta.gz,E8284_2,29463,30293,ref|YP_001966134|,1-277/279,===============,0/0,99.28,98.92,rel_faecium,,hypothetical protein pEF1_p34 (plasmid) [Enterococcus faecium] | MOB_P
E8284_3.fasta.gz,E8284_3,16839,15514,gb|AAF72355|,1-442/442,===============,0/0,100.00,100.00,rel_faecium,,Rlx-like protein (plasmid) [Enterococcus faecalis] | MOB_P
E8284_4.fasta.gz,E8284_4,6601,5690,dbj|BAF44062|,1-304/304,===============,0/0,100.00,100.00,rel_faecium,,Mobilization Protein A (plasmid) [Enterococcus faecium] | MOB_P
E8290_2.fasta.gz,E8290_2,29463,30293,ref|YP_001966134|,1-277/279,===============,0/0,99.28,98.92,rel_faecium,,hypothetical protein pEF1_p34 (plasmid) [Enterococcus faecium] | MOB_P
E8290_3.fasta.gz,E8290_3,16839,15514,gb|AAF72355|,1-442/442,===============,0/0,100.00,100.00,rel_faecium,,Rlx-like protein (plasmid) [Enterococcus faecalis] | MOB_P
E8290_4.fasta.gz,E8290_4,4538,5449,dbj|BAF44062|,1-304/304,===============,0/0,100.00,100.00,rel_faecium,,Mobilization Protein A (plasmid) [Enterococcus faecium] | MOB_P
E8328_2.fasta.gz,E8328_2,29463,30293,ref|YP_001966134|,1-277/279,===============,0/0,99.28,98.92,rel_faecium,,hypothetical protein pEF1_p34 (plasmid) [Enterococcus faecium] | MOB_P
E8377_2.fasta.gz,E8377_2,29463,30293,ref|YP_001966134|,1-277/279,===============,0/0,99.28,98.92,rel_faecium,,hypothetical protein pEF1_p34 (plasmid) [Enterococcus faecium] | MOB_P
E8377_3.fasta.gz,E8377_3,35526,34201,gb|AAF72355|,1-442/442,===============,0/0,100.00,100.00,rel_faecium,,Rlx-like protein (plasmid) [Enterococcus faecalis] | MOB_P
E8377_4.fasta.gz,E8377_4,612,1523,dbj|BAF44062|,1-304/304,===============,0/0,100.00,100.00,rel_faecium,,Mobilization Protein A (plasmid) [Enterococcus faecium] | MOB_P
E8407_2.fasta.gz,E8407_2,28458,29288,ref|YP_001966134|,1-277/279,===============,0/0,99.28,93.86,rel_faecium,,hypothetical protein pEF1_p34 (plasmid) [Enterococcus faecium] | MOB_P
E8407_2.fasta.gz,E8407_2,28764,30056,ref|YP_002274390|,36-500/506,========/======,10/70,81.62,26.91,rel_faecium,,hypothetical protein pMG1_p45 (plasmid) [Enterococcus faecium] | MOB_P
E8407_3.fasta.gz,E8407_3,41710,40799,dbj|BAF44062|,1-304/304,===============,0/0,100.00,100.00,rel_faecium,,Mobilization Protein A (plasmid) [Enterococcus faecium] | MOB_P
E8414_2.fasta.gz,E8414_2,30530,31360,ref|YP_001966134|,1-277/279,===============,0/0,99.28,98.92,rel_faecium,,hypothetical protein pEF1_p34 (plasmid) [Enterococcus faecium] | MOB_P
E8414_6.fasta.gz,E8414_6,3482,4393,dbj|BAF36629|,1-304/304,===============,0/0,100.00,100.00,rel_faecium,,mobilization protein (plasmid) [Enterococcus faecium] | MOB_P
E8414_8.fasta.gz,E8414_8,638,2041,ref|YP_001654987|,1-468/468,===============,0/0,100.00,92.31,rel_faecium,,hypothetical protein pJS42_02 (plasmid) [Enterococcus faecium] | MOB_V
E8423_2.fasta.gz,E8423_2,35210,36040,ref|YP_001966134|,1-277/279,===============,0/0,99.28,94.95,rel_faecium,,hypothetical protein pEF1_p34 (plasmid) [Enterococcus faecium] | MOB_P
E8423_2.fasta.gz,E8423_2,196588,195758,ref|YP_001966134|,1-277/279,===============,0/0,99.28,93.86,rel_faecium,,hypothetical protein pEF1_p34 (plasmid) [Enterococcus faecium] | MOB_P
E8440_2.fasta.gz,E8440_2,30648,32165,ref|YP_002274390|,1-506/506,===============,0/0,100.00,100.00,rel_faecium,,hypothetical protein pMG1_p45 (plasmid) [Enterococcus faecium] | MOB_P
E8440_2.fasta.gz,E8440_2,97488,98318,ref|YP_001966134|,1-277/279,===============,0/0,99.28,98.92,rel_faecium,,hypothetical protein pEF1_p34 (plasmid) [Enterococcus faecium] | MOB_P
E8440_5.fasta.gz,E8440_5,3482,4393,dbj|BAF36629|,1-304/304,===============,0/0,100.00,100.00,rel_faecium,,mobilization protein (plasmid) [Enterococcus faecium] | MOB_P
E8481_2.fasta.gz,E8481_2,27714,28544,ref|YP_001966134|,1-277/279,===============,0/0,99.28,96.39,rel_faecium,,hypothetical protein pEF1_p34 (plasmid) [Enterococcus faecium] | MOB_P
E8481_4.fasta.gz,E8481_4,17415,18674,ref|NP_863352|,1-420/420,===============,0/0,100.00,100.00,rel_faecium,,MobB mobilization protein (plasmid) [Enterococcus faecalis] | MOB_V
E8691_2.fasta.gz,E8691_2,33586,34416,ref|YP_001966134|,1-277/279,===============,0/0,99.28,93.86,rel_faecium,,hypothetical protein pEF1_p34 (plasmid) [Enterococcus faecium] | MOB_P
E8691_4.fasta.gz,E8691_4,6454,7365,dbj|BAF44062|,1-304/304,===============,0/0,100.00,99.67,rel_faecium,,Mobilization Protein A (plasmid) [Enterococcus faecium] | MOB_P
E8691_6.fasta.gz,E8691_6,3,452,ref|YP_001654987|,322-468/468,......../.=====,1/3,31.41,60.00,rel_faecium,,hypothetical protein pJS42_02 (plasmid) [Enterococcus faecium] | MOB_V
E8691_6.fasta.gz,E8691_6,3105,4061,ref|YP_001654987|,1-319/468,===========....,0/0,68.16,85.89,rel_faecium,,hypothetical protein pJS42_02 (plasmid) [Enterococcus faecium] | MOB_V
E8867_2.fasta.gz,E8867_2,16147,17133,ref|YP_133675|,1-329/329,===============,0/0,100.00,100.00,rel_faecium,,hypothetical protein Tn916_05 [Enterococcus faecalis] | MOB_T
E8867_2.fasta.gz,E8867_2,29463,30722,ref|NP_863352|,1-420/420,===============,0/0,100.00,100.00,rel_faecium,,MobB mobilization protein (plasmid) [Enterococcus faecalis] | MOB_V
E8927_2.fasta.gz,E8927_2,29338,30168,ref|YP_001966134|,1-277/279,===============,0/0,99.28,96.39,rel_faecium,,hypothetical protein pEF1_p34 (plasmid) [Enterococcus faecium] | MOB_P
E8927_4.fasta.gz,E8927_4,3539,2127,ref|YP_001654987|,1-468/468,========/======,1/3,100.00,80.89,rel_faecium,,hypothetical protein pJS42_02 (plasmid) [Enterococcus faecium] | MOB_V
E8927_4.fasta.gz,E8927_4,6175,6008,ref|YP_001654987|,395-450/468,............===,0/0,11.97,82.14,rel_faecium,,hypothetical protein pJS42_02 (plasmid) [Enterococcus faecium] | MOB_V
E8927_4.fasta.gz,E8927_4,7374,6271,ref|YP_001654987|,1-368/468,============...,0/0,78.63,82.06,rel_faecium,,hypothetical protein pJS42_02 (plasmid) [Enterococcus faecium] | MOB_V
E8927_4.fasta.gz,E8927_4,11439,10027,ref|YP_001654987|,1-468/468,========/======,1/3,100.00,77.28,rel_faecium,,hypothetical protein pJS42_02 (plasmid) [Enterococcus faecium] | MOB_V
E8927_5.fasta.gz,E8927_5,8304,7393,dbj|BAF44062|,1-304/304,===============,0/0,100.00,99.67,rel_faecium,,Mobilization Protein A (plasmid) [Enterococcus faecium] | MOB_P
