digraph g
{

  /* list of nodes */
  "aacA-aphD";
  "aadE";
  "adcC";
  "aphA";
  "bin3_2";
  "bin3_3";
  "birA";
  "bphD";
  "cat";
  "ccpA";
  "clpE";
  "clpE_2";
  "cpdA";
  "csd_1";
  "dgoD_1";
  "dgoD_2";
  "dgoK1";
  "dhfr_2";
  "dnaG";
  "erm";
  "folD";
  "fra";
  "frlD";
  "ftsE";
  "ftsL";
  "fusA";
  "gatA";
  "gmuE";
  "gpmA";
  "group_1000";
  "group_1001";
  "group_1002";
  "group_1003";
  "group_1005";
  "group_1006";
  "group_1007";
  "group_1008";
  "group_1009";
  "group_101";
  "group_1010";
  "group_1011";
  "group_1012";
  "group_1013";
  "group_1014";
  "group_1015";
  "group_1016";
  "group_1017";
  "group_1018";
  "group_102";
  "group_1020";
  "group_1021";
  "group_1022";
  "group_1023";
  "group_1024";
  "group_1025";
  "group_1026";
  "group_1027";
  "group_1028";
  "group_1029";
  "group_103";
  "group_1030";
  "group_1032";
  "group_1033";
  "group_1034";
  "group_1036";
  "group_1037";
  "group_1038";
  "group_1039";
  "group_1040";
  "group_1041";
  "group_1042";
  "group_1043";
  "group_1044";
  "group_1045";
  "group_1046";
  "group_1047";
  "group_1048";
  "group_1049";
  "group_1050";
  "group_1051";
  "group_1052";
  "group_1053";
  "group_1054";
  "group_1055";
  "group_1056";
  "group_1057";
  "group_1058";
  "group_1059";
  "group_1060";
  "group_1061";
  "group_1062";
  "group_1063";
  "group_1064";
  "group_1065";
  "group_1066";
  "group_1067";
  "group_1068";
  "group_107";
  "group_1070";
  "group_1072";
  "group_1073";
  "group_1075";
  "group_1076";
  "group_1077";
  "group_1078";
  "group_1079";
  "group_108";
  "group_1080";
  "group_1081";
  "group_1082";
  "group_1083";
  "group_1084";
  "group_1085";
  "group_1086";
  "group_1087";
  "group_1088";
  "group_1089";
  "group_1090";
  "group_1092";
  "group_1093";
  "group_1094";
  "group_1095";
  "group_1096";
  "group_1097";
  "group_1098";
  "group_1099";
  "group_110";
  "group_1100";
  "group_1101";
  "group_1102";
  "group_1103";
  "group_1104";
  "group_1105";
  "group_1106";
  "group_1108";
  "group_1109";
  "group_111";
  "group_1110";
  "group_1111";
  "group_1112";
  "group_1113";
  "group_1114";
  "group_1115";
  "group_1116";
  "group_1117";
  "group_1118";
  "group_1119";
  "group_112";
  "group_113";
  "group_114";
  "group_119";
  "group_12";
  "group_121";
  "group_122";
  "group_124";
  "group_125";
  "group_127";
  "group_128";
  "group_129";
  "group_130";
  "group_131";
  "group_132";
  "group_135";
  "group_137";
  "group_138";
  "group_139";
  "group_14";
  "group_140";
  "group_142";
  "group_143";
  "group_144";
  "group_145";
  "group_146";
  "group_147";
  "group_148";
  "group_149";
  "group_15";
  "group_150";
  "group_151";
  "group_152";
  "group_153";
  "group_154";
  "group_155";
  "group_156";
  "group_158";
  "group_159";
  "group_160";
  "group_161";
  "group_163";
  "group_164";
  "group_165";
  "group_166";
  "group_167";
  "group_168";
  "group_169";
  "group_17";
  "group_170";
  "group_174";
  "group_175";
  "group_176";
  "group_177";
  "group_178";
  "group_179";
  "group_18";
  "group_180";
  "group_181";
  "group_189";
  "group_19";
  "group_190";
  "group_191";
  "group_192";
  "group_193";
  "group_194";
  "group_195";
  "group_196";
  "group_198";
  "group_199";
  "group_201";
  "group_202";
  "group_203";
  "group_204";
  "group_205";
  "group_208";
  "group_209";
  "group_210";
  "group_212";
  "group_214";
  "group_215";
  "group_216";
  "group_217";
  "group_218";
  "group_219";
  "group_220";
  "group_222";
  "group_223";
  "group_224";
  "group_225";
  "group_226";
  "group_227";
  "group_228";
  "group_229";
  "group_23";
  "group_231";
  "group_232";
  "group_233";
  "group_234";
  "group_235";
  "group_236";
  "group_238";
  "group_239";
  "group_240";
  "group_241";
  "group_242";
  "group_243";
  "group_244";
  "group_245";
  "group_247";
  "group_248";
  "group_249";
  "group_250";
  "group_251";
  "group_252";
  "group_253";
  "group_254";
  "group_255";
  "group_256";
  "group_257";
  "group_258";
  "group_259";
  "group_260";
  "group_262";
  "group_263";
  "group_264";
  "group_266";
  "group_267";
  "group_268";
  "group_269";
  "group_270";
  "group_271";
  "group_272";
  "group_275";
  "group_276";
  "group_277";
  "group_278";
  "group_279";
  "group_280";
  "group_281";
  "group_282";
  "group_283";
  "group_284";
  "group_285";
  "group_286";
  "group_287";
  "group_288";
  "group_290";
  "group_291";
  "group_292";
  "group_293";
  "group_294";
  "group_295";
  "group_296";
  "group_297";
  "group_298";
  "group_299";
  "group_300";
  "group_301";
  "group_302";
  "group_303";
  "group_304";
  "group_305";
  "group_306";
  "group_307";
  "group_308";
  "group_310";
  "group_311";
  "group_312";
  "group_314";
  "group_315";
  "group_317";
  "group_318";
  "group_319";
  "group_320";
  "group_321";
  "group_322";
  "group_323";
  "group_324";
  "group_325";
  "group_326";
  "group_327";
  "group_328";
  "group_329";
  "group_330";
  "group_331";
  "group_334";
  "group_335";
  "group_338";
  "group_339";
  "group_340";
  "group_341";
  "group_342";
  "group_343";
  "group_344";
  "group_345";
  "group_347";
  "group_348";
  "group_35";
  "group_350";
  "group_351";
  "group_352";
  "group_353";
  "group_354";
  "group_355";
  "group_356";
  "group_359";
  "group_36";
  "group_362";
  "group_363";
  "group_364";
  "group_365";
  "group_366";
  "group_367";
  "group_368";
  "group_369";
  "group_370";
  "group_371";
  "group_372";
  "group_373";
  "group_375";
  "group_376";
  "group_377";
  "group_38";
  "group_380";
  "group_381";
  "group_382";
  "group_383";
  "group_384";
  "group_385";
  "group_386";
  "group_387";
  "group_388";
  "group_390";
  "group_391";
  "group_392";
  "group_393";
  "group_394";
  "group_395";
  "group_397";
  "group_399";
  "group_40";
  "group_400";
  "group_401";
  "group_402";
  "group_404";
  "group_405";
  "group_406";
  "group_407";
  "group_408";
  "group_409";
  "group_41";
  "group_410";
  "group_411";
  "group_412";
  "group_413";
  "group_414";
  "group_415";
  "group_416";
  "group_417";
  "group_418";
  "group_419";
  "group_42";
  "group_420";
  "group_421";
  "group_423";
  "group_424";
  "group_425";
  "group_426";
  "group_428";
  "group_429";
  "group_43";
  "group_430";
  "group_431";
  "group_432";
  "group_433";
  "group_434";
  "group_435";
  "group_436";
  "group_437";
  "group_438";
  "group_439";
  "group_44";
  "group_440";
  "group_441";
  "group_444";
  "group_445";
  "group_446";
  "group_447";
  "group_448";
  "group_449";
  "group_45";
  "group_450";
  "group_451";
  "group_452";
  "group_453";
  "group_454";
  "group_455";
  "group_456";
  "group_457";
  "group_458";
  "group_459";
  "group_46";
  "group_460";
  "group_461";
  "group_462";
  "group_463";
  "group_464";
  "group_465";
  "group_467";
  "group_468";
  "group_469";
  "group_47";
  "group_470";
  "group_471";
  "group_472";
  "group_473";
  "group_475";
  "group_476";
  "group_477";
  "group_478";
  "group_479";
  "group_48";
  "group_480";
  "group_481";
  "group_482";
  "group_483";
  "group_484";
  "group_485";
  "group_486";
  "group_487";
  "group_488";
  "group_489";
  "group_49";
  "group_490";
  "group_491";
  "group_492";
  "group_493";
  "group_494";
  "group_495";
  "group_496";
  "group_497";
  "group_498";
  "group_499";
  "group_5";
  "group_500";
  "group_501";
  "group_502";
  "group_503";
  "group_504";
  "group_505";
  "group_506";
  "group_507";
  "group_508";
  "group_509";
  "group_51";
  "group_510";
  "group_511";
  "group_513";
  "group_514";
  "group_515";
  "group_516";
  "group_517";
  "group_518";
  "group_519";
  "group_52";
  "group_520";
  "group_522";
  "group_523";
  "group_524";
  "group_525";
  "group_526";
  "group_527";
  "group_528";
  "group_53";
  "group_530";
  "group_532";
  "group_533";
  "group_534";
  "group_535";
  "group_536";
  "group_537";
  "group_538";
  "group_539";
  "group_540";
  "group_541";
  "group_542";
  "group_543";
  "group_544";
  "group_548";
  "group_550";
  "group_551";
  "group_552";
  "group_553";
  "group_556";
  "group_557";
  "group_558";
  "group_559";
  "group_560";
  "group_562";
  "group_563";
  "group_564";
  "group_565";
  "group_566";
  "group_567";
  "group_568";
  "group_569";
  "group_57";
  "group_570";
  "group_571";
  "group_572";
  "group_573";
  "group_574";
  "group_576";
  "group_577";
  "group_578";
  "group_579";
  "group_582";
  "group_583";
  "group_584";
  "group_585";
  "group_586";
  "group_587";
  "group_588";
  "group_589";
  "group_591";
  "group_592";
  "group_593";
  "group_594";
  "group_595";
  "group_596";
  "group_597";
  "group_598";
  "group_599";
  "group_60";
  "group_600";
  "group_601";
  "group_602";
  "group_603";
  "group_604";
  "group_605";
  "group_606";
  "group_607";
  "group_608";
  "group_609";
  "group_61";
  "group_610";
  "group_611";
  "group_612";
  "group_613";
  "group_614";
  "group_615";
  "group_616";
  "group_617";
  "group_618";
  "group_619";
  "group_62";
  "group_620";
  "group_621";
  "group_622";
  "group_623";
  "group_624";
  "group_625";
  "group_626";
  "group_627";
  "group_628";
  "group_629";
  "group_63";
  "group_630";
  "group_631";
  "group_632";
  "group_633";
  "group_634";
  "group_635";
  "group_636";
  "group_637";
  "group_638";
  "group_639";
  "group_64";
  "group_640";
  "group_641";
  "group_642";
  "group_643";
  "group_644";
  "group_645";
  "group_646";
  "group_648";
  "group_649";
  "group_65";
  "group_650";
  "group_651";
  "group_652";
  "group_653";
  "group_654";
  "group_655";
  "group_656";
  "group_657";
  "group_658";
  "group_659";
  "group_66";
  "group_660";
  "group_661";
  "group_662";
  "group_663";
  "group_664";
  "group_665";
  "group_666";
  "group_667";
  "group_668";
  "group_669";
  "group_67";
  "group_670";
  "group_671";
  "group_672";
  "group_673";
  "group_674";
  "group_675";
  "group_676";
  "group_677";
  "group_678";
  "group_679";
  "group_68";
  "group_680";
  "group_681";
  "group_682";
  "group_683";
  "group_684";
  "group_685";
  "group_686";
  "group_687";
  "group_688";
  "group_689";
  "group_690";
  "group_691";
  "group_692";
  "group_693";
  "group_694";
  "group_695";
  "group_696";
  "group_697";
  "group_698";
  "group_699";
  "group_700";
  "group_701";
  "group_702";
  "group_703";
  "group_704";
  "group_705";
  "group_706";
  "group_707";
  "group_708";
  "group_709";
  "group_710";
  "group_711";
  "group_712";
  "group_713";
  "group_714";
  "group_715";
  "group_716";
  "group_717";
  "group_718";
  "group_719";
  "group_720";
  "group_721";
  "group_722";
  "group_723";
  "group_725";
  "group_726";
  "group_727";
  "group_728";
  "group_729";
  "group_730";
  "group_731";
  "group_732";
  "group_733";
  "group_734";
  "group_735";
  "group_736";
  "group_737";
  "group_738";
  "group_739";
  "group_740";
  "group_741";
  "group_742";
  "group_743";
  "group_744";
  "group_745";
  "group_746";
  "group_747";
  "group_748";
  "group_750";
  "group_751";
  "group_752";
  "group_753";
  "group_754";
  "group_755";
  "group_757";
  "group_758";
  "group_759";
  "group_76";
  "group_760";
  "group_761";
  "group_762";
  "group_763";
  "group_764";
  "group_765";
  "group_766";
  "group_767";
  "group_768";
  "group_769";
  "group_770";
  "group_771";
  "group_772";
  "group_773";
  "group_774";
  "group_775";
  "group_776";
  "group_777";
  "group_779";
  "group_780";
  "group_781";
  "group_782";
  "group_783";
  "group_784";
  "group_785";
  "group_786";
  "group_787";
  "group_788";
  "group_789";
  "group_79";
  "group_790";
  "group_791";
  "group_792";
  "group_793";
  "group_794";
  "group_795";
  "group_796";
  "group_797";
  "group_798";
  "group_799";
  "group_80";
  "group_800";
  "group_801";
  "group_803";
  "group_804";
  "group_805";
  "group_806";
  "group_807";
  "group_808";
  "group_809";
  "group_81";
  "group_810";
  "group_814";
  "group_815";
  "group_816";
  "group_817";
  "group_818";
  "group_819";
  "group_820";
  "group_822";
  "group_827";
  "group_828";
  "group_829";
  "group_83";
  "group_830";
  "group_831";
  "group_832";
  "group_833";
  "group_834";
  "group_835";
  "group_837";
  "group_838";
  "group_839";
  "group_840";
  "group_841";
  "group_843";
  "group_844";
  "group_845";
  "group_846";
  "group_847";
  "group_848";
  "group_849";
  "group_850";
  "group_851";
  "group_852";
  "group_853";
  "group_854";
  "group_855";
  "group_856";
  "group_857";
  "group_858";
  "group_859";
  "group_86";
  "group_862";
  "group_863";
  "group_865";
  "group_866";
  "group_868";
  "group_869";
  "group_870";
  "group_871";
  "group_873";
  "group_877";
  "group_878";
  "group_879";
  "group_880";
  "group_881";
  "group_882";
  "group_883";
  "group_884";
  "group_885";
  "group_886";
  "group_887";
  "group_888";
  "group_889";
  "group_89";
  "group_890";
  "group_891";
  "group_892";
  "group_893";
  "group_897";
  "group_898";
  "group_899";
  "group_90";
  "group_900";
  "group_901";
  "group_902";
  "group_903";
  "group_905";
  "group_906";
  "group_908";
  "group_909";
  "group_91";
  "group_910";
  "group_911";
  "group_912";
  "group_913";
  "group_914";
  "group_915";
  "group_916";
  "group_917";
  "group_918";
  "group_92";
  "group_920";
  "group_921";
  "group_922";
  "group_923";
  "group_924";
  "group_925";
  "group_926";
  "group_927";
  "group_928";
  "group_929";
  "group_93";
  "group_930";
  "group_932";
  "group_933";
  "group_934";
  "group_935";
  "group_936";
  "group_937";
  "group_938";
  "group_939";
  "group_94";
  "group_940";
  "group_941";
  "group_942";
  "group_944";
  "group_945";
  "group_946";
  "group_948";
  "group_949";
  "group_95";
  "group_950";
  "group_951";
  "group_952";
  "group_953";
  "group_954";
  "group_956";
  "group_958";
  "group_959";
  "group_96";
  "group_960";
  "group_961";
  "group_964";
  "group_965";
  "group_966";
  "group_967";
  "group_968";
  "group_969";
  "group_970";
  "group_971";
  "group_972";
  "group_975";
  "group_976";
  "group_977";
  "group_978";
  "group_979";
  "group_98";
  "group_980";
  "group_981";
  "group_982";
  "group_983";
  "group_984";
  "group_985";
  "group_986";
  "group_987";
  "group_988";
  "group_989";
  "group_99";
  "group_990";
  "group_991";
  "group_992";
  "group_993";
  "group_994";
  "group_995";
  "group_996";
  "group_997";
  "group_999";
  "guaA";
  "hsdR";
  "hxlB";
  "int";
  "kstR2";
  "lacA";
  "lacB";
  "lacC";
  "lacD2";
  "lacG";
  "lacY";
  "licB";
  "ligA";
  "marR";
  "mazE";
  "mefA";
  "mob";
  "mobC";
  "mob_2";
  "msmK";
  "nagB";
  "nagJ";
  "nagK";
  "nusB";
  "panB";
  "panC";
  "panD";
  "pdhD";
  "pemK";
  "pepV";
  "pflA";
  "phnD";
  "phnE";
  "pre";
  "prgN_1";
  "prgN_2";
  "radC";
  "radC_2";
  "rbn";
  "relE";
  "relE_2";
  "relG";
  "relG_2";
  "repA";
  "repB_1";
  "repB_2";
  "repB_22";
  "repB_3";
  "repB_5";
  "repB_6";
  "repB_9";
  "repE";
  "repN";
  "rep_1";
  "rep_2";
  "rep_3";
  "rep_5";
  "rpiA";
  "rpsG";
  "rpsL";
  "sat4";
  "scrB";
  "scrR";
  "soj_1";
  "sspP";
  "topB_2";
  "toxN";
  "traE1";
  "uspA";
  "vanA";
  "vanB";
  "vanHA";
  "vanHB";
  "vanRA";
  "vanRB";
  "vanRB_1";
  "vanRB_2";
  "vanRG";
  "vanSA";
  "vanSB_1";
  "vanSD_1";
  "vanWB";
  "vanXA";
  "vanXB";
  "vanYA";
  "vanYB";
  "vanZ";
  "xerC";
  "xerC_2";
  "xis";
  "xseA";
  "yeiL";
  "yfbU";
  "yoeB";
  "ytcP";
  "yteP";

  /* list of edges */
  "aacA-aphD" -> "aacA-aphD" [weight = "1"];
  "aacA-aphD" -> "cat" [weight = "0.666666666666667"];
  "aacA-aphD" -> "group_14" [weight = "1"];
  "aacA-aphD" -> "group_455" [weight = "1"];
  "aacA-aphD" -> "group_464" [weight = "0.333333333333333"];
  "aacA-aphD" -> "int" [weight = "1"];
  "aadE" -> "group_560" [weight = "1"];
  "aadE" -> "group_80" [weight = "0.0426136363636364"];
  "aadE" -> "sat4" [weight = "0.156046814044213"];
  "adcC" -> "group_1003" [weight = "1"];
  "adcC" -> "group_1005" [weight = "1"];
  "aphA" -> "aphA" [weight = "2"];
  "aphA" -> "birA" [weight = "0.233463035019455"];
  "aphA" -> "sat4" [weight = "0.0565770862800566"];
  "bin3_2" -> "group_57" [weight = "0.134680134680135"];
  "bin3_3" -> "group_930" [weight = "1"];
  "birA" -> "birA" [weight = "1"];
  "birA" -> "repB_2" [weight = "0.0541516245487365"];
  "ccpA" -> "group_1034" [weight = "1"];
  "clpE" -> "group_837" [weight = "1"];
  "cpdA" -> "group_975" [weight = "0.666666666666667"];
  "csd_1" -> "vanRB" [weight = "0.175438596491228"];
  "dgoD_1" -> "dgoD_1" [weight = "1"];
  "dgoD_1" -> "dgoD_2" [weight = "0.153846153846154"];
  "dgoK1" -> "dgoD_1" [weight = "0.666666666666667"];
  "dgoK1" -> "group_263" [weight = "0.153846153846154"];
  "dhfr_2" -> "group_52" [weight = "0.727272727272727"];
  "dnaG" -> "dnaG" [weight = "8"];
  "dnaG" -> "group_782" [weight = "0.275862068965517"];
  "erm" -> "aphA" [weight = "0.333333333333333"];
  "erm" -> "erm" [weight = "0.228571428571429"];
  "erm" -> "group_175" [weight = "2"];
  "erm" -> "group_515" [weight = "1"];
  "erm" -> "group_53" [weight = "0.210526315789474"];
  "erm" -> "group_560" [weight = "1"];
  "erm" -> "group_81" [weight = "0.1171875"];
  "folD" -> "xseA" [weight = "2"];
  "fra" -> "group_944" [weight = "1"];
  "frlD" -> "group_119" [weight = "0.0273037542662116"];
  "frlD" -> "group_203" [weight = "0.533333333333333"];
  "ftsL" -> "group_777" [weight = "0.266666666666667"];
  "gatA" -> "group_548" [weight = "0.133333333333333"];
  "gatA" -> "group_550" [weight = "2"];
  "gmuE" -> "group_377" [weight = "0.615384615384615"];
  "gpmA" -> "group_822" [weight = "8"];
  "group_1000" -> "group_999" [weight = "0.5"];
  "group_1001" -> "group_1000" [weight = "1"];
  "group_1001" -> "group_1002" [weight = "1"];
  "group_1007" -> "group_1008" [weight = "1.33333333333333"];
  "group_1007" -> "group_1055" [weight = "4"];
  "group_1008" -> "group_1055" [weight = "4"];
  "group_1009" -> "group_1008" [weight = "1.33333333333333"];
  "group_1009" -> "group_344" [weight = "4"];
  "group_1010" -> "group_1011" [weight = "4"];
  "group_1010" -> "group_344" [weight = "1.33333333333333"];
  "group_1013" -> "group_1014" [weight = "1"];
  "group_1014" -> "group_1015" [weight = "1"];
  "group_1016" -> "group_1015" [weight = "1"];
  "group_1017" -> "group_1016" [weight = "1"];
  "group_1017" -> "group_1018" [weight = "1"];
  "group_1018" -> "hxlB" [weight = "1"];
  "group_101" -> "group_103" [weight = "0.222222222222222"];
  "group_1020" -> "group_1021" [weight = "1"];
  "group_1020" -> "hxlB" [weight = "1"];
  "group_1021" -> "group_1022" [weight = "1"];
  "group_1023" -> "group_1022" [weight = "1"];
  "group_1023" -> "group_1024" [weight = "1"];
  "group_1024" -> "group_1025" [weight = "1"];
  "group_1027" -> "group_1028" [weight = "0.5"];
  "group_1027" -> "group_135" [weight = "0.5"];
  "group_1028" -> "group_1029" [weight = "0.5"];
  "group_102" -> "group_102" [weight = "2"];
  "group_102" -> "group_68" [weight = "0.153846153846154"];
  "group_102" -> "group_858" [weight = "0.2"];
  "group_1030" -> "group_1000" [weight = "1"];
  "group_1032" -> "group_1032" [weight = "1"];
  "group_1032" -> "group_208" [weight = "1"];
  "group_1033" -> "group_1033" [weight = "1"];
  "group_1036" -> "ccpA" [weight = "1"];
  "group_1036" -> "group_1037" [weight = "1"];
  "group_1037" -> "group_1038" [weight = "1"];
  "group_1038" -> "group_1039" [weight = "1"];
  "group_1041" -> "group_1040" [weight = "1"];
  "group_1041" -> "group_1042" [weight = "1"];
  "group_1042" -> "group_1043" [weight = "1"];
  "group_1043" -> "group_1044" [weight = "1"];
  "group_1044" -> "group_1045" [weight = "1"];
  "group_1045" -> "group_1046" [weight = "1"];
  "group_1047" -> "group_1048" [weight = "0.5"];
  "group_1049" -> "group_1050" [weight = "1"];
  "group_1051" -> "group_1052" [weight = "1"];
  "group_1053" -> "group_1053" [weight = "0.5"];
  "group_1054" -> "group_939" [weight = "2"];
  "group_1056" -> "group_1057" [weight = "8"];
  "group_1058" -> "group_1057" [weight = "8"];
  "group_1058" -> "group_1059" [weight = "8"];
  "group_1059" -> "group_1060" [weight = "8"];
  "group_1061" -> "group_1060" [weight = "8"];
  "group_1061" -> "group_1062" [weight = "8"];
  "group_1065" -> "group_1064" [weight = "2"];
  "group_1065" -> "group_1066" [weight = "2"];
  "group_1067" -> "group_1066" [weight = "2"];
  "group_1067" -> "group_1068" [weight = "2"];
  "group_1070" -> "repB_9" [weight = "2"];
  "group_1073" -> "group_127" [weight = "1"];
  "group_1073" -> "nagB" [weight = "1"];
  "group_1075" -> "group_1076" [weight = "1"];
  "group_1077" -> "group_170" [weight = "1"];
  "group_1078" -> "group_1079" [weight = "1"];
  "group_1078" -> "group_170" [weight = "1"];
  "group_1079" -> "group_1080" [weight = "1"];
  "group_107" -> "group_107" [weight = "0.5"];
  "group_107" -> "group_15" [weight = "0.545454545454546"];
  "group_107" -> "group_431" [weight = "2"];
  "group_107" -> "group_562" [weight = "1"];
  "group_107" -> "group_832" [weight = "1"];
  "group_1081" -> "group_1080" [weight = "1"];
  "group_1081" -> "group_1082" [weight = "1"];
  "group_1082" -> "group_1083" [weight = "1"];
  "group_1084" -> "group_1083" [weight = "1"];
  "group_1084" -> "group_1085" [weight = "1"];
  "group_1085" -> "group_1086" [weight = "1"];
  "group_1086" -> "group_1087" [weight = "1"];
  "group_1087" -> "group_1088" [weight = "1"];
  "group_1089" -> "group_1088" [weight = "1"];
  "group_108" -> "group_108" [weight = "0.5"];
  "group_108" -> "group_363" [weight = "2"];
  "group_108" -> "vanSA" [weight = "2"];
  "group_1090" -> "repE" [weight = "1"];
  "group_1092" -> "group_1093" [weight = "1"];
  "group_1092" -> "repE" [weight = "1"];
  "group_1093" -> "group_1094" [weight = "1"];
  "group_1095" -> "group_1094" [weight = "1"];
  "group_1097" -> "group_1096" [weight = "1"];
  "group_1098" -> "group_1099" [weight = "1"];
  "group_1101" -> "group_1102" [weight = "1"];
  "group_1103" -> "group_411" [weight = "1"];
  "group_1104" -> "group_345" [weight = "2"];
  "group_1105" -> "group_345" [weight = "2"];
  "group_1106" -> "bphD" [weight = "4"];
  "group_1108" -> "group_1104" [weight = "1"];
  "group_110" -> "group_110" [weight = "8"];
  "group_110" -> "group_196" [weight = "0.5"];
  "group_1110" -> "group_1111" [weight = "8"];
  "group_1112" -> "group_769" [weight = "2"];
  "group_1113" -> "group_1114" [weight = "2"];
  "group_1115" -> "group_1114" [weight = "2"];
  "group_1116" -> "group_1115" [weight = "2"];
  "group_1116" -> "group_1117" [weight = "2"];
  "group_1117" -> "group_1118" [weight = "2"];
  "group_1119" -> "group_1118" [weight = "2"];
  "group_111" -> "group_135" [weight = "0.181818181818182"];
  "group_111" -> "group_399" [weight = "0.125"];
  "group_111" -> "group_732" [weight = "1"];
  "group_112" -> "group_113" [weight = "0.111111111111111"];
  "group_112" -> "group_732" [weight = "1"];
  "group_112" -> "group_928" [weight = "1"];
  "group_113" -> "group_927" [weight = "1"];
  "group_119" -> "hsdR" [weight = "0.0293040293040293"];
  "group_121" -> "group_121" [weight = "1"];
  "group_121" -> "group_210" [weight = "0.333333333333333"];
  "group_122" -> "group_121" [weight = "0.333333333333333"];
  "group_122" -> "group_122" [weight = "0.131147540983607"];
  "group_122" -> "group_155" [weight = "4"];
  "group_122" -> "group_220" [weight = "4"];
  "group_122" -> "group_229" [weight = "0.333333333333333"];
  "group_122" -> "group_376" [weight = "3"];
  "group_122" -> "group_47" [weight = "8"];
  "group_124" -> "group_124" [weight = "8"];
  "group_124" -> "group_216" [weight = "0.230769230769231"];
  "group_124" -> "group_217" [weight = "0.16"];
  "group_125" -> "group_125" [weight = "0.545454545454546"];
  "group_125" -> "group_46" [weight = "0.171428571428571"];
  "group_127" -> "group_127" [weight = "0.888888888888889"];
  "group_128" -> "group_128" [weight = "0.210526315789474"];
  "group_128" -> "group_135" [weight = "0.0384"];
  "group_128" -> "group_928" [weight = "1"];
  "group_129" -> "group_129" [weight = "0.0382043935052531"];
  "group_129" -> "group_413" [weight = "1"];
  "group_12" -> "group_12" [weight = "1"];
  "group_130" -> "group_130" [weight = "0.333333333333333"];
  "group_132" -> "aacA-aphD" [weight = "0.0632577754348972"];
  "group_132" -> "group_741" [weight = "0.5"];
  "group_135" -> "group_1026" [weight = "0.5"];
  "group_135" -> "group_130" [weight = "0.181818181818182"];
  "group_137" -> "group_441" [weight = "0.136363636363636"];
  "group_137" -> "group_450" [weight = "0.5"];
  "group_139" -> "group_530" [weight = "0.285714285714286"];
  "group_139" -> "mobC" [weight = "0.5"];
  "group_140" -> "group_140" [weight = "0.489795918367347"];
  "group_142" -> "group_19" [weight = "1"];
  "group_142" -> "group_264" [weight = "1"];
  "group_142" -> "pre" [weight = "0.285714285714286"];
  "group_144" -> "group_268" [weight = "1"];
  "group_145" -> "group_144" [weight = "0.5"];
  "group_145" -> "group_160" [weight = "0.19047619047619"];
  "group_145" -> "group_43" [weight = "0.4"];
  "group_146" -> "group_147" [weight = "1"];
  "group_146" -> "group_723" [weight = "1"];
  "group_147" -> "group_147" [weight = "8"];
  "group_147" -> "group_277" [weight = "1"];
  "group_148" -> "group_148" [weight = "1"];
  "group_148" -> "group_278" [weight = "0.666666666666667"];
  "group_149" -> "group_149" [weight = "8"];
  "group_149" -> "group_280" [weight = "1"];
  "group_149" -> "group_618" [weight = "0.615384615384615"];
  "group_14" -> "group_14" [weight = "1.6"];
  "group_150" -> "group_282" [weight = "0.615384615384615"];
  "group_151" -> "group_151" [weight = "1"];
  "group_151" -> "group_428" [weight = "0.685714285714286"];
  "group_152" -> "group_639" [weight = "2"];
  "group_152" -> "group_640" [weight = "2"];
  "group_153" -> "group_648" [weight = "2"];
  "group_154" -> "group_648" [weight = "2"];
  "group_154" -> "group_683" [weight = "0.8"];
  "group_155" -> "group_155" [weight = "0.8"];
  "group_155" -> "group_583" [weight = "2"];
  "group_156" -> "group_156" [weight = "1"];
  "group_158" -> "group_158" [weight = "0.666666666666667"];
  "group_159" -> "group_159" [weight = "2"];
  "group_159" -> "group_311" [weight = "1"];
  "group_159" -> "mobC" [weight = "0.333333333333333"];
  "group_15" -> "group_1013" [weight = "1"];
  "group_15" -> "group_15" [weight = "0.333333333333333"];
  "group_15" -> "group_249" [weight = "0.056953013763645"];
  "group_15" -> "group_431" [weight = "0.428571428571429"];
  "group_15" -> "group_451" [weight = "1"];
  "group_15" -> "vanYA" [weight = "1"];
  "group_160" -> "group_160" [weight = "0.8"];
  "group_161" -> "group_12" [weight = "2"];
  "group_161" -> "group_161" [weight = "0.333333333333333"];
  "group_164" -> "group_98" [weight = "0.275862068965517"];
  "group_165" -> "group_323" [weight = "0.2"];
  "group_165" -> "group_808" [weight = "0.228571428571429"];
  "group_166" -> "group_324" [weight = "0.216216216216216"];
  "group_166" -> "group_325" [weight = "0.2"];
  "group_167" -> "group_167" [weight = "4"];
  "group_167" -> "group_67" [weight = "1.14285714285714"];
  "group_168" -> "group_14" [weight = "0.0573339703774486"];
  "group_168" -> "group_177" [weight = "0.0652883569096844"];
  "group_169" -> "group_169" [weight = "8"];
  "group_169" -> "pdhD" [weight = "0.0749063670411985"];
  "group_170" -> "group_14" [weight = "1"];
  "group_174" -> "group_174" [weight = "4"];
  "group_174" -> "vanRA" [weight = "0.266666666666667"];
  "group_175" -> "group_19" [weight = "0.148148148148148"];
  "group_176" -> "ligA" [weight = "0.0594648166501487"];
  "group_179" -> "group_354" [weight = "0.0293255131964809"];
  "group_17" -> "group_17" [weight = "3"];
  "group_17" -> "group_212" [weight = "0.10958904109589"];
  "group_17" -> "group_216" [weight = "0.175182481751825"];
  "group_180" -> "group_355" [weight = "0.0293255131964809"];
  "group_181" -> "group_355" [weight = "0.0293255131964809"];
  "group_181" -> "group_356" [weight = "0.212765957446809"];
  "group_189" -> "group_195" [weight = "0.216216216216216"];
  "group_189" -> "group_368" [weight = "0.242424242424242"];
  "group_18" -> "group_15" [weight = "0.153061224489796"];
  "group_18" -> "group_18" [weight = "0.27027027027027"];
  "group_18" -> "group_256" [weight = "0.0920951650038373"];
  "group_18" -> "group_292" [weight = "2"];
  "group_18" -> "group_451" [weight = "1"];
  "group_190" -> "group_375" [weight = "2"];
  "group_190" -> "group_444" [weight = "1"];
  "group_191" -> "group_393" [weight = "0.269662921348315"];
  "group_191" -> "group_880" [weight = "5"];
  "group_191" -> "group_996" [weight = "2"];
  "group_193" -> "group_193" [weight = "2"];
  "group_194" -> "group_395" [weight = "0.216216216216216"];
  "group_196" -> "group_156" [weight = "1"];
  "group_196" -> "group_196" [weight = "0.727272727272727"];
  "group_196" -> "group_397" [weight = "0.5"];
  "group_198" -> "group_114" [weight = "0.125"];
  "group_19" -> "group_19" [weight = "1"];
  "group_19" -> "group_79" [weight = "1"];
  "group_201" -> "group_151" [weight = "0.8"];
  "group_201" -> "group_402" [weight = "0.167832167832168"];
  "group_203" -> "group_203" [weight = "2"];
  "group_204" -> "group_204" [weight = "0.5"];
  "group_205" -> "group_204" [weight = "0.0417972831765935"];
  "group_205" -> "group_205" [weight = "0.5"];
  "group_208" -> "group_208" [weight = "1"];
  "group_208" -> "group_308" [weight = "0.036979969183359"];
  "group_209" -> "group_409" [weight = "0.5"];
  "group_209" -> "group_410" [weight = "0.25"];
  "group_209" -> "group_999" [weight = "1"];
  "group_212" -> "group_212" [weight = "8"];
  "group_212" -> "group_417" [weight = "0.115384615384615"];
  "group_214" -> "group_214" [weight = "2"];
  "group_214" -> "group_424" [weight = "0.0323886639676113"];
  "group_215" -> "group_228" [weight = "0.0731707317073171"];
  "group_216" -> "group_216" [weight = "0.375"];
  "group_217" -> "group_217" [weight = "1"];
  "group_217" -> "group_51" [weight = "1"];
  "group_217" -> "group_530" [weight = "2"];
  "group_218" -> "group_218" [weight = "2"];
  "group_218" -> "group_432" [weight = "4"];
  "group_218" -> "group_454" [weight = "0.307692307692308"];
  "group_219" -> "group_219" [weight = "0.2"];
  "group_220" -> "group_155" [weight = "1"];
  "group_220" -> "group_220" [weight = "0.0326530612244898"];
  "group_223" -> "group_18" [weight = "0.134078212290503"];
  "group_224" -> "group_219" [weight = "1"];
  "group_224" -> "group_224" [weight = "1"];
  "group_225" -> "group_135" [weight = "0.0384"];
  "group_225" -> "group_225" [weight = "1.33333333333333"];
  "group_225" -> "group_407" [weight = "0.091254752851711"];
  "group_227" -> "group_227" [weight = "0.153846153846154"];
  "group_229" -> "group_228" [weight = "0.0714285714285714"];
  "group_229" -> "group_660" [weight = "0.666666666666667"];
  "group_231" -> "group_231" [weight = "1"];
  "group_232" -> "group_232" [weight = "0.666666666666667"];
  "group_233" -> "group_233" [weight = "0.5"];
  "group_234" -> "group_234" [weight = "1"];
  "group_235" -> "group_234" [weight = "0.0498545907769007"];
  "group_236" -> "group_12" [weight = "0.5"];
  "group_23" -> "group_23" [weight = "0.502092050209205"];
  "group_23" -> "group_243" [weight = "1"];
  "group_23" -> "group_252" [weight = "0.333333333333333"];
  "group_23" -> "group_41" [weight = "0.666666666666667"];
  "group_23" -> "group_533" [weight = "3"];
  "group_23" -> "mobC" [weight = "0.100083402835696"];
  "group_241" -> "group_240" [weight = "0.0394607037158829"];
  "group_242" -> "group_242" [weight = "1"];
  "group_243" -> "group_243" [weight = "2"];
  "group_245" -> "group_138" [weight = "0.25"];
  "group_248" -> "group_247" [weight = "0.25"];
  "group_248" -> "group_248" [weight = "1"];
  "group_249" -> "group_249" [weight = "1"];
  "group_250" -> "group_754" [weight = "5"];
  "group_251" -> "group_250" [weight = "1"];
  "group_251" -> "group_251" [weight = "2"];
  "group_251" -> "group_310" [weight = "0.37037037037037"];
  "group_251" -> "mob_2" [weight = "3"];
  "group_253" -> "group_253" [weight = "0.5"];
  "group_255" -> "group_535" [weight = "3"];
  "group_256" -> "group_256" [weight = "1.21212121212121"];
  "group_258" -> "group_140" [weight = "0.0442314780685588"];
  "group_259" -> "group_260" [weight = "1"];
  "group_259" -> "group_540" [weight = "1"];
  "group_262" -> "group_262" [weight = "2"];
  "group_263" -> "group_263" [weight = "2"];
  "group_264" -> "group_152" [weight = "0.4"];
  "group_264" -> "pre" [weight = "0.285714285714286"];
  "group_267" -> "group_267" [weight = "1"];
  "group_268" -> "group_268" [weight = "1"];
  "group_269" -> "group_591" [weight = "0.5"];
  "group_269" -> "group_678" [weight = "0.888888888888889"];
  "group_270" -> "group_269" [weight = "1"];
  "group_270" -> "group_592" [weight = "1"];
  "group_270" -> "group_593" [weight = "0.5"];
  "group_271" -> "group_595" [weight = "0.5"];
  "group_272" -> "group_598" [weight = "1"];
  "group_272" -> "group_599" [weight = "1"];
  "group_272" -> "group_681" [weight = "1"];
  "group_272" -> "group_978" [weight = "2"];
  "group_275" -> "group_275" [weight = "1"];
  "group_275" -> "group_604" [weight = "0.470588235294118"];
  "group_275" -> "group_682" [weight = "1"];
  "group_277" -> "group_612" [weight = "1"];
  "group_278" -> "group_612" [weight = "1"];
  "group_279" -> "group_614" [weight = "1"];
  "group_280" -> "group_281" [weight = "0.888888888888889"];
  "group_280" -> "group_977" [weight = "2"];
  "group_281" -> "group_281" [weight = "8"];
  "group_282" -> "group_281" [weight = "0.888888888888889"];
  "group_282" -> "group_977" [weight = "2"];
  "group_283" -> "group_284" [weight = "0.888888888888889"];
  "group_285" -> "group_284" [weight = "0.615384615384615"];
  "group_286" -> "group_625" [weight = "0.888888888888889"];
  "group_286" -> "group_626" [weight = "1"];
  "group_286" -> "group_687" [weight = "1"];
  "group_287" -> "group_627" [weight = "1"];
  "group_287" -> "group_628" [weight = "0.888888888888889"];
  "group_288" -> "group_628" [weight = "0.888888888888889"];
  "group_291" -> "group_291" [weight = "8"];
  "group_291" -> "group_91" [weight = "0.666666666666667"];
  "group_291" -> "group_92" [weight = "8"];
  "group_291" -> "group_924" [weight = "2"];
  "group_294" -> "group_295" [weight = "8"];
  "group_294" -> "group_638" [weight = "0.666666666666667"];
  "group_295" -> "group_684" [weight = "1"];
  "group_295" -> "group_818" [weight = "8"];
  "group_296" -> "group_683" [weight = "8"];
  "group_297" -> "group_296" [weight = "1.6"];
  "group_297" -> "group_298" [weight = "1"];
  "group_299" -> "group_189" [weight = "1"];
  "group_301" -> "group_671" [weight = "0.888888888888889"];
  "group_302" -> "group_302" [weight = "8"];
  "group_302" -> "group_676" [weight = "1"];
  "group_303" -> "group_19" [weight = "0.316622691292876"];
  "group_303" -> "group_707" [weight = "0.0543970988213962"];
  "group_304" -> "group_712" [weight = "1"];
  "group_305" -> "group_717" [weight = "1"];
  "group_305" -> "group_718" [weight = "8"];
  "group_306" -> "group_113" [weight = "0.111111111111111"];
  "group_306" -> "group_198" [weight = "0.111111111111111"];
  "group_310" -> "group_160" [weight = "0.8"];
  "group_310" -> "mob_2" [weight = "2"];
  "group_311" -> "group_311" [weight = "0.25"];
  "group_312" -> "group_764" [weight = "0.296296296296296"];
  "group_314" -> "group_773" [weight = "0.242424242424242"];
  "group_314" -> "group_774" [weight = "0.170212765957447"];
  "group_315" -> "group_781" [weight = "0.166666666666667"];
  "group_317" -> "group_787" [weight = "0.25"];
  "group_317" -> "group_788" [weight = "0.170212765957447"];
  "group_319" -> "group_318" [weight = "0.285714285714286"];
  "group_319" -> "group_793" [weight = "0.16"];
  "group_320" -> "group_793" [weight = "0.266666666666667"];
  "group_320" -> "group_794" [weight = "0.173913043478261"];
  "group_323" -> "group_322" [weight = "0.205128205128205"];
  "group_325" -> "group_790" [weight = "0.205128205128205"];
  "group_326" -> "group_322" [weight = "0.421052631578947"];
  "group_326" -> "group_770" [weight = "0.380952380952381"];
  "group_327" -> "group_327" [weight = "1"];
  "group_328" -> "group_328" [weight = "8"];
  "group_329" -> "group_329" [weight = "0.359281437125748"];
  "group_330" -> "group_330" [weight = "2"];
  "group_330" -> "vanRA" [weight = "2"];
  "group_334" -> "group_103" [weight = "0.222222222222222"];
  "group_334" -> "group_858" [weight = "0.2"];
  "group_335" -> "vanXB" [weight = "2"];
  "group_338" -> "group_883" [weight = "0.166666666666667"];
  "group_340" -> "group_217" [weight = "1"];
  "group_340" -> "group_937" [weight = "1"];
  "group_341" -> "group_341" [weight = "0.666666666666667"];
  "group_342" -> "group_972" [weight = "0.4"];
  "group_343" -> "group_1007" [weight = "4"];
  "group_343" -> "group_1008" [weight = "4"];
  "group_343" -> "group_1010" [weight = "2"];
  "group_347" -> "group_14" [weight = "0.2"];
  "group_347" -> "group_348" [weight = "0.166666666666667"];
  "group_348" -> "group_348" [weight = "2"];
  "group_350" -> "group_178" [weight = "0.238095238095238"];
  "group_351" -> "group_178" [weight = "0.238095238095238"];
  "group_351" -> "group_352" [weight = "0.0289017341040462"];
  "group_353" -> "group_179" [weight = "0.285714285714286"];
  "group_353" -> "group_352" [weight = "0.0289017341040462"];
  "group_354" -> "group_180" [weight = "0.238095238095238"];
  "group_356" -> "csd_1" [weight = "0.175438596491228"];
  "group_359" -> "group_107" [weight = "1"];
  "group_359" -> "panB" [weight = "0.166666666666667"];
  "group_35" -> "group_125" [weight = "0.230769230769231"];
  "group_35" -> "group_23" [weight = "0.454545454545455"];
  "group_35" -> "group_35" [weight = "0.272727272727273"];
  "group_35" -> "group_48" [weight = "0.5"];
  "group_362" -> "group_108" [weight = "2"];
  "group_363" -> "group_364" [weight = "0.0458540313335881"];
  "group_365" -> "group_364" [weight = "0.098119378577269"];
  "group_366" -> "group_365" [weight = "0.0458540313335881"];
  "group_369" -> "group_368" [weight = "0.145454545454545"];
  "group_369" -> "group_370" [weight = "0.195121951219512"];
  "group_36" -> "group_1033" [weight = "1"];
  "group_36" -> "group_36" [weight = "0.666666666666667"];
  "group_370" -> "group_371" [weight = "0.195121951219512"];
  "group_372" -> "group_371" [weight = "0.195121951219512"];
  "group_373" -> "group_372" [weight = "0.145454545454545"];
  "group_373" -> "xerC" [weight = "0.195121951219512"];
  "group_376" -> "erm" [weight = "1"];
  "group_376" -> "gmuE" [weight = "0.0816326530612245"];
  "group_376" -> "group_190" [weight = "0.888888888888889"];
  "group_376" -> "group_375" [weight = "2"];
  "group_377" -> "lacY" [weight = "0.0808080808080808"];
  "group_380" -> "group_381" [weight = "0.0383877159309021"];
  "group_380" -> "rbn" [weight = "0.0772200772200772"];
  "group_381" -> "group_382" [weight = "0.0383877159309021"];
  "group_383" -> "group_382" [weight = "0.0772200772200772"];
  "group_384" -> "group_383" [weight = "0.0383877159309021"];
  "group_385" -> "group_384" [weight = "0.0772200772200772"];
  "group_385" -> "group_386" [weight = "0.0383877159309021"];
  "group_386" -> "group_151" [weight = "1"];
  "group_386" -> "group_387" [weight = "0.0772200772200772"];
  "group_386" -> "group_576" [weight = "1"];
  "group_388" -> "lacG" [weight = "0.269662921348315"];
  "group_38" -> "group_38" [weight = "0.174165457184325"];
  "group_38" -> "group_484" [weight = "1"];
  "group_390" -> "lacG" [weight = "0.269662921348315"];
  "group_391" -> "group_390" [weight = "0.0341394025604552"];
  "group_391" -> "group_392" [weight = "0.269662921348315"];
  "group_392" -> "group_191" [weight = "0.0341394025604552"];
  "group_393" -> "group_463" [weight = "0.0614124872057318"];
  "group_394" -> "group_394" [weight = "1"];
  "group_397" -> "group_397" [weight = "1.26315789473684"];
  "group_399" -> "group_112" [weight = "0.125"];
  "group_401" -> "group_96" [weight = "1"];
  "group_402" -> "group_1063" [weight = "1"];
  "group_402" -> "group_202" [weight = "0.167832167832168"];
  "group_404" -> "group_404" [weight = "0.333333333333333"];
  "group_404" -> "group_405" [weight = "1.42857142857143"];
  "group_405" -> "group_406" [weight = "1.42857142857143"];
  "group_407" -> "group_408" [weight = "0.036979969183359"];
  "group_408" -> "group_308" [weight = "0.0836236933797909"];
  "group_40" -> "group_40" [weight = "4"];
  "group_410" -> "group_409" [weight = "0.5"];
  "group_411" -> "group_1030" [weight = "1"];
  "group_411" -> "group_410" [weight = "0.5"];
  "group_412" -> "group_412" [weight = "1"];
  "group_412" -> "group_413" [weight = "0.266666666666667"];
  "group_413" -> "group_413" [weight = "0.666666666666667"];
  "group_416" -> "group_415" [weight = "0.5"];
  "group_417" -> "group_417" [weight = "8"];
  "group_419" -> "group_418" [weight = "0.0306983883346124"];
  "group_41" -> "group_41" [weight = "0.521739130434783"];
  "group_41" -> "repB_3" [weight = "0.363636363636364"];
  "group_420" -> "group_419" [weight = "0.0582807187955318"];
  "group_420" -> "group_421" [weight = "0.353982300884956"];
  "group_421" -> "group_419" [weight = "0.0648648648648649"];
  "group_421" -> "group_449" [weight = "0.134680134680135"];
  "group_424" -> "group_423" [weight = "0.0318725099601594"];
  "group_425" -> "group_478" [weight = "0.666666666666667"];
  "group_426" -> "group_425" [weight = "0.666666666666667"];
  "group_428" -> "group_428" [weight = "1"];
  "group_429" -> "group_215" [weight = "0.230769230769231"];
  "group_429" -> "group_226" [weight = "0.24"];
  "group_429" -> "group_440" [weight = "0.25"];
  "group_42" -> "group_363" [weight = "0.352941176470588"];
  "group_430" -> "group_216" [weight = "2"];
  "group_431" -> "group_431" [weight = "1"];
  "group_432" -> "group_327" [weight = "8"];
  "group_432" -> "group_432" [weight = "2"];
  "group_434" -> "repA" [weight = "0.4"];
  "group_435" -> "group_266" [weight = "0.25"];
  "group_435" -> "group_434" [weight = "0.285714285714286"];
  "group_436" -> "group_436" [weight = "1"];
  "group_438" -> "group_490" [weight = "0.333333333333333"];
  "group_439" -> "group_438" [weight = "0.195121951219512"];
  "group_43" -> "group_1097" [weight = "1"];
  "group_43" -> "group_43" [weight = "1"];
  "group_440" -> "group_226" [weight = "0.24"];
  "group_441" -> "group_441" [weight = "1"];
  "group_444" -> "lacY" [weight = "0.5"];
  "group_445" -> "group_444" [weight = "0.201680672268908"];
  "group_445" -> "group_446" [weight = "0.180451127819549"];
  "group_448" -> "group_449" [weight = "0.0693240901213172"];
  "group_44" -> "group_763" [weight = "0.195121951219512"];
  "group_450" -> "group_450" [weight = "0.125"];
  "group_451" -> "group_451" [weight = "0.4"];
  "group_452" -> "group_452" [weight = "0.2"];
  "group_452" -> "group_577" [weight = "1"];
  "group_453" -> "group_453" [weight = "2"];
  "group_455" -> "group_455" [weight = "0.181818181818182"];
  "group_456" -> "group_737" [weight = "1"];
  "group_458" -> "group_457" [weight = "0.4"];
  "group_459" -> "group_460" [weight = "0.25"];
  "group_459" -> "repA" [weight = "0.25"];
  "group_45" -> "group_45" [weight = "8"];
  "group_45" -> "group_662" [weight = "2"];
  "group_45" -> "scrR" [weight = "0.0430570505920344"];
  "group_460" -> "group_461" [weight = "0.25"];
  "group_463" -> "group_1100" [weight = "1"];
  "group_465" -> "group_464" [weight = "0.5"];
  "group_467" -> "group_468" [weight = "1"];
  "group_468" -> "group_468" [weight = "1"];
  "group_469" -> "group_231" [weight = "0.333333333333333"];
  "group_469" -> "group_470" [weight = "0.333333333333333"];
  "group_46" -> "group_217" [weight = "0.108695652173913"];
  "group_46" -> "group_46" [weight = "5"];
  "group_46" -> "repB_3" [weight = "0.214285714285714"];
  "group_470" -> "group_471" [weight = "0.333333333333333"];
  "group_472" -> "group_257" [weight = "0.5"];
  "group_472" -> "group_473" [weight = "0.333333333333333"];
  "group_472" -> "group_518" [weight = "0.0527240773286468"];
  "group_472" -> "repB_2" [weight = "0.118929633300297"];
  "group_475" -> "group_232" [weight = "0.0388852883992223"];
  "group_476" -> "group_475" [weight = "0.5"];
  "group_477" -> "group_476" [weight = "1"];
  "group_479" -> "group_480" [weight = "1"];
  "group_479" -> "mob" [weight = "0.666666666666667"];
  "group_47" -> "group_436" [weight = "0.0956175298804781"];
  "group_47" -> "group_458" [weight = "2"];
  "group_47" -> "group_47" [weight = "0.666666666666667"];
  "group_47" -> "group_577" [weight = "1"];
  "group_480" -> "group_481" [weight = "0.5"];
  "group_481" -> "group_250" [weight = "0.304568527918782"];
  "group_481" -> "rep_3" [weight = "0.202020202020202"];
  "group_483" -> "group_38" [weight = "0.25"];
  "group_485" -> "group_485" [weight = "0.4"];
  "group_486" -> "group_233" [weight = "1"];
  "group_487" -> "group_12" [weight = "2"];
  "group_487" -> "group_487" [weight = "1"];
  "group_487" -> "group_488" [weight = "2"];
  "group_48" -> "group_159" [weight = "0.285714285714286"];
  "group_48" -> "group_23" [weight = "0.216216216216216"];
  "group_48" -> "group_267" [weight = "1"];
  "group_48" -> "group_311" [weight = "0.666666666666667"];
  "group_48" -> "group_41" [weight = "0.615384615384615"];
  "group_48" -> "group_48" [weight = "0.233009708737864"];
  "group_491" -> "group_436" [weight = "0.5"];
  "group_491" -> "group_491" [weight = "1"];
  "group_491" -> "group_577" [weight = "2"];
  "group_492" -> "group_1104" [weight = "2"];
  "group_492" -> "group_1108" [weight = "0.5"];
  "group_492" -> "group_64" [weight = "2"];
  "group_493" -> "group_235" [weight = "0.0511291009799744"];
  "group_493" -> "group_493" [weight = "2"];
  "group_494" -> "group_495" [weight = "0.222222222222222"];
  "group_495" -> "group_496" [weight = "0.222222222222222"];
  "group_496" -> "group_151" [weight = "2"];
  "group_497" -> "group_12" [weight = "0.666666666666667"];
  "group_497" -> "group_236" [weight = "1"];
  "group_497" -> "group_497" [weight = "0.5"];
  "group_498" -> "group_12" [weight = "2"];
  "group_498" -> "group_498" [weight = "1.2"];
  "group_498" -> "mobC" [weight = "0.4"];
  "group_499" -> "group_499" [weight = "0.333333333333333"];
  "group_49" -> "group_49" [weight = "0.108303249097473"];
  "group_500" -> "group_12" [weight = "1"];
  "group_501" -> "group_492" [weight = "0.588235294117647"];
  "group_502" -> "group_236" [weight = "0.666666666666667"];
  "group_502" -> "group_500" [weight = "1"];
  "group_502" -> "group_502" [weight = "5"];
  "group_503" -> "group_455" [weight = "1"];
  "group_503" -> "group_503" [weight = "0.25"];
  "group_504" -> "group_505" [weight = "0.162381596752368"];
  "group_505" -> "group_505" [weight = "2"];
  "group_506" -> "group_242" [weight = "1"];
  "group_507" -> "group_506" [weight = "1"];
  "group_507" -> "group_507" [weight = "2"];
  "group_507" -> "group_508" [weight = "1"];
  "group_508" -> "group_509" [weight = "0.75"];
  "group_510" -> "group_243" [weight = "0.75"];
  "group_511" -> "group_726" [weight = "1"];
  "group_511" -> "yoeB" [weight = "0.333333333333333"];
  "group_513" -> "group_437" [weight = "0.5"];
  "group_514" -> "group_746" [weight = "0.222222222222222"];
  "group_514" -> "traE1" [weight = "2"];
  "group_515" -> "group_516" [weight = "1"];
  "group_517" -> "group_516" [weight = "0.666666666666667"];
  "group_518" -> "group_518" [weight = "1"];
  "group_519" -> "vanZ" [weight = "0.222222222222222"];
  "group_51" -> "repB_3" [weight = "0.146341463414634"];
  "group_520" -> "group_519" [weight = "0.222222222222222"];
  "group_522" -> "group_539" [weight = "0.5"];
  "group_522" -> "relE_2" [weight = "0.4"];
  "group_523" -> "group_242" [weight = "0.5"];
  "group_523" -> "group_523" [weight = "0.545454545454546"];
  "group_524" -> "group_242" [weight = "0.5"];
  "group_525" -> "group_524" [weight = "0.5"];
  "group_525" -> "group_525" [weight = "1"];
  "group_528" -> "group_527" [weight = "1"];
  "group_532" -> "group_51" [weight = "0.157894736842105"];
  "group_532" -> "group_530" [weight = "0.545454545454546"];
  "group_532" -> "group_532" [weight = "2"];
  "group_532" -> "group_901" [weight = "2"];
  "group_533" -> "group_252" [weight = "0.4"];
  "group_533" -> "group_533" [weight = "1"];
  "group_533" -> "repB_3" [weight = "1.2"];
  "group_534" -> "group_534" [weight = "0.333333333333333"];
  "group_535" -> "group_536" [weight = "1"];
  "group_537" -> "group_538" [weight = "0.5"];
  "group_538" -> "group_539" [weight = "0.5"];
  "group_53" -> "group_174" [weight = "0.129032258064516"];
  "group_53" -> "group_53" [weight = "1"];
  "group_540" -> "group_12" [weight = "0.5"];
  "group_541" -> "group_258" [weight = "0.0410537119397879"];
  "group_542" -> "group_542" [weight = "0.888888888888889"];
  "group_548" -> "lacA" [weight = "0.133333333333333"];
  "group_550" -> "group_262" [weight = "0.133333333333333"];
  "group_551" -> "group_262" [weight = "0.133333333333333"];
  "group_551" -> "group_552" [weight = "0.133333333333333"];
  "group_552" -> "group_89" [weight = "2"];
  "group_553" -> "dgoD_2" [weight = "0.153846153846154"];
  "group_556" -> "group_263" [weight = "1"];
  "group_556" -> "group_557" [weight = "0.153846153846154"];
  "group_557" -> "group_558" [weight = "0.153846153846154"];
  "group_559" -> "group_558" [weight = "0.666666666666667"];
  "group_559" -> "group_89" [weight = "0.153846153846154"];
  "group_562" -> "group_563" [weight = "0.142857142857143"];
  "group_564" -> "group_565" [weight = "1"];
  "group_565" -> "group_367" [weight = "1"];
  "group_567" -> "group_566" [weight = "1"];
  "group_567" -> "group_568" [weight = "1"];
  "group_569" -> "group_569" [weight = "2"];
  "group_569" -> "group_570" [weight = "1"];
  "group_571" -> "group_570" [weight = "1"];
  "group_571" -> "group_572" [weight = "1"];
  "group_573" -> "group_572" [weight = "1"];
  "group_574" -> "relG" [weight = "1"];
  "group_577" -> "group_577" [weight = "1"];
  "group_578" -> "group_579" [weight = "1"];
  "group_57" -> "group_418" [weight = "0.134680134680135"];
  "group_582" -> "group_582" [weight = "1"];
  "group_584" -> "group_583" [weight = "1"];
  "group_585" -> "group_584" [weight = "1"];
  "group_585" -> "group_586" [weight = "1"];
  "group_586" -> "group_587" [weight = "1"];
  "group_588" -> "group_587" [weight = "1"];
  "group_588" -> "group_589" [weight = "1"];
  "group_589" -> "clpE_2" [weight = "1"];
  "group_592" -> "group_269" [weight = "0.5"];
  "group_594" -> "group_271" [weight = "0.5"];
  "group_594" -> "group_593" [weight = "1"];
  "group_595" -> "group_596" [weight = "0.4"];
  "group_597" -> "group_596" [weight = "0.5"];
  "group_598" -> "group_597" [weight = "0.5"];
  "group_599" -> "group_681" [weight = "1"];
  "group_599" -> "relG_2" [weight = "0.5"];
  "group_5" -> "group_143" [weight = "2"];
  "group_5" -> "group_220" [weight = "0.8"];
  "group_5" -> "group_388" [weight = "1"];
  "group_5" -> "group_393" [weight = "1.71428571428571"];
  "group_5" -> "group_404" [weight = "2"];
  "group_5" -> "group_444" [weight = "2.18181818181818"];
  "group_5" -> "group_45" [weight = "0.888888888888889"];
  "group_5" -> "group_5" [weight = "1.2"];
  "group_5" -> "group_553" [weight = "1"];
  "group_5" -> "group_753" [weight = "8"];
  "group_600" -> "relG_2" [weight = "0.5"];
  "group_600" -> "soj_1" [weight = "0.5"];
  "group_601" -> "group_602" [weight = "0.470588235294118"];
  "group_601" -> "soj_1" [weight = "0.5"];
  "group_603" -> "group_602" [weight = "0.5"];
  "group_604" -> "group_603" [weight = "0.470588235294118"];
  "group_605" -> "group_276" [weight = "0.666666666666667"];
  "group_605" -> "group_606" [weight = "2"];
  "group_606" -> "group_607" [weight = "2"];
  "group_608" -> "group_607" [weight = "0.666666666666667"];
  "group_609" -> "group_608" [weight = "0.666666666666667"];
  "group_609" -> "group_610" [weight = "0.666666666666667"];
  "group_609" -> "group_733" [weight = "8"];
  "group_60" -> "group_60" [weight = "2"];
  "group_610" -> "group_611" [weight = "0.666666666666667"];
  "group_611" -> "group_146" [weight = "2"];
  "group_613" -> "group_148" [weight = "0.666666666666667"];
  "group_613" -> "group_279" [weight = "1"];
  "group_614" -> "group_615" [weight = "0.615384615384615"];
  "group_615" -> "group_616" [weight = "1"];
  "group_617" -> "group_616" [weight = "0.615384615384615"];
  "group_618" -> "group_617" [weight = "0.615384615384615"];
  "group_619" -> "group_150" [weight = "0.888888888888889"];
  "group_619" -> "group_620" [weight = "1"];
  "group_621" -> "group_619" [weight = "1.6"];
  "group_621" -> "group_620" [weight = "1"];
  "group_621" -> "group_622" [weight = "1"];
  "group_622" -> "group_283" [weight = "1"];
  "group_622" -> "group_622" [weight = "8"];
  "group_623" -> "group_285" [weight = "0.888888888888889"];
  "group_624" -> "group_623" [weight = "0.888888888888889"];
  "group_625" -> "group_624" [weight = "1"];
  "group_626" -> "group_627" [weight = "1"];
  "group_629" -> "group_288" [weight = "0.8"];
  "group_629" -> "group_630" [weight = "1"];
  "group_629" -> "group_684" [weight = "1"];
  "group_62" -> "group_176" [weight = "1"];
  "group_62" -> "group_62" [weight = "1"];
  "group_62" -> "group_658" [weight = "1"];
  "group_62" -> "group_79" [weight = "0.0663716814159292"];
  "group_62" -> "group_94" [weight = "0.0950118764845606"];
  "group_631" -> "mefA" [weight = "2"];
  "group_632" -> "group_290" [weight = "0.666666666666667"];
  "group_633" -> "group_290" [weight = "2"];
  "group_633" -> "group_634" [weight = "8"];
  "group_633" -> "group_644" [weight = "1"];
  "group_635" -> "group_293" [weight = "1.6"];
  "group_635" -> "group_93" [weight = "0.666666666666667"];
  "group_636" -> "group_293" [weight = "0.666666666666667"];
  "group_637" -> "group_636" [weight = "0.666666666666667"];
  "group_638" -> "group_637" [weight = "8"];
  "group_639" -> "group_151" [weight = "2"];
  "group_63" -> "group_231" [weight = "0.220588235294118"];
  "group_63" -> "group_517" [weight = "0.666666666666667"];
  "group_63" -> "group_80" [weight = "0.0414364640883978"];
  "group_640" -> "group_640" [weight = "2"];
  "group_640" -> "group_641" [weight = "2"];
  "group_641" -> "group_642" [weight = "2"];
  "group_642" -> "group_643" [weight = "2"];
  "group_644" -> "group_643" [weight = "2"];
  "group_645" -> "group_644" [weight = "1"];
  "group_645" -> "group_646" [weight = "2"];
  "group_649" -> "group_154" [weight = "2"];
  "group_649" -> "group_296" [weight = "2"];
  "group_64" -> "group_64" [weight = "1"];
  "group_650" -> "group_650" [weight = "2"];
  "group_653" -> "group_196" [weight = "1"];
  "group_654" -> "group_653" [weight = "1"];
  "group_655" -> "group_654" [weight = "1"];
  "group_655" -> "group_656" [weight = "1"];
  "group_656" -> "group_657" [weight = "1"];
  "group_658" -> "group_657" [weight = "1"];
  "group_659" -> "group_62" [weight = "1"];
  "group_65" -> "group_231" [weight = "0.316622691292876"];
  "group_65" -> "group_65" [weight = "1"];
  "group_65" -> "group_707" [weight = "0.376175548589342"];
  "group_661" -> "group_660" [weight = "2"];
  "group_661" -> "group_662" [weight = "0.133333333333333"];
  "group_663" -> "group_664" [weight = "0.5"];
  "group_663" -> "group_857" [weight = "1"];
  "group_664" -> "group_665" [weight = "0.5"];
  "group_665" -> "group_666" [weight = "0.5"];
  "group_667" -> "group_231" [weight = "1"];
  "group_668" -> "group_127" [weight = "2"];
  "group_668" -> "group_667" [weight = "1"];
  "group_669" -> "group_156" [weight = "1"];
  "group_66" -> "group_66" [weight = "8"];
  "group_66" -> "group_780" [weight = "0.285714285714286"];
  "group_670" -> "group_670" [weight = "1"];
  "group_671" -> "group_300" [weight = "1"];
  "group_672" -> "group_301" [weight = "1"];
  "group_672" -> "group_673" [weight = "1"];
  "group_673" -> "group_674" [weight = "1"];
  "group_674" -> "group_675" [weight = "1"];
  "group_675" -> "group_676" [weight = "1"];
  "group_677" -> "group_302" [weight = "1"];
  "group_677" -> "group_90" [weight = "0.888888888888889"];
  "group_679" -> "group_270" [weight = "1"];
  "group_679" -> "group_594" [weight = "1"];
  "group_67" -> "group_67" [weight = "1.33333333333333"];
  "group_680" -> "group_272" [weight = "0.666666666666667"];
  "group_680" -> "group_598" [weight = "1"];
  "group_680" -> "group_979" [weight = "2"];
  "group_682" -> "group_682" [weight = "1"];
  "group_684" -> "group_818" [weight = "4"];
  "group_685" -> "group_287" [weight = "1"];
  "group_685" -> "group_686" [weight = "8"];
  "group_687" -> "group_686" [weight = "1"];
  "group_689" -> "group_15" [weight = "1"];
  "group_689" -> "group_688" [weight = "1"];
  "group_690" -> "group_15" [weight = "1"];
  "group_690" -> "group_691" [weight = "1"];
  "group_691" -> "group_692" [weight = "1"];
  "group_693" -> "group_692" [weight = "1"];
  "group_694" -> "group_693" [weight = "1"];
  "group_694" -> "group_695" [weight = "1"];
  "group_695" -> "group_696" [weight = "1"];
  "group_697" -> "group_696" [weight = "1"];
  "group_697" -> "group_698" [weight = "1"];
  "group_698" -> "group_699" [weight = "1"];
  "group_700" -> "group_699" [weight = "1"];
  "group_700" -> "group_701" [weight = "1"];
  "group_702" -> "group_701" [weight = "1"];
  "group_703" -> "group_702" [weight = "1"];
  "group_703" -> "group_704" [weight = "1"];
  "group_704" -> "group_705" [weight = "1"];
  "group_705" -> "group_706" [weight = "1"];
  "group_708" -> "group_94" [weight = "0.072202166064982"];
  "group_708" -> "pdhD" [weight = "0.0961538461538461"];
  "group_709" -> "group_710" [weight = "0.069889341875364"];
  "group_710" -> "group_176" [weight = "0.0946372239747634"];
  "group_711" -> "group_278" [weight = "1"];
  "group_711" -> "group_304" [weight = "0.888888888888889"];
  "group_712" -> "group_713" [weight = "1"];
  "group_713" -> "group_714" [weight = "1"];
  "group_713" -> "group_715" [weight = "8"];
  "group_714" -> "group_715" [weight = "1"];
  "group_716" -> "group_277" [weight = "1"];
  "group_716" -> "group_715" [weight = "1"];
  "group_717" -> "group_147" [weight = "1"];
  "group_719" -> "group_718" [weight = "1"];
  "group_719" -> "group_720" [weight = "1"];
  "group_719" -> "group_819" [weight = "8"];
  "group_720" -> "group_721" [weight = "1"];
  "group_721" -> "group_722" [weight = "1"];
  "group_723" -> "group_722" [weight = "1"];
  "group_726" -> "group_727" [weight = "1"];
  "group_728" -> "group_727" [weight = "1"];
  "group_729" -> "group_728" [weight = "1"];
  "group_730" -> "group_731" [weight = "1"];
  "group_733" -> "group_734" [weight = "1"];
  "group_734" -> "group_735" [weight = "1"];
  "group_735" -> "group_736" [weight = "1"];
  "group_736" -> "group_300" [weight = "8"];
  "group_736" -> "group_307" [weight = "1"];
  "group_739" -> "group_740" [weight = "1"];
  "group_741" -> "group_741" [weight = "1.2"];
  "group_741" -> "group_935" [weight = "2.5"];
  "group_742" -> "group_210" [weight = "1"];
  "group_743" -> "group_743" [weight = "1"];
  "group_744" -> "group_744" [weight = "1"];
  "group_745" -> "group_745" [weight = "1"];
  "group_746" -> "group_437" [weight = "0.333333333333333"];
  "group_748" -> "group_444" [weight = "0.5"];
  "group_750" -> "group_158" [weight = "0.5"];
  "group_750" -> "group_43" [weight = "0.666666666666667"];
  "group_751" -> "group_23" [weight = "1"];
  "group_751" -> "group_752" [weight = "0.545454545454546"];
  "group_751" -> "repB_3" [weight = "1"];
  "group_752" -> "group_23" [weight = "0.75"];
  "group_753" -> "group_753" [weight = "0.685714285714286"];
  "group_754" -> "group_754" [weight = "2"];
  "group_755" -> "xerC_2" [weight = "0.75"];
  "group_757" -> "group_758" [weight = "0.75"];
  "group_757" -> "xerC_2" [weight = "0.75"];
  "group_759" -> "group_758" [weight = "0.75"];
  "group_759" -> "group_760" [weight = "0.75"];
  "group_760" -> "group_761" [weight = "0.75"];
  "group_763" -> "group_312" [weight = "0.285714285714286"];
  "group_763" -> "group_763" [weight = "2"];
  "group_764" -> "group_765" [weight = "0.258064516129032"];
  "group_766" -> "group_765" [weight = "0.19047619047619"];
  "group_766" -> "group_766" [weight = "8"];
  "group_766" -> "repB_1" [weight = "0.222222222222222"];
  "group_767" -> "group_767" [weight = "8"];
  "group_768" -> "group_767" [weight = "0.222222222222222"];
  "group_769" -> "group_769" [weight = "4"];
  "group_769" -> "topB_2" [weight = "0.222222222222222"];
  "group_76" -> "group_76" [weight = "1"];
  "group_770" -> "group_163" [weight = "0.205128205128205"];
  "group_770" -> "group_322" [weight = "0.5"];
  "group_771" -> "dhfr_2" [weight = "4"];
  "group_772" -> "group_771" [weight = "0.242424242424242"];
  "group_773" -> "group_772" [weight = "0.170212765957447"];
  "group_774" -> "group_775" [weight = "0.242424242424242"];
  "group_775" -> "group_776" [weight = "0.173913043478261"];
  "group_777" -> "group_776" [weight = "0.266666666666667"];
  "group_779" -> "ftsL" [weight = "0.275862068965517"];
  "group_779" -> "group_66" [weight = "0.16"];
  "group_780" -> "group_315" [weight = "0.156862745098039"];
  "group_781" -> "group_99" [weight = "0.216216216216216"];
  "group_782" -> "group_164" [weight = "0.266666666666667"];
  "group_783" -> "dnaG" [weight = "0.285714285714286"];
  "group_783" -> "group_784" [weight = "0.177777777777778"];
  "group_785" -> "group_784" [weight = "0.173913043478261"];
  "group_786" -> "group_785" [weight = "0.235294117647059"];
  "group_787" -> "group_786" [weight = "0.173913043478261"];
  "group_788" -> "group_788" [weight = "8"];
  "group_788" -> "group_789" [weight = "0.285714285714286"];
  "group_790" -> "group_789" [weight = "0.205128205128205"];
  "group_791" -> "group_44" [weight = "0.296296296296296"];
  "group_791" -> "group_792" [weight = "0.150943396226415"];
  "group_792" -> "group_318" [weight = "0.296296296296296"];
  "group_794" -> "group_795" [weight = "0.173913043478261"];
  "group_796" -> "group_795" [weight = "0.235294117647059"];
  "group_797" -> "group_321" [weight = "0.177777777777778"];
  "group_797" -> "group_796" [weight = "0.228571428571429"];
  "group_798" -> "group_321" [weight = "0.235294117647059"];
  "group_798" -> "group_67" [weight = "0.173913043478261"];
  "group_799" -> "group_800" [weight = "0.888888888888889"];
  "group_79" -> "group_79" [weight = "1"];
  "group_801" -> "group_800" [weight = "0.888888888888889"];
  "group_803" -> "group_804" [weight = "8"];
  "group_804" -> "group_805" [weight = "8"];
  "group_807" -> "group_806" [weight = "8"];
  "group_808" -> "group_809" [weight = "0.177777777777778"];
  "group_809" -> "group_810" [weight = "0.228571428571429"];
  "group_80" -> "group_80" [weight = "8"];
  "group_810" -> "group_324" [weight = "0.205128205128205"];
  "group_814" -> "group_660" [weight = "0.233009708737864"];
  "group_814" -> "group_661" [weight = "0.233009708737864"];
  "group_815" -> "group_816" [weight = "8"];
  "group_817" -> "group_325" [weight = "8"];
  "group_819" -> "group_718" [weight = "8"];
  "group_81" -> "group_473" [weight = "0.333333333333333"];
  "group_81" -> "group_518" [weight = "0.0530738611233967"];
  "group_820" -> "group_820" [weight = "8"];
  "group_822" -> "rpiA" [weight = "8"];
  "group_828" -> "group_827" [weight = "0.75"];
  "group_829" -> "group_562" [weight = "0.142857142857143"];
  "group_830" -> "group_830" [weight = "2"];
  "group_831" -> "group_831" [weight = "2"];
  "group_831" -> "group_878" [weight = "2"];
  "group_832" -> "group_833" [weight = "1"];
  "group_834" -> "group_833" [weight = "1"];
  "group_835" -> "group_331" [weight = "1"];
  "group_835" -> "group_834" [weight = "1"];
  "group_838" -> "group_170" [weight = "0.166666666666667"];
  "group_839" -> "group_838" [weight = "2"];
  "group_839" -> "group_840" [weight = "2"];
  "group_839" -> "group_884" [weight = "0.166666666666667"];
  "group_83" -> "group_125" [weight = "4"];
  "group_83" -> "group_482" [weight = "0.5"];
  "group_83" -> "group_509" [weight = "0.75"];
  "group_83" -> "group_510" [weight = "0.75"];
  "group_83" -> "group_83" [weight = "4"];
  "group_841" -> "group_62" [weight = "1"];
  "group_843" -> "group_844" [weight = "2"];
  "group_843" -> "group_845" [weight = "1"];
  "group_845" -> "group_844" [weight = "2"];
  "group_846" -> "group_845" [weight = "0.125"];
  "group_847" -> "group_846" [weight = "0.125"];
  "group_847" -> "group_848" [weight = "2"];
  "group_849" -> "group_848" [weight = "2"];
  "group_850" -> "group_849" [weight = "0.153846153846154"];
  "group_850" -> "group_851" [weight = "2"];
  "group_851" -> "group_101" [weight = "2"];
  "group_852" -> "group_853" [weight = "1"];
  "group_854" -> "group_853" [weight = "1"];
  "group_856" -> "group_127" [weight = "2"];
  "group_856" -> "group_855" [weight = "1"];
  "group_859" -> "group_14" [weight = "2"];
  "group_859" -> "int" [weight = "2"];
  "group_862" -> "group_335" [weight = "0.666666666666667"];
  "group_862" -> "xis" [weight = "0.153846153846154"];
  "group_863" -> "group_103" [weight = "0.4"];
  "group_865" -> "group_257" [weight = "1"];
  "group_866" -> "group_866" [weight = "2"];
  "group_868" -> "group_869" [weight = "1.42857142857143"];
  "group_868" -> "vanSD_1" [weight = "1.42857142857143"];
  "group_869" -> "group_870" [weight = "1.42857142857143"];
  "group_86" -> "group_86" [weight = "0.666666666666667"];
  "group_871" -> "group_870" [weight = "1.42857142857143"];
  "group_871" -> "phnE" [weight = "1.42857142857143"];
  "group_873" -> "ftsE" [weight = "1.42857142857143"];
  "group_879" -> "group_475" [weight = "5"];
  "group_880" -> "group_393" [weight = "5"];
  "group_881" -> "group_12" [weight = "0.212765957446809"];
  "group_881" -> "group_670" [weight = "0.285714285714286"];
  "group_882" -> "group_338" [weight = "0.153846153846154"];
  "group_882" -> "group_68" [weight = "0.5"];
  "group_882" -> "group_885" [weight = "1"];
  "group_882" -> "group_940" [weight = "0.181818181818182"];
  "group_883" -> "group_884" [weight = "0.166666666666667"];
  "group_885" -> "group_883" [weight = "1"];
  "group_886" -> "group_858" [weight = "2"];
  "group_887" -> "group_858" [weight = "2"];
  "group_887" -> "group_888" [weight = "2"];
  "group_890" -> "group_889" [weight = "2"];
  "group_890" -> "group_891" [weight = "2"];
  "group_892" -> "group_891" [weight = "2"];
  "group_892" -> "group_893" [weight = "2"];
  "group_898" -> "group_897" [weight = "2"];
  "group_898" -> "group_899" [weight = "2"];
  "group_899" -> "group_900" [weight = "2"];
  "group_89" -> "group_543" [weight = "1"];
  "group_89" -> "group_544" [weight = "0.153846153846154"];
  "group_89" -> "group_89" [weight = "1"];
  "group_901" -> "repB_3" [weight = "2"];
  "group_902" -> "group_903" [weight = "2"];
  "group_903" -> "pepV" [weight = "2"];
  "group_905" -> "group_905" [weight = "2"];
  "group_906" -> "group_906" [weight = "2"];
  "group_908" -> "group_909" [weight = "0.666666666666667"];
  "group_909" -> "group_339" [weight = "0.666666666666667"];
  "group_90" -> "clpE_2" [weight = "1"];
  "group_90" -> "group_591" [weight = "1"];
  "group_90" -> "group_678" [weight = "1"];
  "group_910" -> "group_911" [weight = "1"];
  "group_912" -> "group_911" [weight = "1"];
  "group_912" -> "group_913" [weight = "1"];
  "group_913" -> "group_914" [weight = "1"];
  "group_914" -> "group_915" [weight = "1"];
  "group_916" -> "group_915" [weight = "1"];
  "group_916" -> "group_917" [weight = "1"];
  "group_917" -> "group_918" [weight = "1"];
  "group_918" -> "uspA" [weight = "1"];
  "group_91" -> "group_634" [weight = "0.666666666666667"];
  "group_91" -> "group_91" [weight = "1.6"];
  "group_920" -> "group_179" [weight = "1.42857142857143"];
  "group_920" -> "group_353" [weight = "0.588235294117647"];
  "group_921" -> "group_492" [weight = "2"];
  "group_921" -> "group_922" [weight = "2"];
  "group_922" -> "group_923" [weight = "2"];
  "group_925" -> "group_137" [weight = "1"];
  "group_926" -> "group_925" [weight = "1"];
  "group_927" -> "group_114" [weight = "1"];
  "group_929" -> "group_36" [weight = "1"];
  "group_92" -> "group_292" [weight = "0.666666666666667"];
  "group_92" -> "group_92" [weight = "2"];
  "group_92" -> "group_924" [weight = "2"];
  "group_932" -> "group_933" [weight = "1"];
  "group_933" -> "group_53" [weight = "1"];
  "group_934" -> "group_934" [weight = "8"];
  "group_936" -> "group_236" [weight = "1"];
  "group_937" -> "mobC" [weight = "1"];
  "group_938" -> "group_68" [weight = "1"];
  "group_939" -> "group_68" [weight = "0.2"];
  "group_939" -> "group_940" [weight = "0.181818181818182"];
  "group_93" -> "group_292" [weight = "0.888888888888889"];
  "group_93" -> "group_293" [weight = "2"];
  "group_93" -> "group_93" [weight = "0.571428571428571"];
  "group_941" -> "group_170" [weight = "1"];
  "group_941" -> "group_942" [weight = "1"];
  "group_942" -> "fra" [weight = "1"];
  "group_945" -> "group_945" [weight = "2"];
  "group_946" -> "group_788" [weight = "2"];
  "group_946" -> "group_789" [weight = "2"];
  "group_948" -> "group_949" [weight = "2"];
  "group_948" -> "vanRB_2" [weight = "0.666666666666667"];
  "group_949" -> "group_950" [weight = "2"];
  "group_950" -> "group_951" [weight = "2"];
  "group_952" -> "group_951" [weight = "2"];
  "group_952" -> "group_953" [weight = "2"];
  "group_953" -> "group_954" [weight = "2"];
  "group_954" -> "nagJ" [weight = "2"];
  "group_958" -> "group_959" [weight = "2"];
  "group_95" -> "group_709" [weight = "0.0993377483443709"];
  "group_95" -> "rep_1" [weight = "0.0801603206412826"];
  "group_960" -> "group_959" [weight = "2"];
  "group_960" -> "group_961" [weight = "2"];
  "group_964" -> "group_965" [weight = "2"];
  "group_964" -> "yteP" [weight = "2"];
  "group_965" -> "group_966" [weight = "2"];
  "group_967" -> "group_966" [weight = "2"];
  "group_967" -> "group_968" [weight = "2"];
  "group_96" -> "group_137" [weight = "4"];
  "group_96" -> "group_441" [weight = "8"];
  "group_96" -> "group_96" [weight = "0.338028169014085"];
  "group_970" -> "group_969" [weight = "0.666666666666667"];
  "group_971" -> "group_342" [weight = "0.666666666666667"];
  "group_971" -> "group_970" [weight = "0.666666666666667"];
  "group_972" -> "msmK" [weight = "0.4"];
  "group_975" -> "group_976" [weight = "0.666666666666667"];
  "group_979" -> "group_597" [weight = "2"];
  "group_980" -> "group_291" [weight = "2"];
  "group_981" -> "group_982" [weight = "2"];
  "group_983" -> "group_983" [weight = "2"];
  "group_984" -> "group_984" [weight = "2"];
  "group_985" -> "group_985" [weight = "2"];
  "group_986" -> "group_986" [weight = "2"];
  "group_987" -> "group_988" [weight = "0.454545454545455"];
  "group_989" -> "group_988" [weight = "5"];
  "group_989" -> "group_990" [weight = "5"];
  "group_98" -> "group_328" [weight = "8"];
  "group_98" -> "group_98" [weight = "0.888888888888889"];
  "group_990" -> "group_991" [weight = "5"];
  "group_992" -> "group_992" [weight = "1"];
  "group_993" -> "group_993" [weight = "1"];
  "group_994" -> "group_750" [weight = "1"];
  "group_996" -> "group_393" [weight = "2"];
  "group_997" -> "group_83" [weight = "0.666666666666667"];
  "group_99" -> "group_67" [weight = "0.32"];
  "guaA" -> "group_958" [weight = "2"];
  "hsdR" -> "group_49" [weight = "0.333333333333333"];
  "hsdR" -> "hsdR" [weight = "1"];
  "int" -> "group_1076" [weight = "1"];
  "int" -> "group_14" [weight = "0.666666666666667"];
  "kstR2" -> "mefA" [weight = "1"];
  "lacB" -> "lacA" [weight = "2"];
  "lacB" -> "lacC" [weight = "0.133333333333333"];
  "lacC" -> "lacD2" [weight = "0.133333333333333"];
  "lacD2" -> "group_544" [weight = "0.133333333333333"];
  "licB" -> "group_428" [weight = "0.105263157894737"];
  "ligA" -> "group_177" [weight = "0.0594648166501487"];
  "marR" -> "group_801" [weight = "8"];
  "marR" -> "group_803" [weight = "8"];
  "mazE" -> "group_462" [weight = "1"];
  "mazE" -> "mazE" [weight = "4"];
  "mazE" -> "pemK" [weight = "0.156862745098039"];
  "mefA" -> "group_632" [weight = "2"];
  "mobC" -> "group_417" [weight = "0.164383561643836"];
  "mobC" -> "mobC" [weight = "0.296296296296296"];
  "mob_2" -> "group_158" [weight = "1"];
  "mob_2" -> "group_160" [weight = "0.333333333333333"];
  "mob_2" -> "group_268" [weight = "1"];
  "mob_2" -> "group_994" [weight = "1"];
  "mob_2" -> "mob_2" [weight = "0.363636363636364"];
  "mob_2" -> "rep_3" [weight = "1"];
  "mob" -> "group_762" [weight = "2"];
  "mob" -> "mob" [weight = "0.24390243902439"];
  "msmK" -> "cpdA" [weight = "0.4"];
  "nagB" -> "group_1075" [weight = "1"];
  "nagJ" -> "group_956" [weight = "2"];
  "nagK" -> "group_426" [weight = "0.666666666666667"];
  "nagK" -> "licB" [weight = "0.1"];
  "nusB" -> "folD" [weight = "2"];
  "nusB" -> "group_893" [weight = "2"];
  "panC" -> "panB" [weight = "0.166666666666667"];
  "panC" -> "panD" [weight = "0.166666666666667"];
  "pflA" -> "group_350" [weight = "0.238095238095238"];
  "phnD" -> "ftsE" [weight = "1.42857142857143"];
  "phnD" -> "yeiL" [weight = "1.42857142857143"];
  "phnE" -> "group_873" [weight = "1.42857142857143"];
  "prgN_1" -> "group_163" [weight = "0.2"];
  "prgN_1" -> "group_769" [weight = "0.2"];
  "prgN_1" -> "prgN_1" [weight = "8"];
  "prgN_2" -> "group_240" [weight = "0.0412938747419133"];
  "prgN_2" -> "group_257" [weight = "0.5"];
  "radC_2" -> "group_153" [weight = "0.888888888888889"];
  "radC_2" -> "group_645" [weight = "1"];
  "radC_2" -> "group_646" [weight = "2"];
  "radC" -> "group_194" [weight = "0.135593220338983"];
  "radC" -> "group_195" [weight = "0.216216216216216"];
  "relE_2" -> "group_520" [weight = "0.285714285714286"];
  "relE" -> "group_367" [weight = "0.0637280934678704"];
  "relG" -> "group_576" [weight = "0.5"];
  "relG" -> "group_651" [weight = "1"];
  "repB_1" -> "group_767" [weight = "0.205128205128205"];
  "repB_3" -> "group_1006" [weight = "2"];
  "repB_3" -> "repB_3" [weight = "0.263736263736264"];
  "repB_5" -> "repB_5" [weight = "0.227272727272727"];
  "repB_6" -> "group_501" [weight = "0.222222222222222"];
  "repB_9" -> "group_1072" [weight = "2"];
  "repN" -> "group_465" [weight = "0.5"];
  "repN" -> "group_467" [weight = "0.333333333333333"];
  "rep_1" -> "group_169" [weight = "0.0749063670411985"];
  "rep_1" -> "rep_1" [weight = "8"];
  "rep_2" -> "group_232" [weight = "0.0377833753148615"];
  "rep_2" -> "prgN_2" [weight = "0.156046814044213"];
  "rep_3" -> "group_762" [weight = "2"];
  "rep_3" -> "mob" [weight = "0.779220779220779"];
  "rep_3" -> "rep_3" [weight = "0.5"];
  "rep_5" -> "group_255" [weight = "3"];
  "rep_5" -> "mob_2" [weight = "0.75"];
  "rpsG" -> "fusA" [weight = "8"];
  "rpsG" -> "rpsL" [weight = "8"];
  "rpsL" -> "rpiA" [weight = "8"];
  "scrB" -> "group_110" [weight = "0.0282352941176471"];
  "scrB" -> "group_806" [weight = "8"];
  "scrB" -> "scrR" [weight = "0.32"];
  "sspP" -> "group_242" [weight = "2"];
  "sspP" -> "group_498" [weight = "0.210526315789474"];
  "sspP" -> "group_532" [weight = "0.666666666666667"];
  "sspP" -> "sspP" [weight = "1"];
  "topB_2" -> "topB_2" [weight = "4"];
  "toxN" -> "group_768" [weight = "0.242424242424242"];
  "toxN" -> "topB_2" [weight = "0.222222222222222"];
  "traE1" -> "group_137" [weight = "0.5"];
  "traE1" -> "group_155" [weight = "0.727272727272727"];
  "traE1" -> "repA" [weight = "2"];
  "traE1" -> "traE1" [weight = "0.170212765957447"];
  "vanA" -> "vanXA" [weight = "0.137931034482759"];
  "vanB" -> "group_908" [weight = "0.666666666666667"];
  "vanB" -> "vanXB" [weight = "0.153846153846154"];
  "vanHA" -> "group_108" [weight = "0.4"];
  "vanHA" -> "vanA" [weight = "0.114285714285714"];
  "vanHA" -> "vanSA" [weight = "0.8"];
  "vanHB" -> "vanB" [weight = "2"];
  "vanRA" -> "vanRA" [weight = "2"];
  "vanRB_1" -> "group_843" [weight = "2"];
  "vanRG" -> "group_401" [weight = "0.0896191187453323"];
  "vanSA" -> "vanRA" [weight = "0.16"];
  "vanSA" -> "vanSA" [weight = "4"];
  "vanSB_1" -> "group_339" [weight = "2"];
  "vanSB_1" -> "vanRB_1" [weight = "0.125"];
  "vanSD_1" -> "group_42" [weight = "1.42857142857143"];
  "vanWB" -> "vanHB" [weight = "0.2"];
  "vanXA" -> "vanXA" [weight = "4"];
  "vanXA" -> "vanYA" [weight = "0.666666666666667"];
  "vanYA" -> "vanYA" [weight = "1"];
  "vanYB" -> "vanSB_1" [weight = "2"];
  "vanYB" -> "vanWB" [weight = "0.2"];
  "vanZ" -> "group_831" [weight = "2"];
  "vanZ" -> "vanYA" [weight = "0.148148148148148"];
  "xerC" -> "group_190" [weight = "0.195121951219512"];
  "xis" -> "int" [weight = "0.153846153846154"];
  "xseA" -> "group_897" [weight = "2"];
  "yeiL" -> "group_877" [weight = "1.42857142857143"];
  "yfbU" -> "group_222" [weight = "0.25"];
  "yfbU" -> "group_486" [weight = "0.5"];
  "yoeB" -> "group_138" [weight = "0.25"];
  "yoeB" -> "group_725" [weight = "1"];
  "ytcP" -> "group_961" [weight = "2"];
  "ytcP" -> "yteP" [weight = "2"];
}
