E0029 1
E0059 2
E0060 1
E0066 1
E0069 1
E0070 2
E0084 2
E0092 1
E0097 3
E0098 4
E0107 3
E0114 5
E0128 6
E0129 1
E0130 1
E0131 1
E0135 1
E0138 1
E0139 1
E0142 1
E0144 1
E0149 1
E0150 1
E0151 2
E0155 7
E0227 1
E0300 7
E0323 1
E0429 6
E0446 8
E0447 8
E0449 6
E0450 8
E0451 6
E0452 8
E0453 6
E0454 6
E0455 6
E0457 6
E0460 2
E0461 2
E0462 1
E0463 1
E0470 3
E0498 1
E0548 1
E0550 1
E0553 1
E0555 1
E0559 1
E0563 1
E0565 1
E0567 1
E0571 1
E0574 1
E0577 1
E0579 1
E0583 1
E0584 2
E0587 2
E0589 1
E0592 1
E0595 1
E0597 1
E0601 1
E0603 1
E0607 1
E0610 1
E0613 1
E0616 1
E0619 1
E0625 2
E0628 1
E0631 1
E0633 1
E0637 1
E0638 1
E0639 5
E0642 1
E0643 1
E0645 1
E0646 1
E0647 1
E0649 1
E0650 2
E0651 1
E0653 1
E0654 1
E0655 1
E0656 1
E0657 1
E0659 1
E0660 1
E0661 1
E0662 2
E0663 1
E0664 1
E0665 1
E0666 1
E0667 1
E0668 1
E0669 2
E0671 1
E0672 2
E0673 1
E0742 1
E0743 1
E0744 1
E0746 1
E0975 3
E0982 3
E0999 3
E1025 2
E1028 6
E1043 5
E1133 7
E1141 2
E1162 9
E1172 4
E1181 4
E1186 4
E1193 4
E1250 5
E1267 7
E1277 9
E1302 4
E1303 4
E1308 4
E1321 9
E1328 3
E1329 3
E1334 5
E1435 7
E1469 2
E1485 1
E1488a 3
E1488b 3
E1489 3
E1504 10
E1582 5
E1583 3
E1677 3
E1680 4
E1695 2
E1716 7
E1717 4
E1721 11
E1738 4
E1760 4
E1764 1
E1766 1
E1768 1
E1772 2
E1773 2
E1774 4
E1775 2
E1777 1
E1778 2
E1779 5
E1780 5
E1781 2
E1782 5
E1882 2
E2036 4
E2063 2
E2065 2
E2068 3
E2069 2
E2070 3
E2073 2
E2074 2
E2076 2
E2078 1
E2081 2
E2083 9
E2086 1
E2091 2
E2092 1
E2096 2
E2098 6
E2099 6
E2100 6
E2101 6
E2102 6
E2103 6
E2104 6
E2105 6
E2107 6
E2108 6
E2109 6
E2110 6
E2111 6
E2112 6
E2113 6
E2114 6
E2116 6
E2117 6
E2118 6
E2119 6
E2120 6
E2121 6
E2122 4
E2123 6
E2124 6
E2125 6
E2126 6
E2127 2
E2128 6
E2129 6
E2130 6
E2131 6
E2132 6
E2133 6
E2135 6
E2136 6
E2359 4
E3160 12
E3449 12
E4178 2
E4179 13
E4181 4
E4196 6
E4197 6
E4199 8
E4200 8
E4201 8
E4202 8
E4203 8
E4204 8
E4205 8
E4206 8
E4207 8
E4208 8
E4209 8
E4210 8
E4211 8
E4212 8
E4213 8
E4214 8
E4216 8
E4217 8
E4218 8
E4219 8
E4220 8
E4221 8
E4222 8
E4223 8
E4224 8
E4225 8
E4226 8
E4227 8
E4228 8
E4229 8
E4230 8
E4231 8
E4232 8
E4233 8
E4234 8
E4235 8
E4236 8
E4237 8
E4238 8
E4239 8
E4240 8
E4241 8
E4242 8
E4243 8
E4244 8
E4245 8
E4347 5
E4348 3
E4352 3
E4353 3
E4354 3
E4356 3
E4390 14
E4391 14
E4392 14
E4393 14
E4394 14
E4395 14
E4396 14
E4398 14
E4399 14
E4400 14
E4401 14
E4402 14
E4403 14
E4404 14
E4406 14
E4407 14
E4408 14
E4409 14
E4410 14
E4411 14
E4412 14
E4413 14
E4414 14
E4415 14
E4416 14
E4417 14
E4418 14
E4419 14
E4420 14
E4421 14
E4422 14
E4423 14
E4424 14
E4425 14
E4426 14
E4428 14
E4429 14
E4430 14
E4431 14
E4432 14
E4433 14
E4434 14
E4435 14
E4436 14
E4437 14
E4438 14
E4439 14
E4440 14
E4441 14
E4442 14
E4443 14
E4444 14
E4445 14
E4446 14
E4447 14
E4448 14
E4449 14
E4450 14
E4451 14
E4454 3
E4455 14
E4456 4
E4457 14
E4458 2
E4459 3
E4460 14
E4461 14
E4462 14
E4463 6
E4464 6
E4465 14
E4466 14
E4467 14
E4468 14
E4469 14
E4470 14
E4471 14
E4472 14
E4473 14
E4474 14
E4564 14
E4565 10
E5189 3
E6009 15
E6010 16
E6011 16
E6012 16
E6013 16
E6014 15
E6015 16
E6016 16
E6017 15
E6018 16
E6019 16
E6020 17
E6021 17
E6022 17
E6023 16
E6024 17
E6025 15
E6026 16
E6027 16
E6028 16
E6029 18
E6030 15
E6031 16
E6032 16
E6033 16
E6034 17
E6035 15
E6036 16
E6037 15
E6038 15
E6039 16
E6040 15
E6041 15
E6042 15
E6043 15
E6044 15
E6045 17
E6046 12
E6047 17
E6048 17
E6049 17
E6050 12
E6051 17
E6052 17
E6053 4
E6054 17
E6055 19
E6056 12
E6057 12
E6058 12
E6059 12
E6060 12
E6061 12
E6062 12
E6063 17
E6064 17
E6065 12
E6066 12
E6067 17
E6068 19
E6072 10
E6073 10
E6074 4
E6075 10
E6076 10
E6086 17
E6094 12
E6684 12
E6685 10
E6686 10
E6687 3
E6689 10
E6690 10
E6691 4
E6692 10
E6693 10
E6850 10
E6852 17
E6853 10
E6854 10
E6855 10
E6856 12
E6857 10
E6951 15
E6953 17
E6954 11
E6955 17
E6956 17
E6957 17
E6958 11
E6959 17
E6961 15
E6962 15
E6963 15
E6964 15
E6965 15
E6966 15
E6967 19
E6968 15
E6969 15
E6970 15
E6971 20
E6972 17
E6973 17
E6975 17
E6976 17
E6977 10
E6978 19
E6979 7
E6980 1
E6981 16
E6982 15
E6983 15
E6984 15
E6985 16
E6986 15
E6987 12
E6988 16
E6989 15
E6990 15
E6991 15
E6992 15
E6993 15
E6994 15
E6995 15
E6996 19
E6997 15
E6999 12
E7000 15
E7001 15
E7002 12
E7003 15
E7004 15
E7005 4
E7006 4
E7007 20
E7008 4
E7009 17
E7010 17
E7011 15
E7012 15
E7013 17
E7014 15
E7015 15
E7016 16
E7017 15
E7018 15
E7019 15
E7020 18
E7021 17
E7022 15
E7023 16
E7024 15
E7025 18
E7026 15
E7027 15
E7028 15
E7029 16
E7030 16
E7031 18
E7032 15
E7033 17
E7034 15
E7035 16
E7036 15
E7038 16
E7039 15
E7040 15
E7041 15
E7042 15
E7043 16
E7044 15
E7045 12
E7046 11
E7053 12
E7054 12
E7055 11
E7056 11
E7057 17
E7058 1
E7059 12
E7060 16
E7061 15
E7062 16
E7063 15
E7064 19
E7065 16
E7066 15
E7067 15
E7068 15
E7069 16
E7070 16
E7071 15
E7072 17
E7073 17
E7074 15
E7075 12
E7076 15
E7077 15
E7078 15
E7079 15
E7080 15
E7081 12
E7082 16
E7083 15
E7084 15
E7085 18
E7086 15
E7087 17
E7088 15
E7091 15
E7092 17
E7093 15
E7094 16
E7095 16
E7096 16
E7097 16
E7098 16
E7099 15
E7100 18
E7101 15
E7102 15
E7103 15
E7104 12
E7105 15
E7106 20
E7107 20
E7109 17
E7110 17
E7111 12
E7112 18
E7113 17
E7114 17
E7115 15
E7116 10
E7151 15
E7152 15
E7153 15
E7154 16
E7155 18
E7156 15
E7157 15
E7158 15
E7159 15
E7160 20
E7161 15
E7162 15
E7163 12
E7164 12
E7165 15
E7166 11
E7167 15
E7168 18
E7169 19
E7170 19
E7171 12
E7172 18
E7173 17
E7174 17
E7175 16
E7176 20
E7177 20
E7178 15
E7179 17
E7180 17
E7181 12
E7182 12
E7183 17
E7184 17
E7185 17
E7186 10
E7187 12
E7188 17
E7189 17
E7190 17
E7191 17
E7192 17
E7193 11
E7194 11
E7195 21
E7196 10
E7197 10
E7198 4
E7199 4
E7200 22
E7201 22
E7202 19
E7203 18
E7204 18
E7205 17
E7207 15
E7208 17
E7209 10
E7210 18
E7211 15
E7212 12
E7213 23
E7215 17
E7216 15
E7217 12
E7218 12
E7219 15
E7220 17
E7221 18
E7222 17
E7223 15
E7224 17
E7225 17
E7226 12
E7227 17
E7229 18
E7230 18
E7231 17
E7232 17
E7233 24
E7234 15
E7235 12
E7236 17
E7237 12
E7238 17
E7239 15
E7240 17
E7241 17
E7242 17
E7243 17
E7244 10
E7245 10
E7246 17
E7247 17
E7248 17
E7249 15
E7250 17
E7251 10
E7252 17
E7253 18
E7254 10
E7255 19
E7256 17
E7257 17
E7258 10
E7259 18
E7260 18
E7261 15
E7262 18
E7263 10
E7264 5
E7265 15
E7266 17
E7267 17
E7268 17
E7269 17
E7270 10
E7271 12
E7272 24
E7300 20
E7308 11
E7309 11
E7310 11
E7311 11
E7312 23
E7313 23
E7314 23
E7315 23
E7316 23
E7317 23
E7318 24
E7319 23
E7320 23
E7321 7
E7322 24
E7323 11
E7324 11
E7325 11
E7326 11
E7327 11
E7328 24
E7329 10
E7330 7
E7331 7
E7332 19
E7333 25
E7334 19
E7335 2
E7336 19
E7337 24
E7338 24
E7339 24
E7340 24
E7342 7
E7343 24
E7344 24
E7348 19
E7349 19
E7351 19
E7352 19
E7353 19
E7354 19
E7355 19
E7356 19
E7357 19
E7358 19
E7359 19
E7360 23
E7361 23
E7362 24
E7363 24
E7366 17
E7367 24
E7368 25
E7369 7
E7375 24
E7376 24
E7377 17
E7378 17
E7379 24
E7380 24
E7381 24
E7382 24
E7383 24
E7386 19
E7388 19
E7389 19
E7391 2
E7392 23
E7393 19
E7394 23
E7401 4
E7402 19
E7403 10
E7404 23
E7405 17
E7407 19
E7408 23
E7409 23
E7410 23
E7411 23
E7412 19
E7413 25
E7414 25
E7415 25
E7416 25
E7417 25
E7418 17
E7419 25
E7422 19
E7423 19
E7424 17
E7425 17
E7426 10
E7427 10
E7428 19
E7429 19
E7430 19
E7431 10
E7432 4
E7434 19
E7436 10
E7437 7
E7438 10
E7439 10
E7440 17
E7441 17
E7444 2
E7461 10
E7462 10
E7463 10
E7464 10
E7465 10
E7466 10
E7467 10
E7470 23
E7471 18
E7474 13
E7475 13
E7476 23
E7477 17
E7478 23
E7479 25
E7480 25
E7481 25
E7482 25
E7483 25
E7484 25
E7485 25
E7486 19
E7487 10
E7488 10
E7489 10
E7490 19
E7491 23
E7492 19
E7493 10
E7495 25
E7496 25
E7497 25
E7498 25
E7499 25
E7500 23
E7501 23
E7502 25
E7503 23
E7504 23
E7506 24
E7507 24
E7508 24
E7509 24
E7510 24
E7511 24
E7512 24
E7513 23
E7514 24
E7515 24
E7516 25
E7518 25
E7519 25
E7520 25
E7521 25
E7522 23
E7523 23
E7524 25
E7525 25
E7526 25
E7527 25
E7528 25
E7529 25
E7530 25
E7531 25
E7534 25
E7535 25
E7536 25
E7537 25
E7538 25
E7539 7
E7543 25
E7544 25
E7545 25
E7546 1
E7547 7
E7548 13
E7549 25
E7550 25
E7551 25
E7553 19
E7554 24
E7555 23
E7556 17
E7573 23
E7574 2
E7575 25
E7576 25
E7577 23
E7578 25
E7579 25
E7580 1
E7581 25
E7583 10
E7585 23
E7586 23
E7587 25
E7588 25
E7589 23
E7590 10
E7591 23
E7592 23
E7593 19
E7594 19
E7595 19
E7596 21
E7597 2
E7599 25
E7603 23
E7607 10
E7608 23
E7609 1
E7610 10
E7611 10
E7612 10
E7613 10
E7640 10
E7641 23
E7642 10
E7643 10
E7644 10
E7645 10
E7646 10
E7647 10
E7648 10
E7649 10
E7650 10
E7651 10
E7652 10
E7653 10
E7654 10
E7655 10
E7656 10
E7657 10
E7658 10
E7659 10
E7660 19
E7662 19
E7663 10
E7664 10
E7665 10
E7666 10
E7667 10
E7668 10
E7669 10
E7670 10
E7671 10
E7672 23
E7673 23
E7674 10
E7675 10
E7676 10
E7677 10
E7678 17
E7679 10
E7680 10
E7681 10
E7682 10
E7683 10
E7684 23
E7685 2
E7686 19
E7687 10
E7688 23
E7689 19
E7690 23
E7692 10
E7693 10
E7694 10
E7695 10
E7696 23
E7697 23
E7698 23
E7699 23
E7700 23
E7701 10
E7702 10
E7703 23
E7704 10
E7705 10
E7706 10
E7707 10
E7708 10
E7709 10
E7710 10
E7711 23
E7712 10
E7833 10
E7835 19
E7836 23
E7837 11
E7838 24
E7839 10
E7840 23
E7842 23
E7850 23
E7856 10
E7857 10
E7858 23
E7860 23
E7861 23
E7862 23
E7872 23
E7874 10
E7876 23
E7877 23
E7882 23
E7884 23
E7885 23
E7886 23
E7889 24
E7890 23
E7891 24
E7892 24
E7893 23
E7894 24
E7895 24
E7896 24
E7897 24
E7898 24
E7899 24
E7900 24
E7901 24
E7902 24
E7903 24
E7904 24
E7905 24
E7906 24
E7907 24
E7908 24
E7909 24
E7910 24
E7911 24
E7912 24
E7913 24
E7914 24
E7915 24
E7917 24
E7918 24
E7919 24
E7920 24
E7921 24
E7922 24
E7923 24
E7924 24
E7925 24
E7926 1
E7927 24
E7928 19
E7931 23
E7932 23
E7933 24
E7934 24
E7935 24
E7936 24
E7937 24
E7938 24
E7939 24
E7940 24
E7941 24
E7942 23
E7943 24
E7944 24
E7945 24
E7946 22
E7947 22
E7948 22
E7949 22
E7950 22
E7951 22
E7952 19
E7953 22
E7954 10
E7962 23
E7963 23
E7964 23
E7965 23
E7966 13
E7967 23
E7968 23
E7969 23
E7970 23
E7986 23
E7987 23
E7989 23
E7990 23
E7991 23
E7992 23
E7993 23
E7994 23
E7995 23
E7996 23
E7997 24
E7998 24
E7999 23
E8000 23
E8001 23
E8002 23
E8003 23
E8004 23
E8005 23
E8008 23
E8009 23
E8010 1
E8011 23
E8012 23
E8013 23
E8014 23
E8015 23
E8016 23
E8017 23
E8018 23
E8019 4
E8020 23
E8022 19
E8023 19
E8024 19
E8025 19
E8026 21
E8027 19
E8028 23
E8030 22
E8031 22
E8032 22
E8033 3
E8034 3
E8035 23
E8036 22
E8037 22
E8038 19
E8039 21
E8040 19
E8041 19
E8042 14
E8043 10
E8044 23
E8045 19
E8046 11
E8047 19
E8048 22
E8049 19
E8050 19
E8051 24
E8052 21
E8053 24
E8054 24
E8055 24
E8056 24
E8057 19
E8058 19
E8059 19
E8062 19
E8110 24
E8111 24
E8112 24
E8121 24
E8122 24
E8123 24
E8124 24
E8125 13
E8126 24
E8127 24
E8128 22
E8129 23
E8130 23
E8131 24
E8145 24
E8146 23
E8147 23
E8148 24
E8150 21
E8152 24
E8153 24
E8154 24
E8155 23
E8156 23
E8157 23
E8158 23
E8163 23
E8164 23
E8165 11
E8166 19
E8167 23
E8168 23
E8170 23
E8172 14
E8173 23
E8174 23
E8175 23
E8176 1
E8177 1
E8178 24
E8179 13
E8180 13
E8181 11
E8182 23
E8183 24
E8184 23
E8185 23
E8187 13
E8188 23
E8189 23
E8190 23
E8191 23
E8192 23
E8193 17
E8194 19
E8195 19
E8196 24
E8197 24
E8198 24
E8199 24
E8200 13
E8201 23
E8202 19
E8203 19
E8204 24
E8205 23
E8206 24
E8207 17
E8208 17
E8209 21
E8210 23
E8211 23
E8212 24
E8213 24
E8214 24
E8215 24
E8216 24
E8217 24
E8218 24
E8219 24
E8220 24
E8221 19
E8222 24
E8223 24
E8224 23
E8225 24
E8232 10
E8233 17
E8234 10
E8235 11
E8236 21
E8237 7
E8238 24
E8239 23
E8240 24
E8241 24
E8242 24
E8262 24
E8263 19
E8264 24
E8265 24
E8266 24
E8267 24
E8268 24
E8269 24
E8270 22
E8271 24
E8272 24
E8273 24
E8274 24
E8275 24
E8276 24
E8277 24
E8278 24
E8279 24
E8280 24
E8281 24
E8282 24
E8283 24
E8284 24
E8285 23
E8286 24
E8287 24
E8288 24
E8289 24
E8290 24
E8299 24
E8300 24
E8301 24
E8302 24
E8303 24
E8304 24
E8305 24
E8306 24
E8307 24
E8308 24
E8309 24
E8310 24
E8311 24
E8312 24
E8313 24
E8314 24
E8315 24
E8316 24
E8317 24
E8319 24
E8320 24
E8321 24
E8322 23
E8323 17
E8324 24
E8325 24
E8326 24
E8328 24
E8329 24
E8330 24
E8333 24
E8334 24
E8335 24
E8336 24
E8337 24
E8338 24
E8339 17
E8340 12
E8341 4
E8342 4
E8343 10
E8344 12
E8345 10
E8346 12
E8347 12
E8348 12
E8349 12
E8350 10
E8351 12
E8352 24
E8353 24
E8354 24
E8355 24
E8356 24
E8357 24
E8358 24
E8359 24
E8360 24
E8375 24
E8376 24
E8377 24
E8378 24
E8379 24
E8380 24
E8381 24
E8382 24
E8386 24
E8387 23
E8388 23
E8390 23
E8391 24
E8392 1
E8393 4
E8394 4
E8395 23
E8396 2
E8397 4
E8398 10
E8399 12
E8400 12
E8401 19
E8402 17
E8403 1
E8404 19
E8405 23
E8406 10
E8407 4
E8408 24
E8409 24
E8410 10
E8412 22
E8413 19
E8414 24
E8415 23
E8416 17
E8418 19
E8419 24
E8420 24
E8421 23
E8422 22
E8423 23
E8424 15
E8425 15
E8426 15
E8427 4
E8428 24
E8429 19
E8430 19
E8431 23
E8432 24
E8433 4
E8434 22
E8435 22
E8436 15
E8437 23
E8438 23
E8439 13
E8440 22
E8441 3
E8442 23
E8443 22
E8444 23
E8445 22
E8446 23
E8447 13
E8448 13
E8449 23
E8450 1
E8451 24
E8452 22
E8453 24
E8454 3
E8455 4
E8456 4
E8457 22
E8458 22
E8459 13
E8460 22
E8461 2
E8466 14
E8471 6
E8476 14
E8481 14
E8486 14
E8501 14
E8506 14
E8511 4
E8516 4
E8521 3
E8526 4
E8531 14
E8534 5
E8539 14
E8544 14
E8549 14
E8554 14
E8564 14
E8569 14
E8574 14
E8579 14
E8589 26
E8594 2
E8599 4
E8614 6
E8619 4
E8624 3
E8629 26
E8634 14
E8635 14
E8640 14
E8645 3
E8650 14
E8655 14
E8660 14
E8665 4
E8670 9
E8676 14
E8691 14
E8702 11
E8715 14
E8720 6
E8725 14
E8730 6
E8735 2
E8740 14
E8745 14
E8750 4
E8755 14
E8760 8
E8765 8
E8770 4
E8775 6
E8780 14
E8785 14
E8790 26
E8795 4
E8800 5
E8805 6
E8815 6
E8821 2
E8827 5
E8832 14
E8837 2
E8842 14
E8847 14
E8852 14
E8857 14
E8862 14
E8872 14
E8877 5
E8882 4
E8887 3
E8897 14
E8902 2
E8907 14
E8912 2
E8917 15
E8922 6
E8927 14
E8932 14
E8937 2
E8947 26
E8952 26
E8957 14
E8962 2
E8965 14
E8970 26
E8975 6
E8980 2
E8985 3
E8990 14
E8995 4
E9000 23
E9001 4
E9002 13
E9003 22
E9004 22
E9005 13
E9006 4
E9007 13
E9009 13
E9010 1
E9011 10
E9012 22
E9013 22
E9014 24
E9015 1
E9016 2
E9017 23
E9018 19
E9026 14
E9036 5
E9041 14
E9046 14
E9051 5
E9056 2
E9061 14
E9071 14
E9076 5
E9081 14
E9086 2
E9091 1
E9096 26
E9111 2
E9116 2
E9121 19
E9126 14
E9131 6
E9141 13
E9146 14
E9151 14
E9156 2
E9161 14
E9166 26
E9171 14
E9176 4
E9181 6
E9256 5
E9261 4
E9262 14
