#query_name	seed_eggNOG_ortholog	seed_ortholog_evalue	seed_ortholog_score	predicted_gene_name	GO_terms	KEGG_KOs	BiGG_reactions	Annotation_tax_scope	OGs	bestOG|evalue|score	COG cat	eggNOG annot
FIBMOKAC_00001	565664.EFXG_02299	0.0	1638.8	GBS0386				bactNOG[38]	04V34@bacNOG,05M0A@bactNOG,0NF2D@firmNOG,0XRRR@NOG	05M0A|6.6e-117|395.1	S	domain protein
FIBMOKAC_00004	565664.EFXG_02302	0.0	1105.6	GBS0384				bactNOG[38]	04Y6V@bacNOG,06G9F@bactNOG,0NSR6@firmNOG,0Y5Y1@NOG	06G9F|5.2e-147|493.8	S	NA
FIBMOKAC_00011	944562.HMPREF9102_0205	4.9e-41	128.1					bactNOG[38]	054T5@bacNOG,08JBX@bactNOG,0P6J1@firmNOG,11ZGW@NOG	08JBX|1.3e-35|125.5	E	Peptidase family M23
FIBMOKAC_00012	565664.EFXG_02310	4.1e-68	215.9	GBS0402				bactNOG[38]	04SUT@bacNOG,07PBR@bactNOG,0NG9J@firmNOG,COG3451@NOG	07PBR|1.7e-32|115.6	U	Inherit from COG: type IV secretion system protein
FIBMOKAC_00014	545693.BMQ_1837	3.1e-232	762.6					bactNOG[38]	04TG7@bacNOG,05EKQ@bactNOG,0ND5F@firmNOG,COG3344@NOG	04TG7|1.3e-206|691.3	L	DNA polymerase
FIBMOKAC_00019	565664.EFXG_02313	0.0	1599.8					bactNOG[38]	04WPB@bacNOG,0610Z@bactNOG,0NNR0@firmNOG,12A0K@NOG	0610Z|3e-158|532.1	S	NA
FIBMOKAC_00020	565664.EFXG_02314	0.0	1889.0	GBS0396		K03205		bactNOG[38]	04VKD@bacNOG,0828D@bactNOG,0P381@firmNOG,COG3505@NOG	0828D|8.1e-228|761.8	U	Pfam:TraG
FIBMOKAC_00026	565664.EFXG_01297	1.5e-38	121.8					bactNOG[38]	07FGN@bactNOG,11YT1@NOG	07FGN|2.1e-39|139.3	S	NA
FIBMOKAC_00030	717962.CC1_12310	1.2e-47	155.7	SRTB		K07284		bactNOG[38]	08RJ0@bactNOG,0ESPS@cloNOG,0NIC9@firmNOG,COG3764@NOG	08RJ0|5.5e-56|193.6	M	(sortase) family
FIBMOKAC_00031	565664.EFXG_02323	0.0	1400.8					bactNOG[38]	05GI3@bactNOG,0NJM4@firmNOG,11PS2@NOG	05GI3|1.9e-82|280.9	M	Cell wall anchor domain protein
FIBMOKAC_00032	198094.BA_0688	9e-25	81.0	SRTA		K07284		bactNOG[38]	04UXT@bacNOG,08Z6X@bactNOG,0NJ7G@firmNOG,COG3764@NOG	08Z6X|7.3e-34|120.2	M	(sortase) family
FIBMOKAC_00035	945021.TEH_01350	6e-63	198.4	CBC_0280		K07498		bactNOG[38]	04ZA6@bacNOG,06HXZ@bactNOG,0NTAH@firmNOG,COG3316@NOG	06HXZ|9.7e-37|129.9	L	Transposase
FIBMOKAC_00036	940190.MPTP_0377	9.1e-78	251.5					bactNOG[38]	050D8@bacNOG,08WNI@bactNOG,0NKE0@firmNOG,11KZE@NOG	08WNI|8.7e-25|90.1	S	NA
FIBMOKAC_00037	226185.EF0363	2.5e-198	651.4	TRA905		K07493		bactNOG[38]	04RAJ@bacNOG,05D5G@bactNOG,0NDE0@firmNOG,COG3328@NOG	04RAJ|1.8e-172|576.7	L	Transposase
FIBMOKAC_00038	565664.EFXG_02504	4.9e-126	411.4	LDB1079				bactNOG[38]	04UVH@bacNOG,08ZUI@bactNOG,0NJWK@firmNOG,COG0582@NOG	08ZUI|7.2e-57|196.0	L	integrase family
FIBMOKAC_00039	565653.EGBG_01620	3.4e-49	161.9	BL01373				bactNOG[38]	04SQK@bacNOG,05VTR@bactNOG,0NF78@firmNOG,COG0582@NOG	05VTR|3.3e-29|105.1	L	Integrase
FIBMOKAC_00040	226185.EF0666	3.1e-88	282.4			K15975		bactNOG[38]	04Z9D@bacNOG,07G7Q@bactNOG,0NUEI@firmNOG,COG0346@NOG	07G7Q|6.7e-78|265.2	E	glyoxalase family
FIBMOKAC_00041	226185.EF0666	1.2e-53	168.6			K15975		bactNOG[38]	04Z9D@bacNOG,07G7Q@bactNOG,0NUEI@firmNOG,COG0346@NOG	07G7Q|4.5e-49|170.4	E	glyoxalase family
FIBMOKAC_00042	525367.HMPREF0556_11030	4.5e-73	237.8	RLIC		K02529		bactNOG[38]	04VV0@bacNOG,07T8W@bactNOG,0NID7@firmNOG,COG1609@NOG	07T8W|1.4e-64|221.3	K	Transcriptional regulator
FIBMOKAC_00043	945021.TEH_19790	9.3e-80	262.7	GALR		K02529		bactNOG[38]	04S3V@bacNOG,05CQ4@bactNOG,0NDWS@firmNOG,COG1609@NOG	05CQ4|7e-97|327.9	K	Transcriptional regulator
FIBMOKAC_00045	632245.CLP_3133	3.3e-109	359.3			K02027		bactNOG[38]	05F9H@bactNOG,0ER49@cloNOG,0NFKB@firmNOG,COG1653@NOG	05F9H|2.7e-111|375.5	G	extracellular solute-binding protein family 1
FIBMOKAC_00046	632245.CLP_3132	5.4e-73	240.2		GO:0005575,GO:0016020	K02025		bactNOG[38]	05E4X@bactNOG,0EQQX@cloNOG,0NEEM@firmNOG,COG1175@NOG	05E4X|4.9e-60|206.7	P	binding-protein-dependent transport systems inner membrane Component
FIBMOKAC_00047	702450.CUW_0422	9.9e-131	422.2		GO:0005575,GO:0016020	K02026		bactNOG[38]	05EX2@bactNOG,0I89X@eryNOG,0NDFP@firmNOG,COG0395@NOG	0I89X|4.3e-122|410.1	G	Binding-protein-dependent transport system inner membrane component
FIBMOKAC_00048	373903.Hore_23300	1.7e-215	711.4	MELA	GO:0000166,GO:0003674,GO:0003824,GO:0004553,GO:0004557,GO:0005488,GO:0005575,GO:0005622,GO:0005623,GO:0005737,GO:0005829,GO:0005975,GO:0005984,GO:0005994,GO:0005995,GO:0008150,GO:0008152,GO:0009056,GO:0009311,GO:0009313,GO:0009987,GO:0015925,GO:0016052,GO:0016787,GO:0016798,GO:0030145,GO:0036094,GO:0043167,GO:0043168,GO:0043169,GO:0044237,GO:0044238,GO:0044262,GO:0044275,GO:0044424,GO:0044444,GO:0044464,GO:0044723,GO:0044724,GO:0046352,GO:0046872,GO:0046914,GO:0048037,GO:0050662,GO:0051287,GO:0070403,GO:0071704,GO:0097159,GO:1901265,GO:1901363,GO:1901575	K07406	GALS3	bactNOG[38]	05F8D@bactNOG,0EPDW@cloNOG,0NDA4@firmNOG,COG1486@NOG	05F8D|2e-155|521.5	G	glycoside hydrolase family 4
FIBMOKAC_00049	388919.SSA_1003	1.4e-184	607.0	MSME	GO:0005575,GO:0005623,GO:0005886,GO:0016020,GO:0044464,GO:0071944	K10117		bactNOG[38]	04V8F@bacNOG,07YY3@bactNOG,0NEZ3@firmNOG,COG1653@NOG	07YY3|2.4e-110|373.2	G	extracellular solute-binding protein family 1
FIBMOKAC_00050	888048.HMPREF8577_0815	1.9e-147	484.8	MSMF	GO:0005575,GO:0016020	K10118		bactNOG[38]	04T94@bacNOG,05EZD@bactNOG,0NEXP@firmNOG,COG1175@NOG	05EZD|1.6e-91|309.6	P	ABC transporter, permease
FIBMOKAC_00051	388919.SSA_1005	8e-144	472.7	MSMG	GO:0005575,GO:0016020	K10119		bactNOG[38]	04RVK@bacNOG,05I1K@bactNOG,0NEK6@firmNOG,COG0395@NOG	05I1K|8.2e-87|294.2	P	ABC transporter
FIBMOKAC_00052	565655.ECBG_00456	0.0	1165.3	AGA		K07407		bactNOG[38]	04SEQ@bacNOG,05DME@bactNOG,0NDTR@firmNOG,COG3345@NOG	05DME|6.1e-287|957.9	G	alpha-galactosidase
FIBMOKAC_00053	1027396.LMOSA_11550	8.9e-170	555.5	MALL		K01182,K01187,K01226		bactNOG[38]	04R71@bacNOG,05CG3@bactNOG,0NE22@firmNOG,COG0366@NOG	04R71|1.7e-159|535.2	G	Oligo-1,6-glucosidase
FIBMOKAC_00054	626369.HMPREF0446_00236	5.2e-275	905.2	GTFA		K00690		bactNOG[38]	04SCU@bacNOG,07RK0@bactNOG,0NEFR@firmNOG,COG0366@NOG	07RK0|1.6e-217|725.9	G	Sucrose phosphorylase
FIBMOKAC_00055	945021.TEH_06020	6.2e-67	217.1	DSY0073		K07495		bactNOG[38]	04SPR@bacNOG,08T36@bactNOG,0NHGV@firmNOG,COG3385@NOG	08T36|9.5e-55|189.2	L	Transposase
FIBMOKAC_00056	945021.TEH_04420	2.1e-70	227.9	DSY0073		K07495		bactNOG[38]	04SPR@bacNOG,08T36@bactNOG,0NHGV@firmNOG,COG3385@NOG	08T36|4.3e-58|200.2	L	Transposase
FIBMOKAC_00057	226185.EF0165	1.3e-25	79.9					bactNOG[38]	04XK7@bacNOG,0631I@bactNOG,0NPAA@firmNOG,125GK@NOG	0631I|5e-26|93.0	S	Domain of unknown function (DUF3173)
FIBMOKAC_00059	226185.EF0166	1.3e-103	340.5					bactNOG[38]	04SQK@bacNOG,05VTR@bactNOG,0NF78@firmNOG,COG0582@NOG	05VTR|1e-59|205.7	L	Integrase
FIBMOKAC_00060	565664.EFXG_02254	7.1e-232	757.7	SP_0890				bactNOG[38]	08FNY@bactNOG,0P5HJ@firmNOG,COG0582@NOG	08FNY|7.5e-116|389.9	L	Phage integrase
FIBMOKAC_00062	565653.EGBG_00024	3.3e-47	151.2	SP_0889		K07341		bactNOG[38]	04WWQ@bacNOG,05VUM@bactNOG,0NNVP@firmNOG,COG3654@NOG	05VUM|5.4e-45|155.8	S	Death-On-Curing Family
FIBMOKAC_00064	565664.EFXG_02256	2.6e-118	384.9	IRC4				bactNOG[38]	04U90@bacNOG,05SRN@bactNOG,0NEAV@firmNOG,COG4283@NOG	05SRN|1.4e-71|242.7	S	Protein of unknown function (DUF1706)   
FIBMOKAC_00066	565664.EFXG_02752	3.8e-273	897.8	VNCS		K10819,K18345,K18986		bactNOG[38]	04T4M@bacNOG,05EP4@bactNOG,0NF6J@firmNOG,COG0642@NOG	05EP4|4.2e-155|520.1	T	Histidine kinase
FIBMOKAC_00067	226185.EF1864	1e-142	465.2	VNCR				bactNOG[38]	04S90@bacNOG,08S90@bactNOG,0NET2@firmNOG,COG0745@NOG	08S90|9.8e-105|352.1	T	response regulator
FIBMOKAC_00068	565664.EFXG_02182	1.4e-96	316.5	SUFS		K11717		bactNOG[38]	04RHR@bacNOG,05C9B@bactNOG,0NDF4@firmNOG,COG0520@NOG	04RHR|7.2e-87|294.9	E	Cysteine desulfurase
FIBMOKAC_00070	888064.HMPREF9088_2347	7.4e-97	318.9	ACIN_0074		K07485		bactNOG[38]	04VZA@bacNOG,08SSE@bactNOG,0NGM5@firmNOG,COG3464@NOG	08SSE|3.3e-73|250.1	L	Transposase
FIBMOKAC_00071	525309.HMPREF0494_2179	2.7e-21	64.4					bactNOG[38]	08C1E@bactNOG,0P4ZX@firmNOG,COG3464@NOG	08C1E|1.7e-28|102.6	L	Inherit from COG: transposase
FIBMOKAC_00072	565664.EFXG_02739	1.1e-230	754.1	GTSA		K02010,K02017,K02052,K10112		bactNOG[38]	04R89@bacNOG,05C53@bactNOG,0NDIN@firmNOG,COG3842@NOG	04R89|2.3e-139|467.3	E	ABC transporter, ATP-binding protein
FIBMOKAC_00073	565664.EFXG_02738	3.3e-174	570.7	MALF	GO:0005575,GO:0016020	K02053		bactNOG[38]	04TQW@bacNOG,05DPD@bactNOG,0NHM9@firmNOG,COG1177@NOG	05DPD|3.3e-82|278.8	E	Binding-protein-dependent transport systems, inner membrane component
FIBMOKAC_00074	565664.EFXG_02737	1.9e-173	568.1	CYST	GO:0005575,GO:0016020	K02054		bactNOG[38]	04SKB@bacNOG,05HQH@bactNOG,0NEF1@firmNOG,COG4132@NOG	05HQH|1.9e-87|297.3	P	binding-protein-dependent transport systems inner membrane Component
FIBMOKAC_00075	565664.EFXG_02736	3.4e-191	626.3					bactNOG[38]	04T0J@bacNOG,07XSB@bactNOG,0NG57@firmNOG,COG1524@NOG	07XSB|1.6e-86|294.1	S	type i phosphodiesterase nucleotide pyrophosphatase
FIBMOKAC_00076	565664.EFXG_02735	3.5e-247	812.6			K02055		bactNOG[38]	04SG5@bacNOG,05CY5@bactNOG,0NF1P@firmNOG,COG1840@NOG	05CY5|1e-136|458.8	P	solute-binding protein
FIBMOKAC_00077	565664.EFXG_02734	4.7e-180	586.8	HISK		K04486		bactNOG[38]	04VCJ@bacNOG,0813P@bactNOG,0P35Y@firmNOG,COG1387@NOG	0813P|5.4e-118|396.3	E	histidinol phosphate phosphatase hisj family
FIBMOKAC_00079	585501.HMPREF6123_2071	8.2e-32	102.1	PPIB		K03767,K03768		bactNOG[38]	08R5K@bactNOG,0EP8H@cloNOG,0NHB5@firmNOG,COG0652@NOG	0EP8H|7.5e-22|81.5	O	PPIases accelerate the folding of proteins (By similarity)
FIBMOKAC_00080	565664.EFXG_02732	3.4e-226	745.3	PFLA2		K04069,K20037	OBTFL,PFL	bactNOG[38]	05F1A@bactNOG,0NFTJ@firmNOG,COG1180@NOG	05F1A|7.6e-74|252.6	O	Pyruvate formate-lyase
FIBMOKAC_00081	720555.BATR1942_07520	2.7e-89	284.0					bactNOG[38]	04ZVQ@bacNOG,06RHJ@bactNOG,0NV0I@firmNOG,COG1961@NOG	06RHJ|9.6e-62|211.2	L	resolvase
FIBMOKAC_00082	469596.HMPREF9488_01286	1.7e-103	333.8	VANR		K18349		bactNOG[38]	05DPZ@bactNOG,0I6ZX@eryNOG,0NDYN@firmNOG,COG0745@NOG	0I6ZX|1.4e-109|367.9	T	Response regulator receiver domain protein
FIBMOKAC_00083	693746.OBV_09530	1.3e-138	456.8	VANS		K18350		bactNOG[38]	05F4T@bactNOG,0EQ39@cloNOG,0NDXY@firmNOG,COG0642@NOG	05F4T|1.8e-90|307.6	T	Histidine kinase
FIBMOKAC_00084	888064.HMPREF9088_2345	2.7e-185	609.3	GK0308		K07485		bactNOG[38]	04TWG@bacNOG,08SSE@bactNOG,0NGM5@firmNOG,COG3464@NOG	08SSE|5.1e-92|312.2	L	Transposase
FIBMOKAC_00086	298653.Franean1_7138	8.3e-136	443.3	LDHA		K03778,K18347	LDH_D	bactNOG[38]	00IBI@actNOG,05C5I@bactNOG,COG1052@NOG	00IBI|8.7e-130|435.4	C	Dehydrogenase
FIBMOKAC_00087	226185.EF2294	9.1e-177	583.9	DDL	GO:0005575,GO:0005622,GO:0005623,GO:0005737,GO:0005886,GO:0016020,GO:0044424,GO:0044464,GO:0071944	K01921,K15739,K18856	ALAALAr	bactNOG[38]	04YP7@bacNOG,05CPF@bactNOG,0ND93@firmNOG,COG1181@NOG	05CPF|1.7e-110|373.9	M	Cell wall formation (By similarity)
FIBMOKAC_00088	565664.EFXG_01479	5.2e-107	350.6	VANX	GO:0005575,GO:0005576	K08641		bactNOG[38]	08UQS@bactNOG,0NK6U@firmNOG,COG2173@NOG	08UQS|2.1e-58|201.0	M	dipeptidase
FIBMOKAC_00089	665959.HMPREF1013_04319	4.9e-127	413.6	VANYB	GO:0005575,GO:0005623,GO:0005886,GO:0016020,GO:0044464,GO:0071944	K07260,K18866		bactNOG[38]	04T6Q@bacNOG,08UZE@bactNOG,0NI2A@firmNOG,COG1876@NOG	08UZE|2e-97|329.0	M	carboxy-peptidase
FIBMOKAC_00090	768706.Desor_3890	6.5e-77	247.1					bactNOG[38]	05VD8@bactNOG,0F50Q@cloNOG,0NPEC@firmNOG,COG4767@NOG	05VD8|4.3e-44|153.3	V	Resistance protein
FIBMOKAC_00091	333990.CAT7_11445	3.9e-57	180.7	CADX		K03892		bactNOG[38]	08JAK@bactNOG,0P6IQ@firmNOG,COG0640@NOG	08JAK|2.1e-35|125.5	K	HTH_ARSR
FIBMOKAC_00092	333990.CAT7_11480	9.1e-67	211.4	SP_0888				bactNOG[38]	04Y9V@bacNOG,069Y6@bactNOG,0NS91@firmNOG,0XZMH@NOG	069Y6|1.9e-38|133.7	S	Toxin-antitoxin system, antitoxin component, AbrB family
FIBMOKAC_00093	333990.CAT7_11485	3.7e-59	186.9			K06218		bactNOG[38]	04XQH@bacNOG,063SU@bactNOG,0NR46@firmNOG,124TG@NOG	063SU|3.4e-35|123.1	S	NA
FIBMOKAC_00094	655812.HMPREF0061_0932	1.5e-105	341.4	RES				bactNOG[38]	04S9R@bacNOG,08C33@bactNOG,0NJXP@firmNOG,COG1961@NOG	04S9R|2.4e-73|249.2	L	resolvase
FIBMOKAC_00095	768726.HMPREF9178_1382	4.1e-51	166.4	SP_0111		K02003		bactNOG[38]	04UKA@bacNOG,08ZHV@bactNOG,0NIAM@firmNOG,COG1136@NOG	08ZHV|2.3e-64|219.7	V	(ABC) transporter
FIBMOKAC_00096	565664.EFXG_02819	0.0	1431.1	SP_0686		K02004		bactNOG[38]	04ZEI@bacNOG,06DXE@bactNOG,0P1AZ@firmNOG,COG4652@NOG	06DXE|1.4e-170|571.9	S	bacteriocin-associated integral membrane protein
FIBMOKAC_00098	565664.EFXG_02821	3.4e-99	318.1					bactNOG[38]	04XDG@bacNOG,0603S@bactNOG,0NN8I@firmNOG,0XUC3@NOG	0603S|8.8e-48|165.1	K	HTH_XRE
FIBMOKAC_00102	565664.EFXG_02190	5.5e-135	444.2	RODA		K03588,K05837		bactNOG[38]	04RF2@bacNOG,05CNI@bactNOG,0NDMX@firmNOG,COG0772@NOG	04RF2|4.6e-141|473.2	D	cell division protein
FIBMOKAC_00104	927691.LgelK3_010100007151	3.8e-29	90.6					bactNOG[38]	052KU@bacNOG,07BHU@bactNOG,0NZJT@firmNOG,0Z8EV@NOG	07BHU|1.7e-29|106.2	S	NA
FIBMOKAC_00105	913848.LcorcK3_010100006922	2e-97	317.8	REP				bactNOG[38]	050A7@bacNOG,063CS@bactNOG,0NVBY@firmNOG,COG5527@NOG	063CS|3.5e-54|187.6	L	Replication Protein
FIBMOKAC_00107	565664.EFXG_02827	5.3e-207	680.2	RLX				bactNOG[38]	04SHU@bacNOG,05MU5@bactNOG,0NDNT@firmNOG,COG3843@NOG	05MU5|7.8e-73|249.2	U	relaxase mobilization nuclease domain protein
FIBMOKAC_00108	565664.EFXG_02828	8.3e-50	154.1	MOBC				bactNOG[38]	051JH@bacNOG,0726H@bactNOG,0NXTN@firmNOG,0YZDW@NOG	0726H|5.1e-31|111.0	S	mobilization protein
FIBMOKAC_00109	565655.ECBG_00302	7.1e-67	215.4	CHPA		K07171		bactNOG[38]	04WUW@bacNOG,05MZG@bactNOG,0NKCG@firmNOG,COG2337@NOG	05MZG|1.1e-32|115.1	T	transcriptional modulator of maze toxin, mazf
FIBMOKAC_00112	1116231.SMA_1156	1.7e-145	478.6	LACX				bactNOG[38]	05007@bacNOG,05CQ9@bactNOG,0NGAK@firmNOG,COG2017@NOG	05CQ9|5.2e-93|314.7	G	aldose 1-epimerase
FIBMOKAC_00113	523794.Lebu_0590	1.8e-281	921.5	LACG	GO:0003674,GO:0003824,GO:0004553,GO:0005975,GO:0005984,GO:0005988,GO:0005990,GO:0008150,GO:0008152,GO:0009056,GO:0009311,GO:0009313,GO:0009987,GO:0015925,GO:0016052,GO:0016787,GO:0016798,GO:0033920,GO:0044237,GO:0044238,GO:0044262,GO:0044275,GO:0044723,GO:0044724,GO:0046352,GO:0071704,GO:1901575	K01220	6PGALSZ	bactNOG[38]	05CS2@bactNOG,0QF2Z@fusoNOG,COG2723@NOG	0QF2Z|3.2e-270|899.7	G	Glycosyl hydrolase family 1
FIBMOKAC_00114	523794.Lebu_0589	0.0	1031.5	LACE	GO:0005575,GO:0005623,GO:0005886,GO:0016020,GO:0044464,GO:0071944	K02761,K02787,K02788	LACpts	bactNOG[38]	05CK1@bactNOG,0QF99@fusoNOG,COG1455@NOG	0QF99|0.0|1015.5	G	Pts system
FIBMOKAC_00115	1116231.SMA_1159	4e-65	211.1	LACF	GO:0005575,GO:0005622,GO:0005623,GO:0005737,GO:0044424,GO:0044464	K02759,K02786	LACpts	bactNOG[38]	05VCP@bactNOG,COG1447@NOG	05VCP|1.9e-31|112.0	G	PTS System
FIBMOKAC_00116	1116231.SMA_1160	7.2e-217	712.0	LACD		K01635,K01671	TGBPA	bactNOG[38]	05D2M@bactNOG,COG3684@NOG	05D2M|1.8e-144|483.9	G	Aldolase
FIBMOKAC_00117	210007.SMU_1494	2.2e-126	411.8	LACC		K00882,K00917,K16370		bactNOG[38]	06VEM@bactNOG,COG1105@NOG	06VEM|2.7e-120|404.0	G	tagatose-6-phosphate kinase
FIBMOKAC_00118	467705.SGO_1518	1.7e-109	350.8	RPIB	GO:0003674,GO:0003824,GO:0004751,GO:0005975,GO:0005996,GO:0008150,GO:0008152,GO:0008786,GO:0009056,GO:0016052,GO:0016853,GO:0016860,GO:0016861,GO:0019313,GO:0019314,GO:0019316,GO:0019318,GO:0019320,GO:0044238,GO:0044723,GO:0044724,GO:0046365,GO:0046367,GO:0071704,GO:1901575	K01808,K01819	ALLPI,GAL6PI,RPI	bactNOG[38]	04YE5@bacNOG,08YZG@bactNOG,0NTKD@firmNOG,COG0698@NOG	04YE5|1.2e-105|353.8	G	galactose-6-phosphate isomerase subunit LacB (EC 5.3.1.26)
FIBMOKAC_00119	888064.HMPREF9088_2287	2.5e-90	291.8	LACA		K01819	GAL6PI	bactNOG[38]	04ZX4@bacNOG,05RSI@bactNOG,0NMAM@firmNOG,COG0698@NOG	05RSI|1.6e-67|229.2	G	Galactose-6-phosphate isomerase subunit LacA
FIBMOKAC_00120	888064.HMPREF9088_2289	4e-166	538.9	LACR		K02530,K06608		bactNOG[38]	0500S@bacNOG,05E98@bactNOG,0NJQ1@firmNOG,COG1349@NOG	0500S|1.3e-119|401.3	K	transcriptional regulator DeoR family
FIBMOKAC_00121	873447.SPB_0139	2.8e-44	143.1			K07025,K08723		bactNOG[38]	04V6H@bacNOG,07Z2B@bactNOG,0P35C@firmNOG,COG1011@NOG	07Z2B|1.7e-50|174.9	S	Hydrolase
FIBMOKAC_00122	649764.HMPREF0762_01506	4.2e-37	119.1	RELE		K06218		bactNOG[38]	00T4K@actNOG,05WY8@bactNOG,COG2026@NOG	05WY8|3.1e-35|123.3	D, J	addiction module toxin, RelE StbE family
FIBMOKAC_00124	945021.TEH_24410	2e-43	139.2					bactNOG[38]	05N5G@bactNOG,0NM83@firmNOG,COG0637@NOG	05N5G|1.7e-57|197.7	S	Hydrolase
FIBMOKAC_00125	290402.Cbei_0954	1.2e-196	645.6	ATOC		K19505		bactNOG[38]	05C1W@bactNOG,0EQHE@cloNOG,0ND8B@firmNOG,COG1221@NOG,COG3933@NOG	0EQHE|5.6e-268|894.6	K	Sigma-54 interaction domain protein
FIBMOKAC_00126	218493.SBG_3196	8.7e-93	300.0			K10708		bactNOG[38]	07T8B@bactNOG,0QPFP@gproNOG,17463@proNOG,COG2222@NOG	07T8B|9.5e-117|392.8	M	SIS domain
FIBMOKAC_00127	565664.EFXG_02474	2.5e-186	605.8			K02796,K19509		bactNOG[38]	04T8D@bacNOG,05F3R@bactNOG,0NDZ8@firmNOG,COG3716@NOG	04T8D|9.7e-167|556.5	G	IID component
FIBMOKAC_00128	565664.EFXG_02473	2.8e-162	533.0	SP_2162		K02795		bactNOG[38]	04SCM@bacNOG,05ETZ@bactNOG,0NDG0@firmNOG,COG3715@NOG	05ETZ|1.5e-83|283.0	G	PTS System
FIBMOKAC_00129	565664.EFXG_02472	3.7e-102	327.7			K02794		bactNOG[38]	0508K@bacNOG,05H6Z@bactNOG,0NJXJ@firmNOG,COG3444@NOG	05H6Z|1.6e-70|240.9	G	PTS System
FIBMOKAC_00130	565664.EFXG_02471	1.7e-87	279.8			K02793,K19506		bactNOG[38]	05298@bacNOG,05WWD@bactNOG,0NPGP@firmNOG,COG2893@NOG	05WWD|2.9e-48|166.3	G	IIa component
FIBMOKAC_00131	565664.EFXG_02470	4.8e-186	610.6			K06897		bactNOG[38]	08R8Y@bactNOG,0NF24@firmNOG,COG1237@NOG	08R8Y|4.1e-74|253.0	S	Beta-lactamase domain protein
FIBMOKAC_00132	565664.EFXG_02469	4e-141	462.3	CVAR_1349				bactNOG[38]	04RX2@bacNOG,05F96@bactNOG,0NEPM@firmNOG,COG4584@NOG	05F96|2.7e-56|194.7	L	Transposase
FIBMOKAC_00133	565664.EFXG_02469	4.9e-69	224.3	CVAR_1349				bactNOG[38]	04RX2@bacNOG,05F96@bactNOG,0NEPM@firmNOG,COG4584@NOG	05F96|9.7e-26|93.7	L	Transposase
FIBMOKAC_00134	888064.HMPREF9088_2015	2.5e-186	615.0	SACA		K01193	RAFH,SUCR	bactNOG[38]	054GC@bacNOG,08HKT@bactNOG,0P5XZ@firmNOG,COG1621@NOG	08HKT|1.2e-152|513.5	G	sucrose-6-phosphate hydrolase
FIBMOKAC_00135	246201.SM12261_0428	1.1e-153	502.4	UGPE	GO:0005575,GO:0005623,GO:0005886,GO:0016020,GO:0044464,GO:0071944	K02026,K10122,K17246		bactNOG[38]	05DR3@bactNOG,COG0395@NOG	05DR3|4e-89|302.0	G	abc transporter permease protein
FIBMOKAC_00136	246201.SM12261_0429	2.1e-163	531.9	MSMF	GO:0005575,GO:0016020	K02025,K10118,K10121		bactNOG[38]	04TM5@bacNOG,05DB9@bactNOG,0NGR3@firmNOG,COG1175@NOG	04TM5|5.8e-116|390.1	G	ABC transporter
FIBMOKAC_00137	904294.HMPREF9182_0425	1.6e-210	690.7	MSME		K02027,K10120		bactNOG[38]	05I68@bactNOG,0NETD@firmNOG,0XQ1X@NOG	05I68|1.5e-142|478.2	G	extracellular solute-binding protein family 1
FIBMOKAC_00138	565655.ECBG_03034	2.5e-128	421.3	LACI		K02529		bactNOG[38]	04TWX@bacNOG,05ETE@bactNOG,0NEAA@firmNOG,COG1609@NOG	0NEAA|6.2e-116|390.3	K	Transcriptional regulator
FIBMOKAC_00139	379731.PST_3435	5.2e-33	108.0	AAVE_2705				bactNOG[38]	05D13@bactNOG,0QHRS@gproNOG,16S0N@proNOG,COG4644@NOG	05D13|3e-33|118.2	L	transposase
FIBMOKAC_00140	1000570.HMPREF9966_0767	5.2e-77	250.9	TNPR				bactNOG[38]	04VHZ@bacNOG,07XR9@bactNOG,0NIA8@firmNOG,COG1961@NOG	07XR9|4.8e-57|196.2	L	resolvase
FIBMOKAC_00142	888064.HMPREF9088_0860	9.4e-142	461.8	INT				bactNOG[38]	050NG@bacNOG,06T33@bactNOG,0NVR2@firmNOG,0YKE0@NOG	06T33|3.6e-146|490.3	S	'Phage' integrase family
FIBMOKAC_00143	984892.SPSE_1803	2.3e-84	274.7	TNPR				bactNOG[38]	04VHZ@bacNOG,07XR9@bactNOG,0NIA8@firmNOG,COG1961@NOG	07XR9|8.7e-50|172.4	L	resolvase
FIBMOKAC_00145	930942.LaniK3_010100001957	7.2e-156	511.2			K02529,K03484		bactNOG[38]	04S1R@bacNOG,05ETE@bactNOG,0NEAA@firmNOG,COG1609@NOG	04S1R|1.1e-129|435.5	K	Sucrose operon repressor
FIBMOKAC_00146	936140.LfarK3_010100000475	9.2e-159	521.1	SCRK	GO:0003674,GO:0003824,GO:0004396,GO:0005488,GO:0005575,GO:0005623,GO:0005975,GO:0006793,GO:0006796,GO:0008150,GO:0008152,GO:0008865,GO:0009056,GO:0009987,GO:0016052,GO:0016301,GO:0016310,GO:0016740,GO:0016772,GO:0016773,GO:0019200,GO:0043167,GO:0043169,GO:0044237,GO:0044238,GO:0044262,GO:0044275,GO:0044723,GO:0044724,GO:0046835,GO:0046872,GO:0071704,GO:1901575	K00845,K00847,K00885	HEX7	bactNOG[38]	04R7H@bacNOG,05EVU@bactNOG,0NDAI@firmNOG,COG1940@NOG	05EVU|1.4e-93|317.8	G	fructokinase
FIBMOKAC_00147	930942.LaniK3_010100001952	5.7e-207	683.1	SACA	GO:0005575,GO:0005576	K01193,K01212,K03332	RAFH,SUCR	bactNOG[38]	054GC@bacNOG,08HKT@bactNOG,0P5XZ@firmNOG,COG1621@NOG	08HKT|4.9e-162|544.6	G	sucrose-6-phosphate hydrolase
FIBMOKAC_00148	762550.LEGAS_0098	3.4e-199	655.2	CSCB	GO:0005575,GO:0005623,GO:0005886,GO:0016020,GO:0044464,GO:0071944	K02532	SUCtpp	bactNOG[38]	05U0F@bactNOG,0NDSQ@firmNOG,0XQTD@NOG	05U0F|1.6e-157|527.5	G	oligosaccharide H symporter, major facilitator superfamily (MFS)
FIBMOKAC_00149	945021.TEH_03390	5.2e-26	81.4	NTHER_0714		K07483		bactNOG[38]	05Y0C@bactNOG,0NP2J@firmNOG,COG2963@NOG	05Y0C|7.9e-30|106.0	L	transposase, IS3 IS911 family protein
FIBMOKAC_00151	886872.LargK3_010100008446	2.1e-34	108.5					bactNOG[38]	05006@bacNOG,06RA0@bactNOG,0NV57@firmNOG,COG1192@NOG	06RA0|5.5e-45|157.0	D	replication-associated protein
FIBMOKAC_00152	1035189.HMPREF9954_1864	6.5e-144	467.9					bactNOG[38]	04ZFI@bacNOG,06PRI@bactNOG,0NTUS@firmNOG,0YFRN@NOG	06PRI|2.6e-173|580.4	S	Primase C terminal 1 (PriCT-1)
FIBMOKAC_00154	888064.HMPREF9088_0905	8.3e-178	581.4	LBUC_0165				bactNOG[38]	04SXJ@bacNOG,07W0U@bactNOG,0NFSZ@firmNOG,COG2826@NOG	07W0U|1.1e-157|527.5	L	Integrase
FIBMOKAC_00159	945021.TEH_00080	6.5e-31	103.3	SSB		K03111		bactNOG[38]	04U6Z@bacNOG,08UUM@bactNOG,0NI2T@firmNOG,COG0629@NOG	08UUM|8.5e-20|74.6	L	single-stranded DNA-binding protein
FIBMOKAC_00161	565664.EFXG_02293	1.8e-200	657.2	ABIGII				bactNOG[38]	04W73@bacNOG,05F2S@bactNOG,0NDGJ@firmNOG,0XQHH@NOG	05F2S|3.6e-77|263.0	S	Abortive infection protein AbiGII
FIBMOKAC_00162	565664.EFXG_02294	1.4e-137	448.6	ABIGI				bactNOG[38]	04Y3Q@bacNOG,05Q9D@bactNOG,0NKR7@firmNOG,11WH3@NOG	05Q9D|3.2e-54|186.5	S	Abortive infection protein AbiGI
FIBMOKAC_00164	565664.EFXG_02297	0.0	1483.1	TOPB		K03169		bactNOG[38]	054RY@bacNOG,08IYH@bactNOG,0P6FF@firmNOG,COG0550@NOG	08IYH|2.2e-203|681.1	L	Dna topoisomerase
FIBMOKAC_00165	565664.EFXG_02298	2.6e-239	785.6					bactNOG[38]	04V34@bacNOG,05M0A@bactNOG,0NF2D@firmNOG,0XRRR@NOG	05M0A|8.7e-33|116.5	S	domain protein
FIBMOKAC_00168	1045854.WKK_00090	8.3e-153	502.1	YBFG				bactNOG[38]	04T9M@bacNOG,05ESF@bactNOG,0NF6D@firmNOG,COG3409@NOG	05ESF|2e-208|697.5	M	Peptidoglycan binding domain protein
FIBMOKAC_00170	536227.CLCAR_0394	5.7e-95	309.5	RES				bactNOG[38]	07XR9@bactNOG,0ESV2@cloNOG,0NIA8@firmNOG,COG1961@NOG	07XR9|1.2e-72|247.3	L	resolvase
FIBMOKAC_00175	565664.EFXG_02258	8.3e-107	348.0	SCRA		K02755,K02756,K02757,K02777,K02808,K02809,K02810,K02817,K02818,K02819,K20107,K20108		bactNOG[38]	05C5Y@bactNOG,0NKPN@firmNOG,COG2190@NOG	0NKPN|2.1e-59|204.8	G	Pts system
FIBMOKAC_00176	565664.EFXG_02259	0.0	1102.4	PTSG		K02777,K02778,K02779,K02790,K02791	GLCpts	bactNOG[38]	04R94@bacNOG,05CI1@bactNOG,0NDGP@firmNOG,COG1263@NOG,COG1264@NOG	05CI1|7.2e-202|676.0	G	PTS System
FIBMOKAC_00177	565664.EFXG_02260	2.2e-152	499.1	NANE		K01788		bactNOG[38]	04T72@bacNOG,05C9S@bactNOG,0NF4Z@firmNOG,COG3010@NOG	05C9S|1e-105|357.6	G	Converts N-acetylmannosamine-6-phosphate (ManNAc-6-P) to N-acetylglucosamine-6-phosphate (GlcNAc-6-P) (By similarity)
FIBMOKAC_00178	565664.EFXG_02261	4.9e-176	576.2				S7PI	bactNOG[38]	04V9Z@bacNOG,06GGA@bactNOG,0NFVG@firmNOG,COG1737@NOG	06GGA|3.8e-79|268.8	K	transcriptional regulator
FIBMOKAC_00181	565664.EFXG_02263	3.5e-104	340.4	ISPLU5A		K07491		bactNOG[38]	08RS6@bactNOG,0NHEC@firmNOG,COG1943@NOG	08RS6|8e-69|234.1	L	transposase
FIBMOKAC_00182	565664.EFXG_02264	2.1e-126	409.5			K07483		bactNOG[38]	04W09@bacNOG,05MSP@bactNOG,0NN2G@firmNOG,COG2963@NOG	05MSP|9e-75|253.3	L	Transposase
FIBMOKAC_00184	565664.EFXG_00025	2.4e-68	225.5	SSB		K03111		bactNOG[38]	04U6Z@bacNOG,08UUM@bactNOG,0NI2T@firmNOG,COG0629@NOG	08UUM|7.2e-53|182.9	L	single-stranded DNA-binding protein
FIBMOKAC_00185	565664.EFXG_02293	4.7e-118	387.1	ABIGII				bactNOG[38]	04W73@bacNOG,05F2S@bactNOG,0NDGJ@firmNOG,0XQHH@NOG	05F2S|2.6e-69|237.1	S	Abortive infection protein AbiGII
FIBMOKAC_00186	565664.EFXG_02294	3.8e-51	167.0	ABIGI				bactNOG[38]	04Y3Q@bacNOG,05Q9D@bactNOG,0NKR7@firmNOG,11WH3@NOG	05Q9D|3.4e-51|176.6	S	Abortive infection protein AbiGI
FIBMOKAC_00189	565664.EFXG_02298	4.3e-198	650.1					bactNOG[38]	04V34@bacNOG,05M0A@bactNOG,0NF2D@firmNOG,0XRRR@NOG	05M0A|1.1e-29|106.3	S	domain protein
FIBMOKAC_00190	610130.Closa_4277	8e-26	79.0			K03710		bactNOG[38]	088RX@bactNOG,0F417@cloNOG,0P4D6@firmNOG,COG2188@NOG	088RX|4.5e-21|78.3	K	TRANSCRIPTIONAl REGULATOR GntR family
FIBMOKAC_00191	565664.EFXG_02480	1.1e-159	518.6			K03710		bactNOG[38]	08RHG@bactNOG,0NMAI@firmNOG,COG2188@NOG	08RHG|2e-75|256.2	K	transcriptional regulator
FIBMOKAC_00192	565664.EFXG_02481	9.1e-227	743.8			K19510		bactNOG[38]	083AK@bactNOG,0NEXI@firmNOG,COG2222@NOG	083AK|2.7e-130|437.6	M	Catalyzes the conversion of a range of fructosamine 6- phosphates to glucose 6-phosphate and a free amino acid (By similarity)
FIBMOKAC_00193	610130.Closa_4274	7.9e-34	108.8			K19506		bactNOG[38]	05XHR@bactNOG,0NP8S@firmNOG,COG2893@NOG	05XHR|1.5e-42|147.6	G	PTS system fructose IIA component
FIBMOKAC_00194	657313.RTO_13760	4.1e-51	165.2			K02794,K19507		bactNOG[38]	08WC8@bactNOG,0EV8N@cloNOG,0NJC9@firmNOG,COG3444@NOG	08WC8|5.5e-55|188.9	G	PTS system, sorbose subfamily, IIB component
FIBMOKAC_00195	908340.HMPREF9406_2213	2.6e-51	166.6			K19508		bactNOG[38]	08NP7@bactNOG,0NF9E@firmNOG,COG3715@NOG	08NP7|1.9e-72|246.7	G	PTS System
FIBMOKAC_00196	565664.EFXG_02485	4.2e-184	605.2			K02796,K19509		bactNOG[38]	05F3R@bactNOG,COG3716@NOG	05F3R|1.8e-105|356.4	G	pts system mannose fructose sorbose family iid
FIBMOKAC_00197	525254.HMPREF0072_1894	3.1e-31	97.7	SSPP	GO:0005575,GO:0005576,GO:0005618,GO:0005623,GO:0030312,GO:0044464,GO:0071944	K08258		bactNOG[38]	07DDB@bactNOG,0NZ9R@firmNOG,0ZDYI@NOG	07DDB|3.7e-45|157.5	O	Cysteine protease able to
FIBMOKAC_00199	913848.LcorcK3_010100006922	1.2e-91	298.8	REP				bactNOG[38]	050A7@bacNOG,063CS@bactNOG,0NVBY@firmNOG,COG5527@NOG	063CS|9.3e-55|189.5	L	Replication Protein
FIBMOKAC_00203	278197.PEPE_0081	1.2e-21	64.7					bactNOG[38]	052KT@bacNOG,073TJ@bactNOG,0NZ0C@firmNOG,0Z1JH@NOG	073TJ|7.9e-16|61.1	S	Enterocin A Immunity
FIBMOKAC_00207	913848.LcorcK3_010100006922	2.6e-97	317.3	REP				bactNOG[38]	050A7@bacNOG,063CS@bactNOG,0NVBY@firmNOG,COG5527@NOG	063CS|8e-56|193.0	L	Replication Protein
FIBMOKAC_00210	365659.smi_1709	1.4e-50	160.3	YYAR	GO:0008150,GO:0009636,GO:0042221,GO:0046677,GO:0050896	K19273		bactNOG[38]	04WK1@bacNOG,08U7W@bactNOG,0NHA3@firmNOG,11FF5@NOG	08U7W|2e-13|53.9	S	acetyltransferase
FIBMOKAC_00211	565664.EFXG_02757	9.3e-212	694.0	AADK		K05593		bactNOG[38]	04RXH@bacNOG,075D4@bactNOG,0NF5W@firmNOG,0YSKJ@NOG	075D4|3.7e-128|429.7	S	Aminoglycoside 6-adenylyltransferase
FIBMOKAC_00212	658659.HMPREF0983_02913	1.1e-117	380.3					bactNOG[38]	08FQI@bactNOG,0I9K1@eryNOG,0P5MK@firmNOG,COG0500@NOG	08FQI|1e-125|421.0	Q	Ribosomal protein L11 methyltransferase (PrmA)
FIBMOKAC_00213	391295.SSU05_0955	6.5e-195	637.2					bactNOG[38]	08TK5@bactNOG,11H18@NOG	08TK5|6.2e-108|363.4	S	DNA polymerase beta domain protein region
FIBMOKAC_00214	218495.SUB1185	6.4e-48	148.8					bactNOG[38]	0607G@bactNOG,0NNMN@firmNOG,121TV@NOG	0607G|3.4e-42|145.3	S	Inherit from NOG: domain protein
FIBMOKAC_00215	585528.GvagA14_010100002552	2.3e-59	189.9					bactNOG[38]	08469@bactNOG,121AE@NOG	08469|2.5e-65|223.0	S	NA
FIBMOKAC_00216	665959.HMPREF1013_03249	1.5e-89	289.1	SCLAV_1890		K18236		bactNOG[38]	052PW@bacNOG,06AV2@bactNOG,0NZAS@firmNOG,0Y108@NOG	06AV2|5.6e-84|284.5	S	NA
FIBMOKAC_00217	888064.HMPREF9088_1373	6.1e-45	141.6			K07498		bactNOG[38]	052CJ@bacNOG,06B51@bactNOG,0NYWY@firmNOG,COG3316@NOG	06B51|4.1e-35|124.1	L	transposase
FIBMOKAC_00218	272563.CD3280	1.6e-35	112.2	ATOC		K19505		bactNOG[38]	05C1W@bactNOG,0EQHE@cloNOG,0ND8B@firmNOG,COG1221@NOG,COG3933@NOG	0EQHE|4e-46|160.4	K	Sigma-54 interaction domain protein
FIBMOKAC_00219	1048834.TC41_2988	8.7e-35	110.5	HIPMA_0065		K07493		bactNOG[38]	04T4B@bacNOG,05D5G@bactNOG,0NDE0@firmNOG,COG3328@NOG	04T4B|2.3e-34|121.9	L	Transposase
FIBMOKAC_00220	226185.EF1874	1.5e-253	833.0	TRA905		K07493		bactNOG[38]	04RAJ@bacNOG,05D5G@bactNOG,0NDE0@firmNOG,COG3328@NOG	04RAJ|4.3e-179|598.4	L	Transposase
FIBMOKAC_00221	585394.RHOM_15480	2.1e-126	408.7			K03205		bactNOG[38]	0660M@bactNOG,122A7@NOG	0660M|3.2e-106|356.4	S	NA
FIBMOKAC_00222	411459.RUMOBE_01793	4.3e-62	200.2			K07258		bactNOG[38]	07X5F@bactNOG,0EQN5@cloNOG,0NFAB@firmNOG,COG1686@NOG	07X5F|1.7e-80|273.3	M	carboxy-peptidase
FIBMOKAC_00223	411468.CLOSCI_01539	1e-48	160.3	VANZ				bactNOG[38]	067X5@bactNOG,0EWXW@cloNOG,0NQY1@firmNOG,COG4767@NOG	067X5|3e-32|115.6	V	VanZ-like protein
FIBMOKAC_00224	565664.EFXG_02779	3.7e-95	308.1	REPA				bactNOG[38]	054IQ@bacNOG,08I14@bactNOG,0P62X@firmNOG,11GEP@NOG	08I14|2.1e-88|300.3	S	Replication initiator protein
FIBMOKAC_00228	523794.Lebu_0590	5.5e-180	586.4	LACG	GO:0003674,GO:0003824,GO:0004553,GO:0005975,GO:0005984,GO:0005988,GO:0005990,GO:0008150,GO:0008152,GO:0009056,GO:0009311,GO:0009313,GO:0009987,GO:0015925,GO:0016052,GO:0016787,GO:0016798,GO:0033920,GO:0044237,GO:0044238,GO:0044262,GO:0044275,GO:0044723,GO:0044724,GO:0046352,GO:0071704,GO:1901575	K01220	6PGALSZ	bactNOG[38]	05CS2@bactNOG,0QF2Z@fusoNOG,COG2723@NOG	0QF2Z|1.3e-188|630.6	G	Glycosyl hydrolase family 1
FIBMOKAC_00229	565664.EFXG_00051	1.3e-49	161.7	LACF	GO:0005575,GO:0005622,GO:0005623,GO:0005737,GO:0044424,GO:0044464	K02759,K02786	LACpts	bactNOG[38]	05VCP@bactNOG,0NNKC@firmNOG,COG1447@NOG	05VCP|4.2e-30|107.6	G	PTS System
FIBMOKAC_00230	565664.EFXG_00052	1.6e-266	877.2	LACE		K02761,K02787,K02788		bactNOG[38]	04SQJ@bacNOG,05CK1@bactNOG,0NEVE@firmNOG,COG1455@NOG	04SQJ|2.4e-258|861.5	G	pts system, lactose-specific
FIBMOKAC_00231	888064.HMPREF9088_0909	7.5e-20	60.8	LBUC_0165				bactNOG[38]	04SXJ@bacNOG,07W0U@bactNOG,0NFSZ@firmNOG,COG2826@NOG	07W0U|3.8e-14|55.8	L	Integrase
FIBMOKAC_00233	888064.HMPREF9088_2295	1.1e-103	335.2					bactNOG[38]	05006@bacNOG,06RA0@bactNOG,0NV57@firmNOG,COG1192@NOG	06RA0|4.8e-92|311.3	D	replication-associated protein
FIBMOKAC_00235	565664.EFXG_02779	2.3e-120	391.1	REPA				bactNOG[38]	054IQ@bacNOG,08I14@bactNOG,0P62X@firmNOG,11GEP@NOG	08I14|1.2e-91|311.0	S	Replication initiator protein
FIBMOKAC_00240	565664.EFXG_02293	5e-113	370.2	ABIGII				bactNOG[38]	04W73@bacNOG,05F2S@bactNOG,0NDGJ@firmNOG,0XQHH@NOG	05F2S|4.9e-74|252.7	S	Abortive infection protein AbiGII
FIBMOKAC_00241	565664.EFXG_02294	9.6e-58	188.4	ABIGI				bactNOG[38]	04Y3Q@bacNOG,05Q9D@bactNOG,0NKR7@firmNOG,11WH3@NOG	05Q9D|5.6e-52|179.2	S	Abortive infection protein AbiGI
FIBMOKAC_00243	565664.EFXG_02297	0.0	1234.2	TOPB		K03169		bactNOG[38]	054RY@bacNOG,08IYH@bactNOG,0P6FF@firmNOG,COG0550@NOG	08IYH|8.6e-185|619.6	L	Dna topoisomerase
FIBMOKAC_00245	565664.EFXG_02781	8.1e-304	998.4					bactNOG[38]	05D7C@bactNOG,0NEA6@firmNOG,0XPM6@NOG	05D7C|1.1e-97|331.0	S	plasmid recombination enzyme
FIBMOKAC_00251	565653.EGBG_00354	3.6e-244	802.6	NQR		K19784		bactNOG[38]	04UBN@bacNOG,07U8T@bactNOG,0NG9E@firmNOG,COG0431@NOG,COG2461@NOG	07U8T|3.5e-173|579.3	S	Nadph-dependent fmn reductase
FIBMOKAC_00252	764299.STRIC_0715	1.8e-84	270.2					bactNOG[38]	07T21@bactNOG,COG0431@NOG	07T21|9.4e-96|322.3	S	NADPH-dependent FMN reductase
FIBMOKAC_00253	226185.EF1225	1.6e-105	343.4	APBE	GO:0005575,GO:0005623,GO:0005886,GO:0016020,GO:0044464,GO:0071944	K03734		bactNOG[38]	04TMK@bacNOG,05CJ2@bactNOG,0NE48@firmNOG,COG1477@NOG	04TMK|1.9e-126|424.2	H	Thiamine biosynthesis
FIBMOKAC_00254	565653.EGBG_00351	3.5e-151	493.2	PLCR				bactNOG[38]	04TUD@bacNOG,08SU3@bactNOG,0NHUS@firmNOG,11HA7@NOG	08SU3|6.7e-105|354.0	K	transcriptional regulator
FIBMOKAC_00255	435842.HMPREF0848_00723	2.1e-82	262.5					bactNOG[38]	06EK5@bactNOG,COG3316@NOG	06EK5|7.9e-60|203.3	L	Transposase
FIBMOKAC_00256	745277.Rahaq2_1681	3.2e-126	409.9			K10708		bactNOG[38]	07T8B@bactNOG,0QPFP@gproNOG,17463@proNOG,COG2222@NOG	07T8B|4.2e-130|436.7	M	SIS domain
FIBMOKAC_00257	886882.PPSC2_c0762	4e-102	333.7	FRLD		K10710		bactNOG[38]	08KPW@bactNOG,COG0524@NOG	08KPW|6.7e-96|323.9	G	sugar kinase
FIBMOKAC_00258	290402.Cbei_4797	5.6e-65	212.5			K03492,K03710,K10711		bactNOG[38]	05FDP@bactNOG,0EUAM@cloNOG,0NEHV@firmNOG,COG2188@NOG	0EUAM|2.8e-77|262.3	K	Transcriptional regulator, GntR family
FIBMOKAC_00259	565664.EFXG_00263	6.4e-237	775.9					bactNOG[38]	04USS@bacNOG,08VEX@bactNOG,0NIHN@firmNOG,COG0477@NOG	08VEX|1.8e-143|481.1	G	Major Facilitator
FIBMOKAC_00260	565664.EFXG_00262	0.0	1728.8	GALA		K07407		bactNOG[38]	04SEQ@bacNOG,05DME@bactNOG,0NDTR@firmNOG,COG3345@NOG	05DME|9.2e-279|930.8	G	alpha-galactosidase
FIBMOKAC_00261	904294.HMPREF9182_1176	1.7e-79	260.3					bactNOG[38]	08R6W@bactNOG,0NHS1@firmNOG,COG2207@NOG	08R6W|8.7e-62|212.4	K	Transcriptional regulator, ARAC family
FIBMOKAC_00262	888064.HMPREF9088_1371	1.5e-78	250.4	LLMG_1348				bactNOG[38]	05161@bacNOG,063JJ@bactNOG,0NPRD@firmNOG,124T6@NOG	063JJ|8.4e-55|186.7	S	Phage derived protein Gp49-like (DUF891)
FIBMOKAC_00263	888064.HMPREF9088_1370	1.3e-55	174.1					bactNOG[38]	04XQ0@bacNOG,067QW@bactNOG,0NP9D@firmNOG,0XUC3@NOG	04XQ0|1.9e-31|111.0	K	Transcriptional regulator
FIBMOKAC_00264	1140.Synpcc7942_B2655	1.3e-29	94.8					bactNOG[38]	08U3J@bactNOG,0FU92@cyaNOG,11I4Y@NOG	08U3J|9.6e-26|94.0	S	NA
FIBMOKAC_00265	279808.SH2310	1.2e-33	103.3					bactNOG[38]	083KF@bactNOG,COG1961@NOG	083KF|7.3e-24|87.5	L	Resolvase, N terminal domain
FIBMOKAC_00269	565664.EFXG_02509	2.1e-261	858.1	VEX1	GO:0005575,GO:0005623,GO:0005886,GO:0016020,GO:0044464,GO:0071944	K02004		bactNOG[38]	04T2H@bacNOG,07WD8@bactNOG,0NGRT@firmNOG,COG0577@NOG	07WD8|1.5e-158|531.6	V	ABC transporter, permease
FIBMOKAC_00270	226185.EF1868	1.5e-138	452.3	VEX2		K02003		bactNOG[38]	04SNI@bacNOG,06C35@bactNOG,0NEHH@firmNOG,COG1136@NOG	06C35|1.6e-93|315.1	V	abc transporter atp-binding protein
FIBMOKAC_00271	565664.EFXG_02511	1.2e-293	966.1	VEX3		K02004		bactNOG[38]	04T8R@bacNOG,07F0N@bactNOG,0NEH9@firmNOG,COG0577@NOG	07F0N|5e-149|500.2	V	abc transporter permease protein
FIBMOKAC_00272	1042156.CXIVA_07100	6.8e-176	577.3		GO:0005575,GO:0005622,GO:0005623,GO:0005737,GO:0044424,GO:0044464	K02342,K03763,K09951		bactNOG[38]	082FN@bactNOG,0F0ER@cloNOG,0NMGU@firmNOG,COG2176@NOG	082FN|1.9e-117|396.2	L	DNA polymerase iii
FIBMOKAC_00273	411461.DORFOR_00478	1.6e-129	417.9					bactNOG[38]	06SXI@bactNOG,0F067@cloNOG,0NVGU@firmNOG,0YK5G@NOG	06SXI|5.6e-122|410.0	S	NA
FIBMOKAC_00275	565664.EFXG_02777	2.6e-174	567.3			K03496		bactNOG[38]	08V4A@bactNOG,0NIMG@firmNOG,COG1192@NOG	08V4A|2.2e-105|354.9	D	YhjQ protein
FIBMOKAC_00277	565664.EFXG_02779	4.1e-228	745.1	REPA				bactNOG[38]	054IQ@bacNOG,08I14@bactNOG,0P62X@firmNOG,11GEP@NOG	08I14|1.8e-140|471.6	S	Replication initiator protein
FIBMOKAC_00278	198094.BA_1397	6.6e-23	71.7		GO:0003674,GO:0003824,GO:0008150,GO:0008152	K17910		bactNOG[38]	04X1C@bacNOG,08RXT@bactNOG,0NQAX@firmNOG,11J3H@NOG	08RXT|3.3e-37|131.3	S	Aminoglycoside phosphotransferase
FIBMOKAC_00279	565664.EFXG_02579	2.6e-89	284.6					bactNOG[38]	04Z7H@bacNOG,06EKP@bactNOG,0NTNN@firmNOG,0Y6KY@NOG	06EKP|2.1e-77|261.1	S	Acetyltransferase (GNAT) family
FIBMOKAC_00281	158878.SAVP028	3.3e-60	190.1					bactNOG[38]	05PAG@bactNOG,0NZ5G@firmNOG,11WA6@NOG	05PAG|1.9e-34|121.5	L	Transposase
